{
   "abstract" : "Deploy twitter-bootstrap(v.2.3.2) into your webapp",
   "author" : [
      "ytnobody <ytnobody@gmail.com>"
   ],
   "dynamic_config" : 0,
   "generated_by" : "Minilla/v0.6.5",
   "license" : "perl_5",
   "meta-spec" : {
      "url" : "http://search.cpan.org/perldoc?CPAN::Meta::Spec",
      "version" : "2"
   },
   "name" : "Nephia-Setup-Plugin-Assets-Bootstrap",
   "no_index" : {
      "directory" : [
         "t",
         "xt",
         "inc",
         "share",
         "eg",
         "examples",
         "author"
      ]
   },
   "prereqs" : {
      "configure" : {
         "requires" : {
            "CPAN::Meta" : "0",
            "CPAN::Meta::Prereqs" : "0",
            "Module::Build" : "0.38"
         }
      },
      "develop" : {
         "requires" : {
            "Test::CPAN::Meta" : "0",
            "Test::MinimumVersion" : "0.10108",
            "Test::Pod" : "1.41",
            "Test::Spellunker" : "v0.2.7"
         }
      },
      "runtime" : {
         "requires" : {
            "MIME::Base64" : "0",
            "Nephia" : "0.80",
            "perl" : "5.008005"
         }
      },
      "test" : {
         "requires" : {
            "Test::More" : "0.98"
         }
      }
   },
   "provides" : {
      "Nephia::Setup::Plugin::Assets::Bootstrap" : {
         "file" : "lib/Nephia/Setup/Plugin/Assets/Bootstrap.pm",
         "version" : "0.02"
      },
      "Nephia::Setup::Plugin::Assets::Bootstrap::Archive_2_3_2" : {
         "file" : "lib/Nephia/Setup/Plugin/Assets/Bootstrap/Archive_2_3_2.pm"
      }
   },
   "release_status" : "stable",
   "resources" : {
      "bugtracker" : {
         "web" : "https://github.com/nephia/Nephia-Setup-Plugin-Assets-Bootstrap/issues"
      },
      "homepage" : "https://github.com/nephia/Nephia-Setup-Plugin-Assets-Bootstrap",
      "repository" : {
         "url" : "git://github.com/nephia/Nephia-Setup-Plugin-Assets-Bootstrap",
         "web" : "https://github.com/nephia/Nephia-Setup-Plugin-Assets-Bootstrap"
      }
   },
   "version" : "0.02"
}
