{
   "abstract" : "manage per-service rate limitations",
   "author" : [
      "Binary.com <perl@binary.com>"
   ],
   "dynamic_config" : 0,
   "generated_by" : "Dist::Zilla version 6.005, Dist::Milla version v1.0.16, CPAN::Meta::Converter version 2.143240",
   "license" : [
      "perl_5"
   ],
   "meta-spec" : {
      "url" : "http://search.cpan.org/perldoc?CPAN::Meta::Spec",
      "version" : 2
   },
   "name" : "RateLimitations",
   "no_index" : {
      "directory" : [
         "eg",
         "examples",
         "inc",
         "share",
         "t",
         "xt"
      ]
   },
   "prereqs" : {
      "configure" : {
         "requires" : {
            "Module::Build::Tiny" : "0.034"
         }
      },
      "develop" : {
         "requires" : {
            "Dist::Milla" : "v1.0.16",
            "Test::Pod" : "1.41"
         }
      },
      "runtime" : {
         "requires" : {
            "Cache::RedisDB" : "0.07",
            "Config::Onion" : "1.004",
            "Time::Duration::Concise" : "1.3",
            "perl" : "v5.10.0"
         }
      },
      "test" : {
         "recommends" : {
            "Test::RedisServer" : "0.14"
         },
         "requires" : {
            "Test::FailWarnings" : "0.008",
            "Test::MockTime" : "0.13",
            "Test::Most" : "0.34"
         }
      }
   },
   "release_status" : "stable",
   "resources" : {
      "bugtracker" : {
         "web" : "https://github.com/binary-com/perl-RateLimitations/issues"
      },
      "homepage" : "https://github.com/binary-com/perl-RateLimitations",
      "repository" : {
         "type" : "git",
         "url" : "https://github.com/binary-com/perl-RateLimitations.git",
         "web" : "https://github.com/binary-com/perl-RateLimitations"
      }
   },
   "version" : "0.04",
   "x_contributors" : [
      "Chylli <chylli@binary.com>",
      "Matt Miller <matt@binary.com>",
      "Sasha Murzin <sasha@binary.com>"
   ]
}

