{
   "abstract" : "Evaluate and print out each line before it is executed.",
   "author" : [
      "Marty O'Brien <mob@cpan.org>"
   ],
   "dynamic_config" : 1,
   "generated_by" : "ExtUtils::MakeMaker version 7.04, CPAN::Meta::Converter version 2.143240",
   "license" : [
      "perl_5"
   ],
   "meta-spec" : {
      "url" : "http://search.cpan.org/perldoc?CPAN::Meta::Spec",
      "version" : "2"
   },
   "name" : "Devel-DumpTrace",
   "no_index" : {
      "directory" : [
         "t",
         "inc"
      ],
      "package" : [
         "Text::Shorten",
         "Devel::DumpTrace::Const",
         "Devel::DumpTrace::CachedDisplayedArray",
         "Devel::DumpTrace::CachedDisplayedHash",
         "Devel::DumpTrace::noPPI"
      ]
   },
   "prereqs" : {
      "build" : {
         "requires" : {
            "ExtUtils::MakeMaker" : "0"
         }
      },
      "configure" : {
         "requires" : {
            "ExtUtils::MakeMaker" : "0"
         }
      },
      "runtime" : {
         "requires" : {
            "Hash::SafeKeys" : "0.01",
            "PadWalker" : "1.5",
            "Scalar::Util" : "1.14",
            "Test::More" : "0"
         }
      }
   },
   "release_status" : "stable",
   "version" : "0.22"
}
