{
    "type": [ "null", "object" ],
    "properties": {
      "date-parts": {
        "type": "array",
        "items": {
          "type": "array",
          "items": {
            "type": [
              "string",
              "number"
            ]
          },
          "maxItems": 3
        },
        "maxItems": 2
      },
      "season": {
        "type": [
          "string",
          "number"
        ]
      },
      "circa": {
        "type": [
          "string",
          "number",
          "boolean"
        ]
      },
      "literal": {
        "type": "string"
      },
      "raw": {
        "type": "string",
        "pattern": "^(\\d{4})$|^(\\d{4})-(\\d{2})$|^(\\d{4})-(\\d{2})-(\\d{2})$|^\\d{4}-\\d{2}-\\d{2}T\\d{2}:\\d{2}:\\d{2}Z$"
      }
    },
    "additionalProperties": false
}
