{
   "abstract" : "generate random newspaper headlines",
   "author" : [
      "Chris Williams <chris@bingosnet.co.uk>"
   ],
   "dynamic_config" : 0,
   "generated_by" : "Dist::Zilla version 6.007, CPAN::Meta::Converter version 2.150010",
   "license" : [
      "perl_5"
   ],
   "meta-spec" : {
      "url" : "http://search.cpan.org/perldoc?CPAN::Meta::Spec",
      "version" : 2
   },
   "name" : "Acme-Daily-Fail",
   "prereqs" : {
      "configure" : {
         "requires" : {
            "ExtUtils::MakeMaker" : "0"
         }
      },
      "develop" : {
         "requires" : {
            "Pod::Coverage::TrustPod" : "0",
            "Test::Pod" : "1.41",
            "Test::Pod::Coverage" : "1.08"
         }
      },
      "runtime" : {
         "requires" : {
            "Math::Random" : "0.69",
            "constant" : "0",
            "perl" : "v5.6.0"
         }
      },
      "test" : {
         "requires" : {
            "File::Spec" : "0",
            "IO::Handle" : "0",
            "IPC::Open3" : "0",
            "Test::More" : "0"
         }
      }
   },
   "release_status" : "stable",
   "resources" : {
      "homepage" : "https://github.com/bingos/acme-daily-fail",
      "repository" : {
         "type" : "git",
         "url" : "https://github.com/bingos/acme-daily-fail.git",
         "web" : "https://github.com/bingos/acme-daily-fail"
      }
   },
   "version" : "1.12",
   "x_serialization_backend" : "Cpanel::JSON::XS version 3.0217"
}

