{
    "name": "Acme-CPANAuthors-CPAN-OneHundred",
    "version": "1.11",
    "abstract": "The CPAN Authors who have 100+ distributions on CPAN",
    "author": [
        "Barbie (BARBIE) <barbie@cpan.org>"
    ],

    "license": [ "artistic_2" ],
    "dynamic_config" : 0,
    "release_status" : "stable",
    "meta-spec": {
        "version": "2",
        "url": "http://search.cpan.org/dist/CPAN-Meta/lib/CPAN/Meta/Spec.pm"
    },
    "generated_by": "update100.pl 1.02",
    "keywords" : [
        "acme",
        "cpan",
        "authors"
    ],

    "prereqs" : {
        "runtime" : {
            "requires" : {
                "perl": "5.006",
                "Acme::CPANAuthors": "0.04"
            }
        },
        "test" : {
            "requires": {
                "IO::File": "0",
                "Test::More": "0.70"
            },
            "recommends": {
                "Test::CPAN::Meta": "0",
                "Test::CPAN::Meta::JSON": "0",
                "Test::Pod": "1.00",
                "Test::Pod::Coverage": "0.08"
            }
        }
    },

    "provides": {
        "Acme::CPANAuthors::CPAN::OneHundred": {
            "file": "lib/Acme/CPANAuthors/CPAN/OneHundred.pm",
            "version": "1.11"
        }
    },
    "no_index": {
        "directory": ["t","examples"]
    },

    "resources": {
        "license": [ "http://www.perlfoundation.org/artistic_license_2_0" ],
        "bugtracker": { "web": "http://rt.cpan.org/Public/Dist/Display.html?Name=Acme-CPANAuthors-CPAN-OneHundred" },
        "repository": {
            "url": "git://github.com/barbie/acme-cpanauthors-cpan-onehundred.git",
            "web": "http://github.com/barbie/acme-cpanauthors-cpan-onehundred",
            "type": "git"
        }
    }
}