{
   "abstract" : "Interface to the Strava API version 2",
   "author" : [
      "Fred Moyer <fred@redhotpenguin.com>"
   ],
   "dynamic_config" : 1,
   "generated_by" : "ExtUtils::MakeMaker version 6.6302, CPAN::Meta::Converter version 2.120630",
   "license" : [
      "unknown"
   ],
   "meta-spec" : {
      "url" : "http://search.cpan.org/perldoc?CPAN::Meta::Spec",
      "version" : "2"
   },
   "name" : "WebService-Strava",
   "no_index" : {
      "directory" : [
         "t",
         "inc"
      ]
   },
   "prereqs" : {
      "build" : {
         "requires" : {
            "ExtUtils::MakeMaker" : "0"
         }
      },
      "configure" : {
         "requires" : {
            "ExtUtils::MakeMaker" : "0"
         }
      },
      "runtime" : {
         "requires" : {
            "Any::Moose" : "0",
            "Any::URI::Escape" : "0",
            "DateTime" : "0",
            "JSON" : "0"
         }
      }
   },
   "release_status" : "stable",
   "version" : "0.02"
}
