{
   "abstract" : "unknown",
   "author" : [
      "unknown"
   ],
   "dynamic_config" : 1,
   "generated_by" : "ExtUtils::MakeMaker version 7.1, CPAN::Meta::Converter version 2.150001",
   "license" : [
      "unknown"
   ],
   "meta-spec" : {
      "url" : "http://search.cpan.org/perldoc?CPAN::Meta::Spec",
      "version" : "2"
   },
   "name" : "JSON-XS",
   "no_index" : {
      "directory" : [
         "t",
         "inc"
      ]
   },
   "prereqs" : {
      "build" : {
         "requires" : {
            "ExtUtils::MakeMaker" : "0"
         }
      },
      "configure" : {
         "requires" : {
            "Canary::Stability" : "0",
            "ExtUtils::MakeMaker" : "6.52"
         }
      },
      "runtime" : {
         "requires" : {
            "Types::Serialiser" : "0",
            "common::sense" : "0"
         }
      }
   },
   "release_status" : "stable",
   "version" : 3.03
}
