{
   "abstract" : "generate ExtJS classes from an L<DBIx::Class> schema.",
   "author" : [
      "Alexander Hartmaier <abraxxa@cpan.org>"
   ],
   "dynamic_config" : 0,
   "generated_by" : "Dist::Zilla version 5.047, CPAN::Meta::Converter version 2.150005",
   "license" : [
      "perl_5"
   ],
   "meta-spec" : {
      "url" : "http://search.cpan.org/perldoc?CPAN::Meta::Spec",
      "version" : 2
   },
   "name" : "ExtJS-Generator-DBIC",
   "no_index" : {
      "directory" : [
         "t/lib"
      ]
   },
   "prereqs" : {
      "configure" : {
         "requires" : {
            "ExtUtils::MakeMaker" : "0"
         }
      },
      "develop" : {
         "requires" : {
            "Pod::Coverage::TrustPod" : "0",
            "Test::CPAN::Changes" : "0.19",
            "Test::Pod" : "1.41",
            "Test::Pod::Coverage" : "1.08",
            "Test::Synopsis" : "0"
         }
      },
      "runtime" : {
         "requires" : {
            "Module::Load" : "0.32",
            "Moo" : "2.001001",
            "MooX::Options" : "4.022",
            "Path::Class" : "0.36",
            "Type::Tiny" : "1.000005",
            "namespace::clean" : "0.27"
         }
      },
      "test" : {
         "requires" : {
            "File::Temp" : "0.2304",
            "Test::Differences" : "0.64",
            "Test::Exception" : "0.43",
            "Test::More" : "1.001014"
         }
      }
   },
   "release_status" : "stable",
   "resources" : {
      "repository" : {
         "type" : "git",
         "url" : "https://github.com/abraxxa/ExtJS-Generator-DBIC.git",
         "web" : "https://github.com/abraxxa/ExtJS-Generator-DBIC"
      }
   },
   "version" : "0.002",
   "x_Dist_Zilla" : {
      "perl" : {
         "version" : "5.024000"
      },
      "plugins" : [
         {
            "class" : "Dist::Zilla::Plugin::GatherDir",
            "config" : {
               "Dist::Zilla::Plugin::GatherDir" : {
                  "exclude_filename" : [],
                  "exclude_match" : [],
                  "follow_symlinks" : 0,
                  "include_dotfiles" : 0,
                  "prefix" : "",
                  "prune_directory" : [],
                  "root" : "."
               }
            },
            "name" : "@Basic/GatherDir",
            "version" : "5.047"
         },
         {
            "class" : "Dist::Zilla::Plugin::PruneCruft",
            "name" : "@Basic/PruneCruft",
            "version" : "5.047"
         },
         {
            "class" : "Dist::Zilla::Plugin::ManifestSkip",
            "name" : "@Basic/ManifestSkip",
            "version" : "5.047"
         },
         {
            "class" : "Dist::Zilla::Plugin::MetaYAML",
            "name" : "@Basic/MetaYAML",
            "version" : "5.047"
         },
         {
            "class" : "Dist::Zilla::Plugin::License",
            "name" : "@Basic/License",
            "version" : "5.047"
         },
         {
            "class" : "Dist::Zilla::Plugin::Readme",
            "name" : "@Basic/Readme",
            "version" : "5.047"
         },
         {
            "class" : "Dist::Zilla::Plugin::ExtraTests",
            "name" : "@Basic/ExtraTests",
            "version" : "5.047"
         },
         {
            "class" : "Dist::Zilla::Plugin::ExecDir",
            "name" : "@Basic/ExecDir",
            "version" : "5.047"
         },
         {
            "class" : "Dist::Zilla::Plugin::ShareDir",
            "name" : "@Basic/ShareDir",
            "version" : "5.047"
         },
         {
            "class" : "Dist::Zilla::Plugin::MakeMaker",
            "config" : {
               "Dist::Zilla::Role::TestRunner" : {
                  "default_jobs" : 1
               }
            },
            "name" : "@Basic/MakeMaker",
            "version" : "5.047"
         },
         {
            "class" : "Dist::Zilla::Plugin::Manifest",
            "name" : "@Basic/Manifest",
            "version" : "5.047"
         },
         {
            "class" : "Dist::Zilla::Plugin::TestRelease",
            "name" : "@Basic/TestRelease",
            "version" : "5.047"
         },
         {
            "class" : "Dist::Zilla::Plugin::ConfirmRelease",
            "name" : "@Basic/ConfirmRelease",
            "version" : "5.047"
         },
         {
            "class" : "Dist::Zilla::Plugin::UploadToCPAN",
            "name" : "@Basic/UploadToCPAN",
            "version" : "5.047"
         },
         {
            "class" : "Dist::Zilla::Plugin::PodWeaver",
            "config" : {
               "Dist::Zilla::Plugin::PodWeaver" : {
                  "finder" : [
                     ":InstallModules",
                     ":ExecFiles"
                  ],
                  "plugins" : [
                     {
                        "class" : "Pod::Weaver::Plugin::EnsurePod5",
                        "name" : "@CorePrep/EnsurePod5",
                        "version" : "4.013"
                     },
                     {
                        "class" : "Pod::Weaver::Plugin::H1Nester",
                        "name" : "@CorePrep/H1Nester",
                        "version" : "4.013"
                     },
                     {
                        "class" : "Pod::Weaver::Plugin::SingleEncoding",
                        "name" : "@Default/SingleEncoding",
                        "version" : "4.013"
                     },
                     {
                        "class" : "Pod::Weaver::Section::Name",
                        "name" : "@Default/Name",
                        "version" : "4.013"
                     },
                     {
                        "class" : "Pod::Weaver::Section::Version",
                        "name" : "@Default/Version",
                        "version" : "4.013"
                     },
                     {
                        "class" : "Pod::Weaver::Section::Region",
                        "name" : "@Default/prelude",
                        "version" : "4.013"
                     },
                     {
                        "class" : "Pod::Weaver::Section::Generic",
                        "name" : "SYNOPSIS",
                        "version" : "4.013"
                     },
                     {
                        "class" : "Pod::Weaver::Section::Generic",
                        "name" : "DESCRIPTION",
                        "version" : "4.013"
                     },
                     {
                        "class" : "Pod::Weaver::Section::Generic",
                        "name" : "OVERVIEW",
                        "version" : "4.013"
                     },
                     {
                        "class" : "Pod::Weaver::Section::Collect",
                        "name" : "ATTRIBUTES",
                        "version" : "4.013"
                     },
                     {
                        "class" : "Pod::Weaver::Section::Collect",
                        "name" : "METHODS",
                        "version" : "4.013"
                     },
                     {
                        "class" : "Pod::Weaver::Section::Collect",
                        "name" : "FUNCTIONS",
                        "version" : "4.013"
                     },
                     {
                        "class" : "Pod::Weaver::Section::Leftovers",
                        "name" : "@Default/Leftovers",
                        "version" : "4.013"
                     },
                     {
                        "class" : "Pod::Weaver::Section::Region",
                        "name" : "@Default/postlude",
                        "version" : "4.013"
                     },
                     {
                        "class" : "Pod::Weaver::Section::Authors",
                        "name" : "@Default/Authors",
                        "version" : "4.013"
                     },
                     {
                        "class" : "Pod::Weaver::Section::Legal",
                        "name" : "@Default/Legal",
                        "version" : "4.013"
                     }
                  ]
               }
            },
            "name" : "PodWeaver",
            "version" : "4.008"
         },
         {
            "class" : "Dist::Zilla::Plugin::PkgVersion",
            "name" : "PkgVersion",
            "version" : "5.047"
         },
         {
            "class" : "Dist::Zilla::Plugin::NextRelease",
            "name" : "NextRelease",
            "version" : "5.047"
         },
         {
            "class" : "Dist::Zilla::Plugin::MetaConfig",
            "name" : "MetaConfig",
            "version" : "5.047"
         },
         {
            "class" : "Dist::Zilla::Plugin::MetaJSON",
            "name" : "MetaJSON",
            "version" : "5.047"
         },
         {
            "class" : "Dist::Zilla::Plugin::MetaNoIndex",
            "name" : "MetaNoIndex",
            "version" : "5.047"
         },
         {
            "class" : "Dist::Zilla::Plugin::MetaResources",
            "name" : "MetaResources",
            "version" : "5.047"
         },
         {
            "class" : "Dist::Zilla::Plugin::PodSyntaxTests",
            "name" : "PodSyntaxTests",
            "version" : "5.047"
         },
         {
            "class" : "Dist::Zilla::Plugin::PodCoverageTests",
            "name" : "PodCoverageTests",
            "version" : "5.047"
         },
         {
            "class" : "Dist::Zilla::Plugin::Test::Portability",
            "name" : "Test::Portability",
            "version" : "2.000006"
         },
         {
            "class" : "Dist::Zilla::Plugin::Test::DistManifest",
            "name" : "Test::DistManifest",
            "version" : "2.000005"
         },
         {
            "class" : "Dist::Zilla::Plugin::Test::Synopsis",
            "name" : "Test::Synopsis",
            "version" : "2.000006"
         },
         {
            "class" : "Dist::Zilla::Plugin::HasVersionTests",
            "name" : "HasVersionTests",
            "version" : "1.101420"
         },
         {
            "class" : "Dist::Zilla::Plugin::Test::CPAN::Changes",
            "name" : "Test::CPAN::Changes",
            "version" : "0.009"
         },
         {
            "class" : "Dist::Zilla::Plugin::Git::Check",
            "config" : {
               "Dist::Zilla::Plugin::Git::Check" : {
                  "untracked_files" : "die"
               },
               "Dist::Zilla::Role::Git::DirtyFiles" : {
                  "allow_dirty" : [
                     "Changes",
                     "dist.ini"
                  ],
                  "allow_dirty_match" : [],
                  "changelog" : "Changes"
               },
               "Dist::Zilla::Role::Git::Repo" : {
                  "repo_root" : "."
               }
            },
            "name" : "@Git/Check",
            "version" : "2.036"
         },
         {
            "class" : "Dist::Zilla::Plugin::Git::Commit",
            "config" : {
               "Dist::Zilla::Plugin::Git::Commit" : {
                  "add_files_in" : [],
                  "commit_msg" : "version %v%n%n%c"
               },
               "Dist::Zilla::Role::Git::DirtyFiles" : {
                  "allow_dirty" : [
                     "Changes",
                     "dist.ini"
                  ],
                  "allow_dirty_match" : [],
                  "changelog" : "Changes"
               },
               "Dist::Zilla::Role::Git::Repo" : {
                  "repo_root" : "."
               },
               "Dist::Zilla::Role::Git::StringFormatter" : {
                  "time_zone" : "local"
               }
            },
            "name" : "@Git/Commit",
            "version" : "2.036"
         },
         {
            "class" : "Dist::Zilla::Plugin::Git::Tag",
            "config" : {
               "Dist::Zilla::Plugin::Git::Tag" : {
                  "branch" : null,
                  "changelog" : "Changes",
                  "signed" : 0,
                  "tag" : "0.002",
                  "tag_format" : "%v",
                  "tag_message" : "%v"
               },
               "Dist::Zilla::Role::Git::Repo" : {
                  "repo_root" : "."
               },
               "Dist::Zilla::Role::Git::StringFormatter" : {
                  "time_zone" : "local"
               }
            },
            "name" : "@Git/Tag",
            "version" : "2.036"
         },
         {
            "class" : "Dist::Zilla::Plugin::Git::Push",
            "config" : {
               "Dist::Zilla::Plugin::Git::Push" : {
                  "push_to" : [
                     "origin"
                  ],
                  "remotes_must_exist" : 1
               },
               "Dist::Zilla::Role::Git::Repo" : {
                  "repo_root" : "."
               }
            },
            "name" : "@Git/Push",
            "version" : "2.036"
         },
         {
            "class" : "Dist::Zilla::Plugin::Prereqs",
            "config" : {
               "Dist::Zilla::Plugin::Prereqs" : {
                  "phase" : "runtime",
                  "type" : "requires"
               }
            },
            "name" : "Prereqs",
            "version" : "5.047"
         },
         {
            "class" : "Dist::Zilla::Plugin::Prereqs",
            "config" : {
               "Dist::Zilla::Plugin::Prereqs" : {
                  "phase" : "test",
                  "type" : "requires"
               }
            },
            "name" : "TestRequires",
            "version" : "5.047"
         },
         {
            "class" : "Dist::Zilla::Plugin::FinderCode",
            "name" : ":InstallModules",
            "version" : "5.047"
         },
         {
            "class" : "Dist::Zilla::Plugin::FinderCode",
            "name" : ":IncModules",
            "version" : "5.047"
         },
         {
            "class" : "Dist::Zilla::Plugin::FinderCode",
            "name" : ":TestFiles",
            "version" : "5.047"
         },
         {
            "class" : "Dist::Zilla::Plugin::FinderCode",
            "name" : ":ExtraTestFiles",
            "version" : "5.047"
         },
         {
            "class" : "Dist::Zilla::Plugin::FinderCode",
            "name" : ":ExecFiles",
            "version" : "5.047"
         },
         {
            "class" : "Dist::Zilla::Plugin::FinderCode",
            "name" : ":PerlExecFiles",
            "version" : "5.047"
         },
         {
            "class" : "Dist::Zilla::Plugin::FinderCode",
            "name" : ":ShareFiles",
            "version" : "5.047"
         },
         {
            "class" : "Dist::Zilla::Plugin::FinderCode",
            "name" : ":MainModule",
            "version" : "5.047"
         },
         {
            "class" : "Dist::Zilla::Plugin::FinderCode",
            "name" : ":AllFiles",
            "version" : "5.047"
         },
         {
            "class" : "Dist::Zilla::Plugin::FinderCode",
            "name" : ":NoFiles",
            "version" : "5.047"
         }
      ],
      "zilla" : {
         "class" : "Dist::Zilla::Dist::Builder",
         "config" : {
            "is_trial" : "0"
         },
         "version" : "5.047"
      }
   }
}

