{
   "abstract" : "Documentation and tools for using Platypus with Fortran",
   "author" : [
      "Graham Ollis <plicease@cpan.org>"
   ],
   "dynamic_config" : 1,
   "generated_by" : "Module::Build version 0.4211",
   "license" : [
      "perl_5"
   ],
   "meta-spec" : {
      "url" : "http://search.cpan.org/perldoc?CPAN::Meta::Spec",
      "version" : "2"
   },
   "name" : "FFI-Platypus-Lang-Fortran",
   "no_index" : {
      "directory" : [
         "examples"
      ]
   },
   "prereqs" : {
      "build" : {
         "requires" : {
            "File::Which" : "0",
            "Module::Build" : "0.38",
            "Module::Build::FFI" : "0.22"
         }
      },
      "configure" : {
         "requires" : {
            "File::Which" : "0",
            "Module::Build" : "0.38",
            "Module::Build::FFI" : "0.22"
         }
      },
      "runtime" : {
         "requires" : {
            "FFI::Platypus" : "0.22",
            "File::Which" : "0",
            "Module::Build::FFI" : "0.22",
            "perl" : "5.008001"
         }
      },
      "test" : {
         "requires" : {
            "FFI::CheckLib" : "0",
            "File::Which" : "0",
            "Module::Build::FFI" : "0.22"
         }
      }
   },
   "provides" : {
      "FFI::Platypus::Lang::Fortran" : {
         "file" : "lib/FFI/Platypus/Lang/Fortran.pm",
         "version" : "0.07"
      },
      "Module::Build::FFI::Fortran" : {
         "file" : "lib/Module/Build/FFI/Fortran.pm",
         "version" : "0.07"
      },
      "Module::Build::FFI::Fortran::ExtUtilsF77" : {
         "file" : "lib/Module/Build/FFI/Fortran/ExtUtilsF77.pm",
         "version" : "0.07"
      }
   },
   "release_status" : "stable",
   "resources" : {
      "bugtracker" : {
         "web" : "http://github.com/plicease/FFI-Platypus-Lang-Fortran/issues"
      },
      "license" : [
         "http://dev.perl.org/licenses/"
      ],
      "repository" : {
         "url" : "http://github.com/plicease/FFI-Platypus-Lang-Fortran"
      }
   },
   "version" : "0.07"
}
