{
   "abstract" : "Manage your local CPAN mirror",
   "author" : [
      "perlancar <perlancar@cpan.org>"
   ],
   "dynamic_config" : 0,
   "generated_by" : "Dist::Zilla version 6.008, CPAN::Meta::Converter version 2.150010",
   "license" : [
      "perl_5"
   ],
   "meta-spec" : {
      "url" : "http://search.cpan.org/perldoc?CPAN::Meta::Spec",
      "version" : 2
   },
   "name" : "App-lcpan",
   "prereqs" : {
      "configure" : {
         "requires" : {
            "ExtUtils::MakeMaker" : "0"
         }
      },
      "develop" : {
         "requires" : {
            "Pod::Coverage::TrustPod" : "0",
            "Test::Pod" : "1.41",
            "Test::Pod::Coverage" : "1.08",
            "Test::Rinci" : "0.01"
         },
         "x_spec" : {
            "Rinci" : "v1.1.79"
         }
      },
      "runtime" : {
         "requires" : {
            "App::ShellCompleter::cpanm" : "0",
            "Archive::Extract" : "0",
            "Archive::Tar" : "0",
            "Archive::Zip" : "0",
            "Browser::Open" : "0",
            "CPAN::Mini" : "0",
            "Clone::Util" : "0.03",
            "Compiler::Lexer" : "0",
            "Complete::File" : "0",
            "Complete::Util" : "0.57",
            "DBD::SQLite" : "0",
            "DBI" : "0",
            "Data::Sah::Coerce::perl::date::float_epoch" : "0",
            "Data::Sah::Coerce::perl::date::obj_DateTime" : "0",
            "Data::Sah::Coerce::perl::date::obj_TimeMoment" : "0",
            "Data::Sah::Coerce::perl::date::str_iso8601" : "0",
            "Data::Sah::Coerce::perl::str::str_normalize_perl_distname" : "0",
            "Data::Sah::Coerce::perl::str::str_normalize_perl_modname" : "0",
            "Data::Sah::Coerce::perl::str::str_strip_trailing_slash" : "0",
            "Data::Sah::Compiler::perl::TH::array" : "0",
            "Data::Sah::Compiler::perl::TH::bool" : "0",
            "Data::Sah::Compiler::perl::TH::date" : "0",
            "Data::Sah::Compiler::perl::TH::int" : "0",
            "Data::Sah::Compiler::perl::TH::str" : "0",
            "Encode" : "0",
            "Exporter" : "0",
            "File::Copy" : "0",
            "File::HomeDir" : "0",
            "File::Slurper" : "0",
            "File::Temp" : "0",
            "File::Util::Tempdir" : "0",
            "Function::Fallback::CoreOrPP" : "0.07",
            "HTTP::Response" : "0",
            "IO::Compress::Gzip" : "0",
            "IO::Prompt::I18N" : "0",
            "IPC::System::Options" : "0.27",
            "LWP::UserAgent::Patch::FilterMirrorMaxSize" : "0",
            "List::Util" : "0",
            "Log::Any" : "0",
            "Log::Any::IfLOG" : "0.07",
            "Logfile::Rotate" : "0",
            "Module::CoreList::More" : "0.04",
            "Module::Patch" : "0.12",
            "Module::XSOrPP" : "0",
            "OrePAN" : "0",
            "PERLANCAR::Module::List" : "0",
            "POSIX" : "0",
            "Parse::CPAN::Meta" : "0",
            "Perinci::CmdLine::Any" : "0.13",
            "Perinci::CmdLine::Util::Config" : "1.71",
            "Perinci::Object" : "0.26",
            "Perinci::Sub::DepChecker" : "0",
            "PerlIO::gzip" : "0",
            "Pod::Simple::Methody" : "0",
            "Proc::ChildError" : "0",
            "SQL::Schema::Versioned" : "0.18",
            "Sah::Schema::dirname" : "0",
            "Sah::Schema::filename" : "0",
            "Sah::Schema::perl::distname" : "0",
            "Sah::Schema::perl::modname" : "0",
            "Sah::Schema::posint" : "0",
            "Version::Util" : "0",
            "base" : "0",
            "experimental" : "0",
            "parent" : "0",
            "perl" : "5.010001",
            "strict" : "0",
            "warnings" : "0"
         }
      },
      "test" : {
         "requires" : {
            "File::Spec" : "0",
            "IO::Handle" : "0",
            "IPC::Open3" : "0",
            "Test::More" : "0.98",
            "Test::SQL::Schema::Versioned" : "0.15",
            "Test::WithDB::SQLite" : "0.08"
         }
      }
   },
   "release_status" : "stable",
   "resources" : {
      "bugtracker" : {
         "web" : "https://rt.cpan.org/Public/Dist/Display.html?Name=App-lcpan"
      },
      "homepage" : "https://metacpan.org/release/App-lcpan",
      "repository" : {
         "type" : "git",
         "url" : "git://github.com/perlancar/perl-App-lcpan.git",
         "web" : "https://github.com/perlancar/perl-App-lcpan"
      }
   },
   "version" : "1.015",
   "x_Dist_Zilla" : {
      "perl" : {
         "version" : "5.024000"
      },
      "plugins" : [
         {
            "class" : "Dist::Zilla::Plugin::GatherDir",
            "config" : {
               "Dist::Zilla::Plugin::GatherDir" : {
                  "exclude_filename" : [],
                  "exclude_match" : [],
                  "follow_symlinks" : 0,
                  "include_dotfiles" : 0,
                  "prefix" : "",
                  "prune_directory" : [],
                  "root" : "."
               }
            },
            "name" : "@Author::PERLANCAR/@Filter/GatherDir",
            "version" : "6.008"
         },
         {
            "class" : "Dist::Zilla::Plugin::PruneCruft",
            "name" : "@Author::PERLANCAR/@Filter/PruneCruft",
            "version" : "6.008"
         },
         {
            "class" : "Dist::Zilla::Plugin::ManifestSkip",
            "name" : "@Author::PERLANCAR/@Filter/ManifestSkip",
            "version" : "6.008"
         },
         {
            "class" : "Dist::Zilla::Plugin::MetaYAML",
            "name" : "@Author::PERLANCAR/@Filter/MetaYAML",
            "version" : "6.008"
         },
         {
            "class" : "Dist::Zilla::Plugin::License",
            "name" : "@Author::PERLANCAR/@Filter/License",
            "version" : "6.008"
         },
         {
            "class" : "Dist::Zilla::Plugin::PodCoverageTests",
            "name" : "@Author::PERLANCAR/@Filter/PodCoverageTests",
            "version" : "6.008"
         },
         {
            "class" : "Dist::Zilla::Plugin::PodSyntaxTests",
            "name" : "@Author::PERLANCAR/@Filter/PodSyntaxTests",
            "version" : "6.008"
         },
         {
            "class" : "Dist::Zilla::Plugin::ExtraTests",
            "name" : "@Author::PERLANCAR/@Filter/ExtraTests",
            "version" : "6.008"
         },
         {
            "class" : "Dist::Zilla::Plugin::ExecDir",
            "name" : "@Author::PERLANCAR/@Filter/ExecDir",
            "version" : "6.008"
         },
         {
            "class" : "Dist::Zilla::Plugin::ShareDir",
            "name" : "@Author::PERLANCAR/@Filter/ShareDir",
            "version" : "6.008"
         },
         {
            "class" : "Dist::Zilla::Plugin::MakeMaker",
            "config" : {
               "Dist::Zilla::Role::TestRunner" : {
                  "default_jobs" : 1
               }
            },
            "name" : "@Author::PERLANCAR/@Filter/MakeMaker",
            "version" : "6.008"
         },
         {
            "class" : "Dist::Zilla::Plugin::Manifest",
            "name" : "@Author::PERLANCAR/@Filter/Manifest",
            "version" : "6.008"
         },
         {
            "class" : "Dist::Zilla::Plugin::ConfirmRelease",
            "name" : "@Author::PERLANCAR/@Filter/ConfirmRelease",
            "version" : "6.008"
         },
         {
            "class" : "Dist::Zilla::Plugin::PERLANCAR::BeforeBuild",
            "name" : "@Author::PERLANCAR/PERLANCAR::BeforeBuild",
            "version" : "0.54"
         },
         {
            "class" : "Dist::Zilla::Plugin::Rinci::AbstractFromMeta",
            "name" : "@Author::PERLANCAR/Rinci::AbstractFromMeta",
            "version" : "0.09"
         },
         {
            "class" : "Dist::Zilla::Plugin::PodnameFromFilename",
            "name" : "@Author::PERLANCAR/PodnameFromFilename",
            "version" : "0.01"
         },
         {
            "class" : "Dist::Zilla::Plugin::PERLANCAR::EnsurePrereqToSpec",
            "name" : "@Author::PERLANCAR/PERLANCAR::EnsurePrereqToSpec",
            "version" : "0.04"
         },
         {
            "class" : "Dist::Zilla::Plugin::PERLANCAR::MetaResources",
            "name" : "@Author::PERLANCAR/PERLANCAR::MetaResources",
            "version" : "0.03"
         },
         {
            "class" : "Dist::Zilla::Plugin::CheckChangeLog",
            "name" : "@Author::PERLANCAR/CheckChangeLog",
            "version" : "0.02"
         },
         {
            "class" : "Dist::Zilla::Plugin::CheckMetaResources",
            "name" : "@Author::PERLANCAR/CheckMetaResources",
            "version" : "0.001"
         },
         {
            "class" : "Dist::Zilla::Plugin::IfBuilt",
            "name" : "@Author::PERLANCAR/IfBuilt",
            "version" : "0.03"
         },
         {
            "class" : "Dist::Zilla::Plugin::MetaJSON",
            "name" : "@Author::PERLANCAR/MetaJSON",
            "version" : "6.008"
         },
         {
            "class" : "Dist::Zilla::Plugin::MetaConfig",
            "name" : "@Author::PERLANCAR/MetaConfig",
            "version" : "6.008"
         },
         {
            "class" : "Dist::Zilla::Plugin::GenShellCompletion",
            "name" : "@Author::PERLANCAR/GenShellCompletion",
            "version" : "0.11"
         },
         {
            "class" : "Dist::Zilla::Plugin::Authority",
            "name" : "@Author::PERLANCAR/Authority",
            "version" : "1.009"
         },
         {
            "class" : "Dist::Zilla::Plugin::OurDate",
            "name" : "@Author::PERLANCAR/OurDate",
            "version" : "0.03"
         },
         {
            "class" : "Dist::Zilla::Plugin::OurDist",
            "name" : "@Author::PERLANCAR/OurDist",
            "version" : "0.02"
         },
         {
            "class" : "Dist::Zilla::Plugin::PERLANCAR::OurPkgVersion",
            "name" : "@Author::PERLANCAR/PERLANCAR::OurPkgVersion",
            "version" : "0.04"
         },
         {
            "class" : "Dist::Zilla::Plugin::PodWeaver",
            "config" : {
               "Dist::Zilla::Plugin::PodWeaver" : {
                  "finder" : [
                     ":InstallModules",
                     ":ExecFiles"
                  ],
                  "plugins" : [
                     {
                        "class" : "Pod::Weaver::Plugin::EnsurePod5",
                        "name" : "@CorePrep/EnsurePod5",
                        "version" : "4.013"
                     },
                     {
                        "class" : "Pod::Weaver::Plugin::H1Nester",
                        "name" : "@CorePrep/H1Nester",
                        "version" : "4.013"
                     },
                     {
                        "class" : "Pod::Weaver::Section::Name",
                        "name" : "@Author::PERLANCAR/Name",
                        "version" : "4.013"
                     },
                     {
                        "class" : "Pod::Weaver::Section::Version",
                        "name" : "@Author::PERLANCAR/Version",
                        "version" : "4.013"
                     },
                     {
                        "class" : "Pod::Weaver::Section::Region",
                        "name" : "@Author::PERLANCAR/prelude",
                        "version" : "4.013"
                     },
                     {
                        "class" : "Pod::Weaver::Section::Generic",
                        "name" : "SYNOPSIS",
                        "version" : "4.013"
                     },
                     {
                        "class" : "Pod::Weaver::Section::Generic",
                        "name" : "DESCRIPTION",
                        "version" : "4.013"
                     },
                     {
                        "class" : "Pod::Weaver::Section::Generic",
                        "name" : "OVERVIEW",
                        "version" : "4.013"
                     },
                     {
                        "class" : "Pod::Weaver::Section::Collect",
                        "name" : "ATTRIBUTES",
                        "version" : "4.013"
                     },
                     {
                        "class" : "Pod::Weaver::Section::Collect",
                        "name" : "METHODS",
                        "version" : "4.013"
                     },
                     {
                        "class" : "Pod::Weaver::Section::Collect",
                        "name" : "FUNCTIONS",
                        "version" : "4.013"
                     },
                     {
                        "class" : "Pod::Weaver::Section::Leftovers",
                        "name" : "@Author::PERLANCAR/Leftovers",
                        "version" : "4.013"
                     },
                     {
                        "class" : "Pod::Weaver::Section::Region",
                        "name" : "@Author::PERLANCAR/postlude",
                        "version" : "4.013"
                     },
                     {
                        "class" : "Pod::Weaver::Section::Completion::GetoptLongComplete",
                        "name" : "@Author::PERLANCAR/Completion::GetoptLongComplete",
                        "version" : "0.08"
                     },
                     {
                        "class" : "Pod::Weaver::Section::Completion::GetoptLongSubcommand",
                        "name" : "@Author::PERLANCAR/Completion::GetoptLongSubcommand",
                        "version" : "0.04"
                     },
                     {
                        "class" : "Pod::Weaver::Section::Completion::GetoptLongMore",
                        "name" : "@Author::PERLANCAR/Completion::GetoptLongMore",
                        "version" : "0.001"
                     },
                     {
                        "class" : "Pod::Weaver::Section::Homepage::DefaultCPAN",
                        "name" : "@Author::PERLANCAR/Homepage::DefaultCPAN",
                        "version" : "0.05"
                     },
                     {
                        "class" : "Pod::Weaver::Section::Source::DefaultGitHub",
                        "name" : "@Author::PERLANCAR/Source::DefaultGitHub",
                        "version" : "0.07"
                     },
                     {
                        "class" : "Pod::Weaver::Section::Bugs::DefaultRT",
                        "name" : "@Author::PERLANCAR/Bugs::DefaultRT",
                        "version" : "0.06"
                     },
                     {
                        "class" : "Pod::Weaver::Section::Authors",
                        "name" : "@Author::PERLANCAR/Authors",
                        "version" : "4.013"
                     },
                     {
                        "class" : "Pod::Weaver::Section::Legal",
                        "name" : "@Author::PERLANCAR/Legal",
                        "version" : "4.013"
                     },
                     {
                        "class" : "Pod::Weaver::Plugin::Rinci",
                        "name" : "@Author::PERLANCAR/Rinci",
                        "version" : "0.75"
                     },
                     {
                        "class" : "Pod::Weaver::Plugin::AppendPrepend",
                        "name" : "@Author::PERLANCAR/AppendPrepend",
                        "version" : "0.01"
                     },
                     {
                        "class" : "Pod::Weaver::Plugin::EnsureUniqueSections",
                        "name" : "@Author::PERLANCAR/EnsureUniqueSections",
                        "version" : "0.121550"
                     },
                     {
                        "class" : "Pod::Weaver::Plugin::SingleEncoding",
                        "name" : "@Author::PERLANCAR/SingleEncoding",
                        "version" : "4.013"
                     },
                     {
                        "class" : "Pod::Weaver::Plugin::PERLANCAR::SortSections",
                        "name" : "@Author::PERLANCAR/PERLANCAR::SortSections",
                        "version" : "0.05"
                     }
                  ]
               }
            },
            "name" : "@Author::PERLANCAR/PodWeaver",
            "version" : "4.008"
         },
         {
            "class" : "Dist::Zilla::Plugin::PruneFiles",
            "name" : "@Author::PERLANCAR/PruneFiles",
            "version" : "6.008"
         },
         {
            "class" : "Dist::Zilla::Plugin::ReadmeFromPod",
            "name" : "@Author::PERLANCAR/ReadmeFromPod",
            "version" : "0.35"
         },
         {
            "class" : "Dist::Zilla::Plugin::Rinci::AddPrereqs",
            "name" : "@Author::PERLANCAR/Rinci::AddPrereqs",
            "version" : "0.13"
         },
         {
            "class" : "Dist::Zilla::Plugin::Rinci::AddToDb",
            "name" : "@Author::PERLANCAR/Rinci::AddToDb",
            "version" : "0.01"
         },
         {
            "class" : "Dist::Zilla::Plugin::Rinci::Validate",
            "name" : "@Author::PERLANCAR/Rinci::Validate",
            "version" : "0.23"
         },
         {
            "class" : "Dist::Zilla::Plugin::SetScriptShebang",
            "name" : "@Author::PERLANCAR/SetScriptShebang",
            "version" : "0.01"
         },
         {
            "class" : "Dist::Zilla::Plugin::Test::Compile",
            "config" : {
               "Dist::Zilla::Plugin::Test::Compile" : {
                  "bail_out_on_fail" : 0,
                  "fail_on_warning" : "author",
                  "fake_home" : 0,
                  "filename" : "t/00-compile.t",
                  "module_finder" : [
                     ":InstallModules"
                  ],
                  "needs_display" : 0,
                  "phase" : "test",
                  "script_finder" : [
                     ":PerlExecFiles"
                  ],
                  "skips" : []
               }
            },
            "name" : "@Author::PERLANCAR/Test::Compile",
            "version" : "2.054"
         },
         {
            "class" : "Dist::Zilla::Plugin::Test::Rinci",
            "name" : "@Author::PERLANCAR/Test::Rinci",
            "version" : "0.03"
         },
         {
            "class" : "Dist::Zilla::Plugin::UploadToCPAN::WWWPAUSESimple",
            "name" : "@Author::PERLANCAR/UploadToCPAN::WWWPAUSESimple",
            "version" : "0.04"
         },
         {
            "class" : "Dist::Zilla::Plugin::EnsureSQLSchemaVersionedTest",
            "name" : "@Author::PERLANCAR/EnsureSQLSchemaVersionedTest",
            "version" : "0.02"
         },
         {
            "class" : "Dist::Zilla::Plugin::Acme::CPANLists::Blacklist",
            "name" : "@Author::PERLANCAR/Acme::CPANLists::Blacklist",
            "version" : "0.02"
         },
         {
            "class" : "Dist::Zilla::Plugin::Prereqs::EnsureVersion",
            "name" : "@Author::PERLANCAR/Prereqs::EnsureVersion",
            "version" : "0.01"
         },
         {
            "class" : "Dist::Zilla::Plugin::Prereqs::CheckCircular",
            "name" : "@Author::PERLANCAR/Prereqs::CheckCircular",
            "version" : "0.003"
         },
         {
            "class" : "Dist::Zilla::Plugin::Prereqs",
            "config" : {
               "Dist::Zilla::Plugin::Prereqs" : {
                  "phase" : "test",
                  "type" : "requires"
               }
            },
            "name" : "TestRequires",
            "version" : "6.008"
         },
         {
            "class" : "Dist::Zilla::Plugin::Prereqs",
            "config" : {
               "Dist::Zilla::Plugin::Prereqs" : {
                  "phase" : "runtime",
                  "type" : "requires"
               }
            },
            "name" : "Prereqs",
            "version" : "6.008"
         },
         {
            "class" : "Dist::Zilla::Plugin::Prereqs",
            "config" : {
               "Dist::Zilla::Plugin::Prereqs" : {
                  "phase" : "develop",
                  "type" : "x_spec"
               }
            },
            "name" : "DevelopX_spec",
            "version" : "6.008"
         },
         {
            "class" : "Dist::Zilla::Plugin::Acme::CPANLists::Whitelist",
            "name" : "Acme::CPANLists::Whitelist",
            "version" : "0.02"
         },
         {
            "class" : "Dist::Zilla::Plugin::FinderCode",
            "name" : ":InstallModules",
            "version" : "6.008"
         },
         {
            "class" : "Dist::Zilla::Plugin::FinderCode",
            "name" : ":IncModules",
            "version" : "6.008"
         },
         {
            "class" : "Dist::Zilla::Plugin::FinderCode",
            "name" : ":TestFiles",
            "version" : "6.008"
         },
         {
            "class" : "Dist::Zilla::Plugin::FinderCode",
            "name" : ":ExtraTestFiles",
            "version" : "6.008"
         },
         {
            "class" : "Dist::Zilla::Plugin::FinderCode",
            "name" : ":ExecFiles",
            "version" : "6.008"
         },
         {
            "class" : "Dist::Zilla::Plugin::FinderCode",
            "name" : ":PerlExecFiles",
            "version" : "6.008"
         },
         {
            "class" : "Dist::Zilla::Plugin::FinderCode",
            "name" : ":ShareFiles",
            "version" : "6.008"
         },
         {
            "class" : "Dist::Zilla::Plugin::FinderCode",
            "name" : ":MainModule",
            "version" : "6.008"
         },
         {
            "class" : "Dist::Zilla::Plugin::FinderCode",
            "name" : ":AllFiles",
            "version" : "6.008"
         },
         {
            "class" : "Dist::Zilla::Plugin::FinderCode",
            "name" : ":NoFiles",
            "version" : "6.008"
         }
      ],
      "zilla" : {
         "class" : "Dist::Zilla::Dist::Builder",
         "config" : {
            "is_trial" : 0
         },
         "version" : "6.008"
      }
   },
   "x_authority" : "cpan:PERLANCAR",
   "x_serialization_backend" : "Cpanel::JSON::XS version 3.0217"
}

