{
   "abstract" : "Mojolicious plugin to display SQLite database information on browser",
   "author" : [
      "Yuki Kimoto <kimoto.yuki@gmail.com>"
   ],
   "dynamic_config" : 0,
   "generated_by" : "ExtUtils::MakeMaker version 6.62, CPAN::Meta::Converter version 2.112150",
   "license" : [
      "perl_5"
   ],
   "meta-spec" : {
      "url" : "http://search.cpan.org/perldoc?CPAN::Meta::Spec",
      "version" : "2"
   },
   "name" : "Mojolicious-Plugin-SQLiteViewerLite",
   "no_index" : {
      "directory" : [
         "t",
         "inc"
      ]
   },
   "prereqs" : {
      "build" : {
         "requires" : {
            "ExtUtils::MakeMaker" : 0
         }
      },
      "configure" : {
         "requires" : {
            "ExtUtils::MakeMaker" : 0
         }
      },
      "runtime" : {
         "requires" : {
            "DBIx::Custom" : "0.24",
            "Mojolicious" : "2.59",
            "Test::More" : 0,
            "Validator::Custom" : "0.1426"
         }
      }
   },
   "release_status" : "stable",
   "version" : "0.01"
}
