{
   "abstract" : "Wrapper around Crypt::PKCS11 to make using a HSM not suck",
   "author" : [
      "Ioan Rogers <ioan.rogers@sophos.com>"
   ],
   "dynamic_config" : 0,
   "generated_by" : "Dist::Zilla version 6.005, CPAN::Meta::Converter version 2.150005",
   "license" : [
      "perl_5"
   ],
   "meta-spec" : {
      "url" : "http://search.cpan.org/perldoc?CPAN::Meta::Spec",
      "version" : 2
   },
   "name" : "Crypt-PKCS11-Easy",
   "prereqs" : {
      "configure" : {
         "requires" : {
            "Module::Build::Tiny" : "0.034"
         }
      },
      "develop" : {
         "requires" : {
            "Pod::Coverage::TrustPod" : "0",
            "Test::More" : "0",
            "Test::Pod" : "1.41",
            "Test::Pod::Coverage" : "1.08",
            "warnings" : "0"
         }
      },
      "runtime" : {
         "requires" : {
            "Crypt::PKCS11" : "0",
            "Crypt::PKCS11::Attributes" : "0",
            "Log::Any" : "0",
            "MIME::Base64" : "0",
            "Moo" : "0",
            "Path::Tiny" : "0",
            "Safe::Isa" : "0",
            "Try::Tiny" : "0",
            "Types::Path::Tiny" : "0",
            "Types::Standard" : "0",
            "experimental" : "0",
            "namespace::clean" : "0",
            "perl" : "v5.16.3",
            "strict" : "0",
            "version" : "0"
         }
      },
      "test" : {
         "requires" : {
            "Archive::Tar" : "0",
            "File::Spec" : "0",
            "File::chdir" : "0",
            "IO::Handle" : "0",
            "IPC::Cmd" : "0.92",
            "IPC::Open3" : "0",
            "Log::Any::Adapter" : "0",
            "Test::Fatal" : "0",
            "Test::More" : "0",
            "Test::Roo" : "0",
            "Test::Roo::Role" : "0",
            "Test::TempDir::Tiny" : "0",
            "blib" : "1.01",
            "lib" : "0",
            "warnings" : "0"
         }
      }
   },
   "release_status" : "stable",
   "resources" : {
      "bugtracker" : {
         "web" : "https://github.com/sophos/Crypt-PKCS11-Easy/issues"
      },
      "repository" : {
         "type" : "git",
         "url" : "git://github.com/sophos/Crypt-PKCS11-Easy.git",
         "web" : "https://github.com/sophos/Crypt-PKCS11-Easy"
      }
   },
   "version" : "0.162150",
   "x_contributors" : [
      "Christopher Anthony <kozure@gmail.com>"
   ]
}

