{
   "abstract" : "Gets the number of commits each repository is ahead of the last release",
   "author" : [
      "Ivan Wills <ivan.wills@gmail.com>"
   ],
   "dynamic_config" : 1,
   "generated_by" : "Module::Build version 0.4218",
   "license" : [
      "perl_5"
   ],
   "meta-spec" : {
      "url" : "http://search.cpan.org/perldoc?CPAN::Meta::Spec",
      "version" : "2"
   },
   "name" : "Group-Git-Cmd-SinceRelease",
   "prereqs" : {
      "build" : {
         "requires" : {
            "Test::More" : "0",
            "Test::Warnings" : "0"
         }
      },
      "configure" : {
         "requires" : {
            "Module::Build" : "0.42"
         }
      },
      "runtime" : {
         "requires" : {
            "File::chdir" : "0",
            "Getopt::Alt" : "v0.3.1",
            "Moose::Role" : "2.0",
            "perl" : "5.008",
            "version" : "0"
         }
      }
   },
   "provides" : {
      "Group::Git::Cmd::SinceRelease" : {
         "file" : "lib/Group/Git/Cmd/SinceRelease.pm",
         "version" : "v0.0.8"
      }
   },
   "release_status" : "stable",
   "resources" : {
      "bugtracker" : {
         "web" : "http://rt.cpan.org/NoAuth/Bugs.html?Dist=Group::Git::Cmd::SinceRelease"
      },
      "license" : [
         "http://dev.perl.org/licenses/"
      ],
      "repository" : {
         "url" : "git://github.com/ivanwills/Group-Git-Cmd-SinceRelease.git"
      }
   },
   "version" : "v0.0.8",
   "x_serialization_backend" : "JSON::PP version 2.27300"
}
