{
   "bookmark" : "devel",
   "branch" : "default",
   "date" : "2016-07-17T18:39:34Z",
   "desc" : "Added tag latest, v0.24.2 for changeset 4c75481b4bd2",
   "node" : "997ba0fb795c",
   "phase" : "public",
   "release" : "v0.24.2",
   "release_distance" : 0,
   "release_id" : "v0.24.2",
   "tags" : [
      "tip"
   ]
}
