{
   "abstract" : "various utility functions",
   "author" : [
      "Lukas Mai <l.mai@web.de>"
   ],
   "dynamic_config" : 0,
   "generated_by" : "ExtUtils::MakeMaker version 7.1, CPAN::Meta::Converter version 2.150005",
   "license" : [
      "perl_5"
   ],
   "meta-spec" : {
      "url" : "http://search.cpan.org/perldoc?CPAN::Meta::Spec",
      "version" : "2"
   },
   "name" : "Data-Munge",
   "no_index" : {
      "directory" : [
         "t",
         "inc",
         "xt"
      ]
   },
   "prereqs" : {
      "build" : {
         "requires" : {}
      },
      "configure" : {
         "requires" : {
            "ExtUtils::MakeMaker" : "0",
            "File::Find" : "0",
            "File::Spec" : "0",
            "strict" : "0",
            "warnings" : "0"
         }
      },
      "runtime" : {
         "requires" : {
            "Exporter" : "0",
            "base" : "0",
            "strict" : "0",
            "warnings" : "0"
         }
      },
      "test" : {
         "requires" : {
            "Test::More" : "0",
            "Test::Warnings" : "0"
         }
      }
   },
   "release_status" : "stable",
   "resources" : {
      "repository" : {
         "type" : "git",
         "url" : "git://github.com/mauke/Data-Munge",
         "web" : "https://github.com/mauke/Data-Munge"
      }
   },
   "version" : "0.096",
   "x_serialization_backend" : "JSON::PP version 2.27300"
}
