{
   "abstract" : "A Twitter REST API library for Perl",
   "author" : [
      "Marc Mims <marc@questright.com>"
   ],
   "dynamic_config" : 0,
   "generated_by" : "Dist::Zilla version 6.008, CPAN::Meta::Converter version 2.150001",
   "license" : [
      "perl_5"
   ],
   "meta-spec" : {
      "url" : "http://search.cpan.org/perldoc?CPAN::Meta::Spec",
      "version" : 2
   },
   "name" : "Twitter-API",
   "no_index" : {
      "directory" : [
         "eg",
         "examples",
         "inc",
         "share",
         "t",
         "xt"
      ]
   },
   "prereqs" : {
      "configure" : {
         "requires" : {
            "Module::Build::Tiny" : "0.034"
         }
      },
      "develop" : {
         "requires" : {
            "Test::Pod" : "1.41"
         }
      },
      "runtime" : {
         "requires" : {
            "Carp" : "0",
            "Class::Load" : "0",
            "Data::Visitor::Lite" : "0",
            "Devel::StackTrace" : "0",
            "Digest::SHA" : "0",
            "Encode" : "0",
            "HTML::Entities" : "0",
            "HTTP::Request::Common" : "0",
            "HTTP::Thin" : "0",
            "IO::Socket::SSL" : "0",
            "JSON::MaybeXS" : "0",
            "Moo" : "0",
            "Moo::Role" : "0",
            "MooX::Aliases" : "0",
            "MooX::Traits" : "0",
            "Scalar::Util" : "0",
            "Sub::Exporter::Progressive" : "0",
            "Throwable" : "0",
            "Time::HiRes" : "0",
            "Time::Local" : "0",
            "Try::Tiny" : "0",
            "URI" : "0",
            "URL::Encode" : "0",
            "WWW::OAuth" : "0.006",
            "namespace::clean" : "0",
            "perl" : "v5.14.1"
         }
      },
      "test" : {
         "requires" : {
            "Test::Fatal" : "0",
            "Test::More" : "0",
            "Test::Spec" : "0",
            "Test::Warnings" : "0"
         }
      }
   },
   "release_status" : "stable",
   "resources" : {
      "bugtracker" : {
         "web" : "https://github.com/semifor/Twitter-API/issues"
      },
      "homepage" : "https://github.com/semifor/Twitter-API",
      "repository" : {
         "type" : "git",
         "url" : "https://github.com/semifor/Twitter-API.git",
         "web" : "https://github.com/semifor/Twitter-API"
      },
      "x_IRC" : "irc://irc.perl.org/#net-twitter"
   },
   "version" : "0.0107",
   "x_contributors" : [
      "Marc Mims <marc@moz.com>",
      "Mohammad S Anwar <mohammad.anwar@yahoo.com>"
   ],
   "x_serialization_backend" : "Cpanel::JSON::XS version 3.0224"
}

