{
   "abstract" : "Find or build GNU Make",
   "author" : [
      "Graham Ollis <plicease@cpan.org>"
   ],
   "dynamic_config" : 1,
   "generated_by" : "Dist::Zilla version 6.008, CPAN::Meta::Converter version 2.150010",
   "license" : [
      "perl_5"
   ],
   "meta-spec" : {
      "url" : "http://search.cpan.org/perldoc?CPAN::Meta::Spec",
      "version" : 2
   },
   "name" : "Alien-gmake",
   "prereqs" : {
      "configure" : {
         "requires" : {
            "Alien::Base::ModuleBuild" : "0.016",
            "Capture::Tiny" : "0",
            "File::ShareDir" : "1.03",
            "File::chdir" : "0",
            "perl" : "5.006"
         }
      },
      "develop" : {
         "requires" : {
            "FindBin" : "0",
            "Test::CPAN::Changes" : "0",
            "Test::EOL" : "0",
            "Test::Fixme" : "0.07",
            "Test::More" : "0.94",
            "Test::NoTabs" : "0",
            "Test::Pod" : "0",
            "Test::Pod::Coverage" : "0",
            "Test::Pod::Spelling::CommonMistakes" : "0",
            "Test::Spelling" : "0",
            "Test::Strict" : "0",
            "YAML" : "0"
         }
      },
      "runtime" : {
         "requires" : {
            "Alien::Base" : "0.016",
            "File::ShareDir" : "1.03",
            "perl" : "5.006"
         }
      },
      "test" : {
         "requires" : {
            "Alien::Base::ModuleBuild" : "0",
            "Capture::Tiny" : "0",
            "Test::More" : "0.94",
            "perl" : "5.006"
         }
      }
   },
   "release_status" : "stable",
   "resources" : {
      "bugtracker" : {
         "web" : "https://github.com/Perl5-Alien/Alien-gmake/issues"
      },
      "homepage" : "https://metacpan.org/pod/Alien::gmake",
      "repository" : {
         "type" : "git",
         "url" : "git://github.com/Perl5-Alien/Alien-gmake.git",
         "web" : "https://github.com/Perl5-Alien/Alien-gmake"
      },
      "x_IRC" : "irc://irc.perl.org/#native"
   },
   "version" : "0.17",
   "x_serialization_backend" : "Cpanel::JSON::XS version 3.0225"
}

