ZONE CHART,,,,,,
UPS Ground/UPS 3 Day Select/UPS 2nd Day Air/UPS 2nd Day Air A.M./UPS Next Day Air Saver/UPS Next Day Air,,,,,,

For shipments originating in ZIP Codes 224-01 to 225-99.  To determine zone,,,,,,
take the first three digits of the receiver's ZIP Code and refer to the chart below:,,,,,,

ZONES,,,,,,
Dest. ZIP,Ground,3 Day Select,2nd Day Air,2nd Day Air A.M.,Next Day Air Saver,Next Day Air

004-005,3,303,203,243,133,103
006-007,-,-,225,-,-,125
008,-,-,[1],-,-,[1]
009,-,-,225,-,-,125
010-043,4,304,204,244,134,104
044,5,305,205,245,135,105
045,4,304,204,244,134,104
046-047,5,305,205,-,135,105
048-063,4,304,204,244,134,104
064-079,3,303,203,243,133,103
080-083,2,302,202,242,132,102
084-089,3,303,203,243,133,103
090-099,-,-,-,-,-,-
100-119,3,303,203,243,133,103
120-123,4,304,204,244,134,104
124-127,3,303,203,243,133,103
128-136,4,304,204,244,134,104
137-139,3,303,203,243,133,103
140-146,4,304,204,244,134,104
147-153,3,303,203,243,133,103
154,2,302,202,242,132,102
155-158,3,303,203,243,133,103
159,2,302,202,242,132,102
160-169,3,303,203,243,133,103
170-176,2,302,202,242,132,102
177-189,3,303,203,243,133,103
190-192,2,302,202,242,132,102
193-194,3,303,203,243,133,103
195-199,2,302,202,242,132,102
200-241,2,302,202,242,132,102
242-243,3,303,203,243,133,103
244-245,2,302,202,242,132,102
246,3,303,203,243,133,103
247-253,3,303,203,243,133,103
254,2,302,202,242,132,102
255-261,3,303,203,243,133,103
262,2,302,202,242,132,102
263-264,3,303,203,243,133,103
265,2,302,202,242,132,102
266,3,303,203,-,133,103
267-268,2,302,202,242,132,102
270-278,3,303,203,243,133,103
279,2,302,202,242,132,102
280-286,3,303,203,243,133,103
287-294,4,304,204,244,134,104
295,3,303,203,243,133,103
296,4,304,204,244,134,104
297,3,303,203,243,133,103
298-299,4,304,204,244,134,104
300-322,4,304,204,244,134,104
323-339,5,305,205,245,135,105
340,-,-,-,-,-,-
341-349,5,305,205,245,135,105
350-353,4,304,204,244,134,104
354-355,5,305,205,245,135,105
356-359,4,304,204,244,134,104
360-361,5,305,205,245,135,105
362,4,304,204,244,134,104
363-367,5,305,205,245,135,105
368,4,304,204,244,134,104
369,5,305,205,-,135,105
370-374,4,304,204,244,134,104
375,5,305,205,-,-,105
376,3,303,203,243,133,103
377-379,4,304,204,244,134,104
380-383,5,305,205,245,135,105
384-385,4,304,204,244,134,104
386-397,5,305,205,245,135,105
398-399,4,304,204,244,134,104
400-410,4,304,204,244,134,104
411-412,3,303,203,243,133,103
413-414,4,304,204,-,134,104
415-416,3,303,203,-,133,103
417-418,4,304,204,244,134,104
420,5,305,205,245,135,105
421-436,4,304,204,244,134,104
437-447,3,303,203,243,133,103
448-455,4,304,204,244,134,104
456-457,3,303,203,243,133,103
458-496,4,304,204,244,134,104
497-499,5,305,205,245,135,105
500-509,5,305,205,245,135,105
510-512,6,306,206,246,136,106
513-561,5,305,205,245,135,105
562,6,306,206,246,136,106
563,5,305,205,245,135,105
564-587,6,306,206,246,136,106
588-593,7,307,207,247,137,107
594,8,308,208,248,138,108
595,7,307,207,-,-,107
596-599,8,308,208,248,138,108
600-609,4,304,204,244,134,104
610-617,5,305,205,245,135,105
618-619,4,304,204,244,134,104
620-667,5,305,205,245,135,105
668-672,6,306,206,246,136,106
673,5,305,205,245,135,105
674-693,6,306,206,246,136,106
700-705,5,305,205,245,135,105
706,6,306,206,246,136,106
707-729,5,305,205,245,135,105
730-742,6,306,206,246,136,106
743-744,5,305,205,245,135,105
745-748,6,306,206,246,136,106
749,5,305,205,-,135,105
750-754,6,306,206,246,136,106
755,5,305,205,245,135,105
756-784,6,306,206,246,136,106
785,7,307,207,247,137,107
786-787,6,306,206,246,136,106
788,7,307,207,247,137,107
789-796,6,306,206,246,136,106
797-799,7,307,207,247,137,107
800-831,7,307,207,247,137,107
832-844,8,308,208,248,138,108
845,7,307,207,-,-,107
846-864,8,308,208,248,138,108
865-885,7,307,207,247,137,107
889-898,8,308,208,248,138,108
900-961,8,308,208,248,138,108,,,,,,,,,,,,,,,,,,,,,,,,,,,,,,,,,,,,,,,,,,,,,,,,,,,,,,,,,,,,,,,,,,,
962-966,-,-,-,-,-,-,,,,,,,,,,,,,,,,,,,,,,,,,,,,,,,,,,,,,,,,,,,,,,,,,,,,,,,,,,,,,,,,,,,
967-968,-,-,[2],-,-,[2],,,,,,,,,,,,,,,,,,,,,,,,,,,,,,,,,,,,,,,,,,,,,,,,,,,,,,,,,,,,,,,,,,,
969,-,-,[1],-,-,[1],,,,,,,,,,,,,,,,,,,,,,,,,,,,,,,,,,,,,,,,,,,,,,,,,,,,,,,,,,,,,,,,,,,
970-994,8,308,208,248,138,108,,,,,,,,,,,,,,,,,,,,,,,,,,,,,,,,,,,,,,,,,,,,,,,,,,,,,,,,,,,,,,,,,,,
995-999,-,-,[3],-,-,[3],,,,,,,,,,,,,,,,,,,,,,,,,,,,,,,,,,,,,,,,,,,,,,,,,,,,,,,,,,,,,,,,,,,



"[1] For Virgin Islands, Guam, Marshall Islands, etc., please refer to the Worldwide Rate and Zone information.",,,,,,,,,,,,,,,,,,,,,,,,,,,,,,,,,,,,,,,,,,,,,,,,,,,,,,,,,,,,,,,,,,,,,,,,,

"[2] For Hawaii, the following Postal Codes are Zone 124 for Next Day Air and Zone 224 for 2nd Day Air:",,,,,,,,,,,,,,,,,,,,,,,,,,,,,,,,,,,,,,,,,,,,,,,,,,,,,,,,,,,,,,,,,,,,,,,,,
96701,96706,96707,96709,96712,96717,96730,96731,96734,96744,96759,96762,96782,96786,96789,96791,96792,96795,96797,96801,96802,96803,96804,96805,96806,96807,96808,96809,96810,96811,96812,96813,96814,96815,96816,96817,96818,96819,96820,96821,96822,96823,96824,96825,96826,96827,96828,96830,96835,96836,96837,96838,96839,96840,96841,96842,96843,96844,96845,96846,96847,96848,96849,96850,96853,96854,96857,96858,96859,96860,96861,96862,96863,96898
"For Hawaii, the following Postal Codes are Zone 126 for Next Day Air and Zone 226 for 2nd Day Air:",,,,,,,,,,,,,,,,,,,,,,,,,,,,,,,,,,,,,,,,,,,,,,,,,,,,,,,,,,,,,,,,,,,,,,,,,
96703,96704,96705,96708,96710,96713,96714,96715,96716,96718,96719,96720,96721,96722,96725,96726,96727,96728,96729,96732,96733,96737,96738,96739,96740,96741,96742,96743,96745,96746,96747,96748,96749,96750,96751,96752,96753,96754,96755,96756,96757,96760,96761,96763,96764,96765,96766,96767,96768,96769,96770,96771,96772,96773,96774,96775,96776,96777,96778,96779,96780,96781,96783,96784,96785,96788,96790,96793,96796,,,,,

"[3] For Alaska, the following Postal Codes are Zone 124 for Next Day Air and Zone 224 for 2nd Day Air:",,,,,,,,,,,,,,,,,,,,,,,,,,,,,,,,,,,,,,,,,,,,,,,,,,,,,,,,,,,,,,,,,,,,,,,,,,,,,,,,,,,,,,,,,,,,,,,,,,,,,,,,,,,,,,,,,,,,,,,,,,,,,,,,,,,,,,,,,,,,,,,,,,,,,,,,,,,,,,,,,,,,,,,,,,,,,,,,,,,,,,,,,,,,,,,,,,,,,,,,,,,,,,,,,,
99501,99502,99503,99504,99505,99506,99507,99508,99509,99510,99511,99512,99513,99514,99515,99516,99517,99518,99519,99520,99521,99522,99523,99524,99540,99556,99567,99568,99572,99577,99587,99603,99605,99610,99611,99631,99635,99639,99645,99654,99664,99669,99672,99687,99701,99702,99703,99705,99706,99707,99708,99709,99710,99711,99712,99775,,,,,,,,,,,,,,,,,,,,,,,,,,,,,,,,,,,,,,,,,,,,,,,,,,,,,,,,,,,,,,,,,,,,,,,,,,,,,,,,,,,,,,,,,,,,,,,,,,,,,,,,,,,,,,,,,,,,,,,,,,,,,,,,,,,,,,,,,,,,,,,,,,,,,,,,,,,
"For Alaska, the following Postal Codes are Zone 126 for Next Day Air and Zone 226 for 2nd Day Air:",,,,,,,,,,,,,,,,,,,,,,,,,,,,,,,,,,,,,,,,,,,,,,,,,,,,,,,,,,,,,,,,,,,,,,,,,,,,,,,,,,,,,,,,,,,,,,,,,,,,,,,,,,,,,,,,,,,,,,,,,,,,,,,,,,,,,,,,,,,,,,,,,,,,,,,,,,,,,,,,,,,,,,,,,,,,,,,,,,,,,,,,,,,,,,,,,,,,,,,,,,,,,,,,,,
99547,99548,99549,99550,99551,99552,99553,99554,99555,99557,99558,99559,99561,99563,99564,99565,99566,99569,99571,99573,99574,99575,99576,99578,99579,99580,99581,99583,99584,99585,99586,99588,99589,99590,99591,99602,99604,99606,99607,99608,99609,99612,99613,99614,99615,99619,99620,99621,99622,99624,99625,99626,99627,99628,99630,99632,99633,99634,99636,99637,99638,99640,99641,99643,99644,99647,99648,99649,99650,99651,99652,99653,99655,99656,99657,99658,99659,99660,99661,99662,99663,99665,99666,99667,99668,99670,99671,99674,99675,99676,99677,99678,99679,99680,99681,99682,99683,99684,99685,99686,99688,99689,99690,99691,99692,99693,99694,99695,99697,99704,99714,99716,99720,99721,99722,99723,99724,99725,99726,99727,99729,99730,99732,99733,99734,99736,99737,99738,99739,99740,99741,99742,99743,99744,99745,99746,99747,99748,99749,99750,99751,99752,99753,99754,99755,99756,99757,99758,99759,99760,99761,99762,99763,99764,99765,99766,99767,99768,99769,99770,99771,99772,99773,99774,99776,99777,99778,99779,99780,99781,99782,99783,99784,99785,99786,99788,99789,99790,99791,99801,99802,99803,99811,99820,99821,99824,99825,99826,99827,99829,99830,99832,99833,99835,99836,99840,99841,99850,99901,99903,99918,99919,99921,99922,99923,99925,99926,99927,99928,99929,99950
