ZONE CHART,,,,,,
UPS Ground/UPS 3 Day Select/UPS 2nd Day Air/UPS 2nd Day Air A.M./UPS Next Day Air Saver/UPS Next Day Air,,,,,,

For shipments originating in ZIP Codes 279-01 to 279-99.  To determine zone,,,,,,
take the first three digits of the receiver's ZIP Code and refer to the chart below:,,,,,,

ZONES,,,,,,
Dest. ZIP,Ground,3 Day Select,2nd Day Air,2nd Day Air A.M.,Next Day Air Saver,Next Day Air

004-005,4,304,204,244,134,104
006-007,-,-,225,-,-,125
008,-,-,[1],-,-,[1]
009,-,-,225,-,-,125
010-041,4,304,204,244,134,104
042-044,5,305,205,245,135,105
045,4,304,204,244,134,104
046-049,5,305,205,245,135,105
050-076,4,304,204,244,134,104
077,3,303,203,243,133,103
078-079,4,304,204,244,134,104
080-089,3,303,203,243,133,103
090-099,-,-,-,-,-,-
100-153,4,304,204,244,134,104
154-155,3,303,203,243,133,103
156-158,4,304,204,244,134,104
159,3,303,203,243,133,103
160-169,4,304,204,244,134,104
170-176,3,303,203,243,133,103
177,4,304,204,244,134,104
178-183,3,303,203,243,133,103
184-188,4,304,204,244,134,104
189-199,3,303,203,243,133,103
200-217,3,303,203,243,133,103
218,2,302,202,242,132,102
219-223,3,303,203,243,133,103
224-225,2,302,202,242,132,102
226,3,303,203,243,133,103
227,2,302,202,-,132,102
228-229,3,303,203,243,133,103
230-239,2,302,202,242,132,102
240-241,3,303,203,243,133,103
242,4,304,204,244,134,104
243-249,3,303,203,243,133,103
250-253,4,304,204,244,134,104
254,3,303,203,243,133,103
255-257,4,304,204,244,134,104
258-259,3,303,203,243,133,103
260-261,4,304,204,244,134,104
262-274,3,303,203,243,133,103
275-279,2,302,202,242,132,102
280-282,3,303,203,243,133,103
283-285,2,302,202,242,132,102
286,3,303,203,243,133,103
287-293,4,304,204,244,134,104
294-295,3,303,203,243,133,103
296,4,304,204,244,134,104
297,3,303,203,243,133,103
298-299,4,304,204,244,134,104
300-323,4,304,204,244,134,104
324-325,5,305,205,245,135,105
326-329,4,304,204,244,134,104
330-339,5,305,205,245,135,105
340,-,-,-,-,-,-
341-342,5,305,205,245,135,105
344,4,304,204,244,134,104
346,5,305,205,245,135,105
347,4,304,204,244,134,104
349-355,5,305,205,245,135,105
356-359,4,304,204,244,134,104
360-361,5,305,205,245,135,105
362-363,4,304,204,244,134,104
364-367,5,305,205,245,135,105
368,4,304,204,244,134,104
369,5,305,205,-,135,105
370-374,4,304,204,244,134,104
375,5,305,205,-,-,105
376-379,4,304,204,244,134,104
380-384,5,305,205,245,135,105
385,4,304,204,244,134,104
386-397,5,305,205,245,135,105
398-399,4,304,204,244,134,104
400-418,4,304,204,244,134,104
420,5,305,205,245,135,105
421-423,4,304,204,244,134,104
424,5,305,205,245,135,105
425-462,4,304,204,244,134,104
463-466,5,305,205,245,135,105
467-474,4,304,204,244,134,104
475-479,5,305,205,245,135,105
480-483,4,304,204,244,134,104
484-491,5,305,205,245,135,105
492,4,304,204,244,134,104
493-499,5,305,205,245,135,105
500-503,5,305,205,245,135,105
504-505,6,306,206,246,136,106
506-507,5,305,205,245,135,105
508,6,306,206,246,136,106
509,5,305,205,245,135,105
510-516,6,306,206,246,136,106
520-539,5,305,205,245,135,105
540,6,306,206,246,136,106
541-547,5,305,205,245,135,105
548,6,306,206,246,136,106
549,5,305,205,245,135,105
550-558,6,306,206,246,136,106
559,5,305,205,245,135,105
560-576,6,306,206,246,136,106
577,7,307,207,247,137,107
580-584,6,306,206,246,136,106
585-593,7,307,207,247,137,107
594-599,8,308,208,248,138,108
600-639,5,305,205,245,135,105
640-645,6,306,206,246,136,106
646-647,5,305,205,245,135,105
648-649,6,306,206,246,136,106
650-658,5,305,205,245,135,105
660-692,6,306,206,246,136,106
693,7,307,207,247,137,107
700-705,5,305,205,245,135,105
706,6,306,206,246,136,106
707-709,5,305,205,245,135,105
710-711,6,306,206,246,136,106
712-729,5,305,205,245,135,105
730-748,6,306,206,246,136,106
749,5,305,205,-,135,105
750-784,6,306,206,246,136,106
785,7,307,207,247,137,107
786-787,6,306,206,246,136,106
788,7,307,207,247,137,107
789,6,306,206,-,-,106
790-791,7,307,207,247,137,107
792,6,306,206,-,-,106
793-794,7,307,207,247,137,107
795-796,6,306,206,246,136,106
797-799,7,307,207,247,137,107
800-820,7,307,207,247,137,107
821,8,308,208,-,-,108
822-830,7,307,207,247,137,107
831-864,8,308,208,248,138,108
865-885,7,307,207,247,137,107
889-898,8,308,208,248,138,108
900-961,8,308,208,248,138,108
962-966,-,-,-,-,-,-
967-968,-,-,[2],-,-,[2]
969,-,-,[1],-,-,[1],,,,,,,,,,,,,,,,,,,,,,,,,,,,,,,,,,,,,,,,,,,,,,,,,,,,,,,,,,,,,,,,,,,
970-994,8,308,208,248,138,108,,,,,,,,,,,,,,,,,,,,,,,,,,,,,,,,,,,,,,,,,,,,,,,,,,,,,,,,,,,,,,,,,,,
995-999,-,-,[3],-,-,[3],,,,,,,,,,,,,,,,,,,,,,,,,,,,,,,,,,,,,,,,,,,,,,,,,,,,,,,,,,,,,,,,,,,



"[1] For Virgin Islands, Guam, Marshall Islands, etc., please refer to the Worldwide Rate and Zone information.",,,,,,,,,,,,,,,,,,,,,,,,,,,,,,,,,,,,,,,,,,,,,,,,,,,,,,,,,,,,,,,,,,,,,,,,,

"[2] For Hawaii, the following Postal Codes are Zone 124 for Next Day Air and Zone 224 for 2nd Day Air:",,,,,,,,,,,,,,,,,,,,,,,,,,,,,,,,,,,,,,,,,,,,,,,,,,,,,,,,,,,,,,,,,,,,,,,,,
96701,96706,96707,96709,96712,96717,96730,96731,96734,96744,96759,96762,96782,96786,96789,96791,96792,96795,96797,96801,96802,96803,96804,96805,96806,96807,96808,96809,96810,96811,96812,96813,96814,96815,96816,96817,96818,96819,96820,96821,96822,96823,96824,96825,96826,96827,96828,96830,96835,96836,96837,96838,96839,96840,96841,96842,96843,96844,96845,96846,96847,96848,96849,96850,96853,96854,96857,96858,96859,96860,96861,96862,96863,96898
"For Hawaii, the following Postal Codes are Zone 126 for Next Day Air and Zone 226 for 2nd Day Air:",,,,,,,,,,,,,,,,,,,,,,,,,,,,,,,,,,,,,,,,,,,,,,,,,,,,,,,,,,,,,,,,,,,,,,,,,
96703,96704,96705,96708,96710,96713,96714,96715,96716,96718,96719,96720,96721,96722,96725,96726,96727,96728,96729,96732,96733,96737,96738,96739,96740,96741,96742,96743,96745,96746,96747,96748,96749,96750,96751,96752,96753,96754,96755,96756,96757,96760,96761,96763,96764,96765,96766,96767,96768,96769,96770,96771,96772,96773,96774,96775,96776,96777,96778,96779,96780,96781,96783,96784,96785,96788,96790,96793,96796,,,,,

"[3] For Alaska, the following Postal Codes are Zone 124 for Next Day Air and Zone 224 for 2nd Day Air:",,,,,,,,,,,,,,,,,,,,,,,,,,,,,,,,,,,,,,,,,,,,,,,,,,,,,,,,,,,,,,,,,,,,,,,,,
99501,99502,99503,99504,99505,99506,99507,99508,99509,99510,99511,99512,99513,99514,99515,99516,99517,99518,99519,99520,99521,99522,99523,99524,99540,99556,99567,99568,99572,99577,99587,99603,99605,99610,99611,99631,99635,99639,99645,99654,99664,99669,99672,99687,99701,99702,99703,99705,99706,99707,99708,99709,99710,99711,99712,99775,,,,,,,,,,,,,,,,,,
"For Alaska, the following Postal Codes are Zone 126 for Next Day Air and Zone 226 for 2nd Day Air:",,,,,,,,,,,,,,,,,,,,,,,,,,,,,,,,,,,,,,,,,,,,,,,,,,,,,,,,,,,,,,,,,,,,,,,,,
99547,99548,99549,99550,99551,99552,99553,99554,99555,99557,99558,99559,99561,99563,99564,99565,99566,99569,99571,99573,99574,99575,99576,99578,99579,99580,99581,99583,99584,99585,99586,99588,99589,99590,99591,99602,99604,99606,99607,99608,99609,99612,99613,99614,99615,99619,99620,99621,99622,99624,99625,99626,99627,99628,99630,99632,99633,99634,99636,99637,99638,99640,99641,99643,99644,99647,99648,99649,99650,99651,99652,99653,99655,99656,99657,99658,99659,99660,99661,99662,99663,99665,99666,99667,99668,99670,99671,99674,99675,99676,99677,99678,99679,99680,99681,99682,99683,99684,99685,99686,99688,99689,99690,99691,99692,99693,99694,99695,99697,99704,99714,99716,99720,99721,99722,99723,99724,99725,99726,99727,99729,99730,99732,99733,99734,99736,99737,99738,99739,99740,99741,99742,99743,99744,99745,99746,99747,99748,99749,99750,99751,99752,99753,99754,99755,99756,99757,99758,99759,99760,99761,99762,99763,99764,99765,99766,99767,99768,99769,99770,99771,99772,99773,99774,99776,99777,99778,99779,99780,99781,99782,99783,99784,99785,99786,99788,99789,99790,99791,99801,99802,99803,99811,99820,99821,99824,99825,99826,99827,99829,99830,99832,99833,99835,99836,99840,99841,99850,99901,99903,99918,99919,99921,99922,99923,99925,99926,99927,99928,99929,99950
