ZONE CHART,,,,,,
UPS Ground/UPS 3 Day Select/UPS 2nd Day Air/UPS 2nd Day Air A.M./UPS Next Day Air Saver/UPS Next Day Air,,,,,,

For shipments originating in ZIP Codes 385-01 to 385-99.  To determine zone,,,,,,
take the first three digits of the receiver's ZIP Code and refer to the chart below:,,,,,,

ZONES,,,,,,
Dest. ZIP,Ground,3 Day Select,2nd Day Air,2nd Day Air A.M.,Next Day Air Saver,Next Day Air

004-005,5,305,205,245,135,105
006-007,-,-,225,-,-,125
008,-,-,[1],-,-,[1]
009,-,-,225,-,-,125
010-043,5,305,205,245,135,105
044,6,306,206,246,136,106
045,5,305,205,245,135,105
046-049,6,306,206,246,136,106
050-089,5,305,205,245,135,105
090-099,-,-,-,-,-,-
100-139,5,305,205,245,135,105
140-143,4,304,204,244,134,104
144-146,5,305,205,245,135,105
147,4,304,204,244,134,104
148-149,5,305,205,245,135,105
150-179,4,304,204,244,134,104
180-194,5,305,205,245,135,105
195-199,4,304,204,244,134,104
200-241,4,304,204,244,134,104
242-243,3,303,203,243,133,103
244-245,4,304,204,244,134,104
246-248,3,303,203,243,133,103
249,4,304,204,244,134,104
250-253,3,303,203,243,133,103
254,4,304,204,244,134,104
255-259,3,303,203,243,133,103
260,4,304,204,244,134,104
261,3,303,203,243,133,103
262-270,4,304,204,244,134,104
271,3,303,203,243,133,103
272-279,4,304,204,244,134,104
280-282,3,303,203,243,133,103
283-285,4,304,204,244,134,104
286-288,3,303,203,243,133,103
289,2,302,202,-,-,102
290-293,3,303,203,243,133,103
294-295,4,304,204,244,134,104
296-298,3,303,203,243,133,103
299,4,304,204,244,134,104
300-306,3,303,203,243,133,103
307,2,302,202,242,132,102
308-312,3,303,203,243,133,103
313-317,4,304,204,244,134,104
318-319,3,303,203,243,133,103
320-328,4,304,204,244,134,104
329-334,5,305,205,245,135,105
335-338,4,304,204,244,134,104
339,5,305,205,245,135,105
340,-,-,-,-,-,-
341,5,305,205,245,135,105
342-347,4,304,204,244,134,104
349,5,305,205,245,135,105
350-355,3,303,203,243,133,103
356-359,2,302,202,242,132,102
360-362,3,303,203,243,133,103
363-366,4,304,204,244,134,104
367-368,3,303,203,243,133,103
369,4,304,204,-,134,104
370-374,2,302,202,242,132,102
375-376,3,303,203,243,133,103
377-379,2,302,202,242,132,102
380-383,3,303,203,243,133,103
384-385,2,302,202,242,132,102
386,3,303,203,243,133,103
387,4,304,204,244,134,104
388-389,3,303,203,243,133,103
390-396,4,304,204,244,134,104
397,3,303,203,243,133,103
398,4,304,204,244,134,104
399,3,303,203,243,133,103
400-409,2,302,202,242,132,102
410-412,3,303,203,243,133,103
413-414,2,302,202,-,132,102
415-416,3,303,203,-,133,103
417-418,2,302,202,242,132,102
420,3,303,203,243,133,103
421-427,2,302,202,242,132,102
430-432,3,303,203,243,133,103
433-436,4,304,204,244,134,104
437-438,3,303,203,243,133,103
439-449,4,304,204,244,134,104
450-457,3,303,203,243,133,103
458,4,304,204,244,134,104
459-462,3,303,203,243,133,103
463-468,4,304,204,244,134,104
469-470,3,303,203,243,133,103
471,2,302,202,242,132,102
472-475,3,303,203,243,133,103
476-477,2,302,202,242,132,102
478-479,3,303,203,243,133,103
480-496,4,304,204,244,134,104
497-499,5,305,205,245,135,105
500-503,4,304,204,244,134,104
504-505,5,305,205,245,135,105
506-509,4,304,204,244,134,104
510-515,5,305,205,245,135,105
516-539,4,304,204,244,134,104
540,5,305,205,245,135,105
541-543,4,304,204,244,134,104
544-545,5,305,205,245,135,105
546,4,304,204,244,134,104
547-548,5,305,205,245,135,105
549,4,304,204,244,134,104
550-576,5,305,205,245,135,105
577,6,306,206,246,136,106
580-582,5,305,205,245,135,105
583,6,306,206,-,136,106
584,5,305,205,245,135,105
585-593,6,306,206,246,136,106
594-599,7,307,207,247,137,107
600-616,4,304,204,244,134,104
617-622,3,303,203,243,133,103
623,4,304,204,244,134,104
624,3,303,203,243,133,103
625-627,4,304,204,244,134,104
628-633,3,303,203,243,133,103
634-635,4,304,204,244,134,104
636-639,3,303,203,243,133,103
640-668,4,304,204,244,134,104
669-672,5,305,205,245,135,105
673,4,304,204,244,134,104
674-693,5,305,205,245,135,105
700-722,4,304,204,244,134,104
723-724,3,303,203,243,133,103
725-729,4,304,204,244,134,104
730-739,5,305,205,245,135,105
740-745,4,304,204,244,134,104
746-748,5,305,205,245,135,105
749,4,304,204,-,134,104
750-754,5,305,205,245,135,105
755-757,4,304,204,244,134,104
758,5,305,205,-,-,105
759,4,304,204,244,134,104
760-797,5,305,205,245,135,105
798-799,6,306,206,246,136,106
800-806,6,306,206,246,136,106
807,5,305,205,245,135,105
808-831,6,306,206,246,136,106
832-844,7,307,207,247,137,107
845,6,306,206,-,-,106
846-858,7,307,207,247,137,107
859,6,306,206,246,136,106
860-864,7,307,207,247,137,107
865-880,6,306,206,246,136,106
881,5,305,205,-,135,105
882-883,6,306,206,-,136,106
884,5,305,205,-,-,105
885,6,306,206,-,-,106
889-893,7,307,207,247,137,107
894-897,8,308,208,248,138,108
898,7,307,207,-,-,107
900-918,8,308,208,248,138,108
919-929,7,307,207,247,137,107
930-961,8,308,208,248,138,108
962-966,-,-,-,-,-,-
967-968,-,-,[2],-,-,[2]
969,-,-,[1],-,-,[1]
970-978,8,308,208,248,138,108
979,7,307,207,-,137,107
980-989,8,308,208,248,138,108
990-992,7,307,207,247,137,107
993,8,308,208,248,138,108
994,7,307,207,-,-,107
995-999,-,-,[3],-,-,[3]



"[1] For Virgin Islands, Guam, Marshall Islands, etc., please refer to the Worldwide Rate and Zone information.",,,,,,,,,,,,,,,,,,,,,,,,,,,,,,,,,,,,,,,,,,,,,,,,,,,,,,,,,,,,,,,,,,,,,,,,,,,,,,,,,,,,,,,,,,,,,,,,,,,,,,,,,,,,,,,,,,,,,,,,,,,,,,,,,,,,,,,,,,,,,,,,,,,,,,,,,,,,,,,,,,,,,,,,,,,,,,,,,,,,,,,,,,,,,,,,,,,,,,,,,,,,,,,,,,

"[2] For Hawaii, the following Postal Codes are Zone 124 for Next Day Air and Zone 224 for 2nd Day Air:",,,,,,,,,,,,,,,,,,,,,,,,,,,,,,,,,,,,,,,,,,,,,,,,,,,,,,,,,,,,,,,,,,,,,,,,,,,,,,,,,,,,,,,,,,,,,,,,,,,,,,,,,,,,,,,,,,,,,,,,,,,,,,,,,,,,,,,,,,,,,,,,,,,,,,,,,,,,,,,,,,,,,,,,,,,,,,,,,,,,,,,,,,,,,,,,,,,,,,,,,,,,,,,,,,
96701,96706,96707,96709,96712,96717,96730,96731,96734,96744,96759,96762,96782,96786,96789,96791,96792,96795,96797,96801,96802,96803,96804,96805,96806,96807,96808,96809,96810,96811,96812,96813,96814,96815,96816,96817,96818,96819,96820,96821,96822,96823,96824,96825,96826,96827,96828,96830,96835,96836,96837,96838,96839,96840,96841,96842,96843,96844,96845,96846,96847,96848,96849,96850,96853,96854,96857,96858,96859,96860,96861,96862,96863,96898,,,,,,,,,,,,,,,,,,,,,,,,,,,,,,,,,,,,,,,,,,,,,,,,,,,,,,,,,,,,,,,,,,,,,,,,,,,,,,,,,,,,,,,,,,,,,,,,,,,,,,,,,,,,,,,,,,,,,,,,,,,,,,,,,,,,,,,,,
"For Hawaii, the following Postal Codes are Zone 126 for Next Day Air and Zone 226 for 2nd Day Air:",,,,,,,,,,,,,,,,,,,,,,,,,,,,,,,,,,,,,,,,,,,,,,,,,,,,,,,,,,,,,,,,,,,,,,,,,,,,,,,,,,,,,,,,,,,,,,,,,,,,,,,,,,,,,,,,,,,,,,,,,,,,,,,,,,,,,,,,,,,,,,,,,,,,,,,,,,,,,,,,,,,,,,,,,,,,,,,,,,,,,,,,,,,,,,,,,,,,,,,,,,,,,,,,,,
96703,96704,96705,96708,96710,96713,96714,96715,96716,96718,96719,96720,96721,96722,96725,96726,96727,96728,96729,96732,96733,96737,96738,96739,96740,96741,96742,96743,96745,96746,96747,96748,96749,96750,96751,96752,96753,96754,96755,96756,96757,96760,96761,96763,96764,96765,96766,96767,96768,96769,96770,96771,96772,96773,96774,96775,96776,96777,96778,96779,96780,96781,96783,96784,96785,96788,96790,96793,96796,,,,,,,,,,,,,,,,,,,,,,,,,,,,,,,,,,,,,,,,,,,,,,,,,,,,,,,,,,,,,,,,,,,,,,,,,,,,,,,,,,,,,,,,,,,,,,,,,,,,,,,,,,,,,,,,,,,,,,,,,,,,,,,,,,,,,,,,,,,,,,

"[3] For Alaska, the following Postal Codes are Zone 124 for Next Day Air and Zone 224 for 2nd Day Air:",,,,,,,,,,,,,,,,,,,,,,,,,,,,,,,,,,,,,,,,,,,,,,,,,,,,,,,,,,,,,,,,,,,,,,,,,,,,,,,,,,,,,,,,,,,,,,,,,,,,,,,,,,,,,,,,,,,,,,,,,,,,,,,,,,,,,,,,,,,,,,,,,,,,,,,,,,,,,,,,,,,,,,,,,,,,,,,,,,,,,,,,,,,,,,,,,,,,,,,,,,,,,,,,,,
99501,99502,99503,99504,99505,99506,99507,99508,99509,99510,99511,99512,99513,99514,99515,99516,99517,99518,99519,99520,99521,99522,99523,99524,99540,99556,99567,99568,99572,99577,99587,99603,99605,99610,99611,99631,99635,99639,99645,99654,99664,99669,99672,99687,99701,99702,99703,99705,99706,99707,99708,99709,99710,99711,99712,99775,,,,,,,,,,,,,,,,,,,,,,,,,,,,,,,,,,,,,,,,,,,,,,,,,,,,,,,,,,,,,,,,,,,,,,,,,,,,,,,,,,,,,,,,,,,,,,,,,,,,,,,,,,,,,,,,,,,,,,,,,,,,,,,,,,,,,,,,,,,,,,,,,,,,,,,,,,,
"For Alaska, the following Postal Codes are Zone 126 for Next Day Air and Zone 226 for 2nd Day Air:",,,,,,,,,,,,,,,,,,,,,,,,,,,,,,,,,,,,,,,,,,,,,,,,,,,,,,,,,,,,,,,,,,,,,,,,,,,,,,,,,,,,,,,,,,,,,,,,,,,,,,,,,,,,,,,,,,,,,,,,,,,,,,,,,,,,,,,,,,,,,,,,,,,,,,,,,,,,,,,,,,,,,,,,,,,,,,,,,,,,,,,,,,,,,,,,,,,,,,,,,,,,,,,,,,
99547,99548,99549,99550,99551,99552,99553,99554,99555,99557,99558,99559,99561,99563,99564,99565,99566,99569,99571,99573,99574,99575,99576,99578,99579,99580,99581,99583,99584,99585,99586,99588,99589,99590,99591,99602,99604,99606,99607,99608,99609,99612,99613,99614,99615,99619,99620,99621,99622,99624,99625,99626,99627,99628,99630,99632,99633,99634,99636,99637,99638,99640,99641,99643,99644,99647,99648,99649,99650,99651,99652,99653,99655,99656,99657,99658,99659,99660,99661,99662,99663,99665,99666,99667,99668,99670,99671,99674,99675,99676,99677,99678,99679,99680,99681,99682,99683,99684,99685,99686,99688,99689,99690,99691,99692,99693,99694,99695,99697,99704,99714,99716,99720,99721,99722,99723,99724,99725,99726,99727,99729,99730,99732,99733,99734,99736,99737,99738,99739,99740,99741,99742,99743,99744,99745,99746,99747,99748,99749,99750,99751,99752,99753,99754,99755,99756,99757,99758,99759,99760,99761,99762,99763,99764,99765,99766,99767,99768,99769,99770,99771,99772,99773,99774,99776,99777,99778,99779,99780,99781,99782,99783,99784,99785,99786,99788,99789,99790,99791,99801,99802,99803,99811,99820,99821,99824,99825,99826,99827,99829,99830,99832,99833,99835,99836,99840,99841,99850,99901,99903,99918,99919,99921,99922,99923,99925,99926,99927,99928,99929,99950
