ZONE CHART,,,,,,
UPS Ground/UPS 3 Day Select/UPS 2nd Day Air/UPS 2nd Day Air A.M./UPS Next Day Air Saver/UPS Next Day Air,,,,,,

For shipments originating in ZIP Codes 630-01 to 633-99.  To determine zone,,,,,,
take the first three digits of the receiver's ZIP Code and refer to the chart below:,,,,,,

ZONES,,,,,,
Dest. ZIP,Ground,3 Day Select,2nd Day Air,2nd Day Air A.M.,Next Day Air Saver,Next Day Air

004-005,5,305,205,245,135,105
006-007,-,-,225,-,-,125
008,-,-,[1],-,-,[1]
009,-,-,225,-,-,125
010-016,5,305,205,245,135,105
017-031,6,306,206,246,136,106
032-034,5,305,205,245,135,105
035,6,306,206,246,136,106
036-037,5,305,205,245,135,105
038-049,6,306,206,246,136,106
050-054,5,305,205,245,135,105
055,6,306,206,246,136,106
056-058,5,305,205,245,135,105
059,6,306,206,-,136,106
060-089,5,305,205,245,135,105
090-099,-,-,-,-,-,-
100-149,5,305,205,245,135,105
150-157,4,304,204,244,134,104
158-159,5,305,205,245,135,105
160-165,4,304,204,244,134,104
166-199,5,305,205,245,135,105
200-239,5,305,205,245,135,105
240-253,4,304,204,244,134,104
254,5,305,205,245,135,105
255-266,4,304,204,244,134,104
267,5,305,205,245,135,105
268-274,4,304,204,244,134,104
275-279,5,305,205,245,135,105
280-282,4,304,204,244,134,104
283-285,5,305,205,245,135,105
286-293,4,304,204,244,134,104
294-295,5,305,205,245,135,105
296-298,4,304,204,244,134,104
299,5,305,205,245,135,105
300-312,4,304,204,244,134,104
313-316,5,305,205,245,135,105
317-319,4,304,204,244,134,104
320-324,5,305,205,245,135,105
325,4,304,204,244,134,104
326-329,5,305,205,245,135,105
330-333,6,306,206,246,136,106
334-339,5,305,205,245,135,105
340,-,-,-,-,-,-
341-349,5,305,205,245,135,105
350-369,4,304,204,244,134,104
370-372,3,303,203,243,133,103
373-374,4,304,204,244,134,104
375,3,303,203,-,-,103
376-379,4,304,204,244,134,104
380-386,3,303,203,243,133,103
387-399,4,304,204,244,134,104
400-402,3,303,203,243,133,103
403-405,4,304,204,244,134,104
406,3,303,203,243,133,103
407-409,4,304,204,-,134,104
410,3,303,203,243,133,103
411-418,4,304,204,244,134,104
420,2,302,202,242,132,102
421-423,3,303,203,243,133,103
424,2,302,202,242,132,102
425-427,3,303,203,243,133,103
430-449,4,304,204,244,134,104
450-452,3,303,203,243,133,103
453-458,4,304,204,244,134,104
459-474,3,303,203,243,133,103
475-478,2,302,202,242,132,102
479,3,303,203,243,133,103
480-499,4,304,204,244,134,104
500-503,3,303,203,243,133,103
504-505,4,304,204,244,134,104
506-509,3,303,203,243,133,103
510-515,4,304,204,244,134,104
516-525,3,303,203,243,133,103
526,2,302,202,242,132,102
527-528,3,303,203,243,133,103
530-533,4,304,204,244,134,104
534-538,3,303,203,243,133,103
539-565,4,304,204,244,134,104
566-567,5,305,205,245,135,105
570-574,4,304,204,244,134,104
575-588,5,305,205,245,135,105
590-591,6,306,206,246,136,106
592-593,5,305,205,-,-,105
594-599,6,306,206,246,136,106
600-613,3,303,203,243,133,103
614-639,2,302,202,242,132,102
640-649,3,303,203,243,133,103
650-655,2,302,202,242,132,102
656-667,3,303,203,243,133,103
668-672,4,304,204,244,134,104
673,3,303,203,243,133,103
674-692,4,304,204,244,134,104
693,5,305,205,245,135,105
700-703,5,305,205,245,135,105
704-718,4,304,204,244,134,104
719-728,3,303,203,243,133,103
729-732,4,304,204,244,134,104
733,5,305,205,-,-,105
734-742,4,304,204,244,134,104
743,3,303,203,243,133,103
744-764,4,304,204,244,134,104
765-797,5,305,205,245,135,105
798-799,6,306,206,246,136,106
800-820,5,305,205,245,135,105
821,6,306,206,-,-,106
822-828,5,305,205,245,135,105
829-834,6,306,206,246,136,106
835,7,307,207,-,137,107
836-837,6,306,206,246,136,106
838,7,307,207,-,137,107
840-853,6,306,206,246,136,106
854,7,307,207,-,-,107
855-865,6,306,206,246,136,106
870-872,5,305,205,245,135,105
873,6,306,206,246,136,106
874-878,5,305,205,245,135,105
879-880,6,306,206,246,136,106
881-884,5,305,205,-,135,105
885-893,6,306,206,246,136,106
894-897,7,307,207,247,137,107
898,6,306,206,-,-,106
900-961,7,307,207,247,137,107
962-966,-,-,-,-,-,-
967-968,-,-,[2],-,-,[2]
969,-,-,[1],-,-,[1]
970-978,7,307,207,247,137,107
979,6,306,206,-,136,106
980-994,7,307,207,247,137,107
995-999,-,-,[3],-,-,[3]



"[1] For Virgin Islands, Guam, Marshall Islands, etc., please refer to the Worldwide Rate and Zone information.",,,,,,

"[2] For Hawaii, the following Postal Codes are Zone 124 for Next Day Air and Zone 224 for 2nd Day Air:",,,,,,
96701,96706,96707,96709,96712,96717,96730,96731,96734,96744,96759,96762,96782,96786,96789,96791,96792,96795,96797,96801,96802,96803,96804,96805,96806,96807,96808,96809,96810,96811,96812,96813,96814,96815,96816,96817,96818,96819,96820,96821,96822,96823,96824,96825,96826,96827,96828,96830,96835,96836,96837,96838,96839,96840,96841,96842,96843,96844,96845,96846,96847,96848,96849,96850,96853,96854,96857,96858,96859,96860,96861,96862,96863,96898,,,,,,,,,,,,,,,,,,,,,,,,,,,,,,,,,,,,,,,,,,,,,,,,,,,,,,,,,,,,,,,,,,,,,,,,,,,,,,,,,,,,,,,,,,,,,,,,,,,,,,,,,,,,,,,,,,,,,,,,,,,,,,,,,,,,,,,,,
"For Hawaii, the following Postal Codes are Zone 126 for Next Day Air and Zone 226 for 2nd Day Air:",,,,,,,,,,,,,,,,,,,,,,,,,,,,,,,,,,,,,,,,,,,,,,,,,,,,,,,,,,,,,,,,,,,,,,,,,,,,,,,,,,,,,,,,,,,,,,,,,,,,,,,,,,,,,,,,,,,,,,,,,,,,,,,,,,,,,,,,,,,,,,,,,,,,,,,,,,,,,,,,,,,,,,,,,,,,,,,,,,,,,,,,,,,,,,,,,,,,,,,,,,,,,,,,,,
96703,96704,96705,96708,96710,96713,96714,96715,96716,96718,96719,96720,96721,96722,96725,96726,96727,96728,96729,96732,96733,96737,96738,96739,96740,96741,96742,96743,96745,96746,96747,96748,96749,96750,96751,96752,96753,96754,96755,96756,96757,96760,96761,96763,96764,96765,96766,96767,96768,96769,96770,96771,96772,96773,96774,96775,96776,96777,96778,96779,96780,96781,96783,96784,96785,96788,96790,96793,96796,,,,,,,,,,,,,,,,,,,,,,,,,,,,,,,,,,,,,,,,,,,,,,,,,,,,,,,,,,,,,,,,,,,,,,,,,,,,,,,,,,,,,,,,,,,,,,,,,,,,,,,,,,,,,,,,,,,,,,,,,,,,,,,,,,,,,,,,,,,,,,

"[3] For Alaska, the following Postal Codes are Zone 124 for Next Day Air and Zone 224 for 2nd Day Air:",,,,,,,,,,,,,,,,,,,,,,,,,,,,,,,,,,,,,,,,,,,,,,,,,,,,,,,,,,,,,,,,,,,,,,,,,,,,,,,,,,,,,,,,,,,,,,,,,,,,,,,,,,,,,,,,,,,,,,,,,,,,,,,,,,,,,,,,,,,,,,,,,,,,,,,,,,,,,,,,,,,,,,,,,,,,,,,,,,,,,,,,,,,,,,,,,,,,,,,,,,,,,,,,,,
99501,99502,99503,99504,99505,99506,99507,99508,99509,99510,99511,99512,99513,99514,99515,99516,99517,99518,99519,99520,99521,99522,99523,99524,99540,99556,99567,99568,99572,99577,99587,99603,99605,99610,99611,99631,99635,99639,99645,99654,99664,99669,99672,99687,99701,99702,99703,99705,99706,99707,99708,99709,99710,99711,99712,99775,,,,,,,,,,,,,,,,,,,,,,,,,,,,,,,,,,,,,,,,,,,,,,,,,,,,,,,,,,,,,,,,,,,,,,,,,,,,,,,,,,,,,,,,,,,,,,,,,,,,,,,,,,,,,,,,,,,,,,,,,,,,,,,,,,,,,,,,,,,,,,,,,,,,,,,,,,,
"For Alaska, the following Postal Codes are Zone 126 for Next Day Air and Zone 226 for 2nd Day Air:",,,,,,,,,,,,,,,,,,,,,,,,,,,,,,,,,,,,,,,,,,,,,,,,,,,,,,,,,,,,,,,,,,,,,,,,,,,,,,,,,,,,,,,,,,,,,,,,,,,,,,,,,,,,,,,,,,,,,,,,,,,,,,,,,,,,,,,,,,,,,,,,,,,,,,,,,,,,,,,,,,,,,,,,,,,,,,,,,,,,,,,,,,,,,,,,,,,,,,,,,,,,,,,,,,
99547,99548,99549,99550,99551,99552,99553,99554,99555,99557,99558,99559,99561,99563,99564,99565,99566,99569,99571,99573,99574,99575,99576,99578,99579,99580,99581,99583,99584,99585,99586,99588,99589,99590,99591,99602,99604,99606,99607,99608,99609,99612,99613,99614,99615,99619,99620,99621,99622,99624,99625,99626,99627,99628,99630,99632,99633,99634,99636,99637,99638,99640,99641,99643,99644,99647,99648,99649,99650,99651,99652,99653,99655,99656,99657,99658,99659,99660,99661,99662,99663,99665,99666,99667,99668,99670,99671,99674,99675,99676,99677,99678,99679,99680,99681,99682,99683,99684,99685,99686,99688,99689,99690,99691,99692,99693,99694,99695,99697,99704,99714,99716,99720,99721,99722,99723,99724,99725,99726,99727,99729,99730,99732,99733,99734,99736,99737,99738,99739,99740,99741,99742,99743,99744,99745,99746,99747,99748,99749,99750,99751,99752,99753,99754,99755,99756,99757,99758,99759,99760,99761,99762,99763,99764,99765,99766,99767,99768,99769,99770,99771,99772,99773,99774,99776,99777,99778,99779,99780,99781,99782,99783,99784,99785,99786,99788,99789,99790,99791,99801,99802,99803,99811,99820,99821,99824,99825,99826,99827,99829,99830,99832,99833,99835,99836,99840,99841,99850,99901,99903,99918,99919,99921,99922,99923,99925,99926,99927,99928,99929,99950
