ZONE CHART,,,,,,
UPS Ground/UPS 3 Day Select/UPS 2nd Day Air/UPS 2nd Day Air A.M./UPS Next Day Air Saver/UPS Next Day Air,,,,,,

For shipments originating in ZIP Codes 691-01 to 691-99.  To determine zone,,,,,,
take the first three digits of the receiver's ZIP Code and refer to the chart below:,,,,,,

ZONES,,,,,,
Dest. ZIP,Ground,3 Day Select,2nd Day Air,2nd Day Air A.M.,Next Day Air Saver,Next Day Air

004-005,6,306,206,246,136,106
006-007,-,-,225,-,-,125
008,-,-,[1],-,-,[1]
009,-,-,225,-,-,125
010-051,7,307,207,247,137,107
052,6,306,206,-,136,106
053,7,307,207,247,137,107
054,6,306,206,246,136,106
055-067,7,307,207,247,137,107
068-089,6,306,206,246,136,106
090-099,-,-,-,-,-,-
100-118,6,306,206,246,136,106
119,7,307,207,247,137,107
120-199,6,306,206,246,136,106
200-254,6,306,206,246,136,106
255-257,5,305,205,245,135,105
258-260,6,306,206,246,136,106
261,5,305,205,245,135,105
262-288,6,306,206,246,136,106
289,5,305,205,-,-,105
290-299,6,306,206,246,136,106
300-306,6,306,206,246,136,106
307,5,305,205,245,135,105
308-328,6,306,206,246,136,106
329-334,7,307,207,247,137,107
335-338,6,306,206,246,136,106
339,7,307,207,247,137,107
340,-,-,-,-,-,-
341,7,307,207,247,137,107
342-347,6,306,206,246,136,106
349,7,307,207,247,137,107
350-362,5,305,205,245,135,105
363-364,6,306,206,246,136,106
365-367,5,305,205,245,135,105
368,6,306,206,246,136,106
369-375,5,305,205,245,135,105
376,6,306,206,246,136,106
377-397,5,305,205,245,135,105
398-399,6,306,206,246,136,106
400-438,5,305,205,245,135,105
439,6,306,206,246,136,106
440-443,5,305,205,245,135,105
444-447,6,306,206,246,136,106
448-499,5,305,205,245,135,105
500-509,4,304,204,244,134,104
510-513,3,303,203,243,133,103
514,4,304,204,244,134,104
515-516,3,303,203,243,133,103
520-528,4,304,204,244,134,104
530-534,5,305,205,245,135,105
535-540,4,304,204,244,134,104
541-543,5,305,205,245,135,105
544,4,304,204,244,134,104
545,5,305,205,-,135,105
546-548,4,304,204,244,134,104
549,5,305,205,245,135,105
550-567,4,304,204,244,134,104
570-577,3,303,203,243,133,103
580-593,4,304,204,244,134,104
594-599,5,305,205,245,135,105
600-609,5,305,205,245,135,105
610-616,4,304,204,244,134,104
617-619,5,305,205,245,135,105
620-623,4,304,204,244,134,104
624,5,305,205,245,135,105
625-627,4,304,204,244,134,104
628-629,5,305,205,245,135,105
630-636,4,304,204,244,134,104
637-639,5,305,205,245,135,105
640-663,4,304,204,244,134,104
664-666,3,303,203,243,133,103
667,4,304,204,244,134,104
668-672,3,303,203,243,133,103
673,4,304,204,244,134,104
674-676,3,303,203,243,133,103
677,2,302,202,-,-,102
678-687,3,303,203,243,133,103
688-693,2,302,202,242,132,102
700-718,5,305,205,245,135,105
719,4,304,204,244,134,104
720-724,5,305,205,245,135,105
725-732,4,304,204,244,134,104
733,5,305,205,-,-,105
734-738,4,304,204,244,134,104
739,3,303,203,-,-,103
740-749,4,304,204,244,134,104
750-759,5,305,205,245,135,105
760-764,4,304,204,244,134,104
765-784,5,305,205,245,135,105
785,6,306,206,246,136,106
786-789,5,305,205,245,135,105
790-794,4,304,204,244,134,104
795-799,5,305,205,245,135,105
800-810,3,303,203,243,133,103
811-816,4,304,204,244,134,104
820,3,303,203,243,133,103
821,4,304,204,-,-,104
822,3,303,203,-,133,103
823-825,4,304,204,244,134,104
826,3,303,203,243,133,103
827-832,4,304,204,244,134,104
833,5,305,205,245,135,105
834,4,304,204,244,134,104
835-838,5,305,205,245,135,105
840-846,4,304,204,244,134,104
847-864,5,305,205,245,135,105
865-878,4,304,204,244,134,104
879-880,5,305,205,245,135,105
881-884,4,304,204,-,134,104
885-898,5,305,205,245,135,105
900-921,6,306,206,246,136,106
922,5,305,205,245,135,105
923-960,6,306,206,246,136,106
961,5,305,205,-,135,105
962-966,-,-,-,-,-,-
967-968,-,-,[2],-,-,[2]
969,-,-,[1],-,-,[1]
970-977,6,306,206,246,136,106
978-979,5,305,205,-,135,105
980-989,6,306,206,246,136,106,,,,,,,,,,,,,,,,,,,,,,,,,,,,,,,,,,,,,,,,,,,,,,,,,,,,,,,,,,,,,,,,,,,
990-994,5,305,205,245,135,105,,,,,,,,,,,,,,,,,,,,,,,,,,,,,,,,,,,,,,,,,,,,,,,,,,,,,,,,,,,,,,,,,,,
995-999,-,-,[3],-,-,[3],,,,,,,,,,,,,,,,,,,,,,,,,,,,,,,,,,,,,,,,,,,,,,,,,,,,,,,,,,,,,,,,,,,



"[1] For Virgin Islands, Guam, Marshall Islands, etc., please refer to the Worldwide Rate and Zone information.",,,,,,,,,,,,,,,,,,,,,,,,,,,,,,,,,,,,,,,,,,,,,,,,,,,,,,,,,,,,,,,,,,,,,,,,,

"[2] For Hawaii, the following Postal Codes are Zone 124 for Next Day Air and Zone 224 for 2nd Day Air:",,,,,,,,,,,,,,,,,,,,,,,,,,,,,,,,,,,,,,,,,,,,,,,,,,,,,,,,,,,,,,,,,,,,,,,,,
96701,96706,96707,96709,96712,96717,96730,96731,96734,96744,96759,96762,96782,96786,96789,96791,96792,96795,96797,96801,96802,96803,96804,96805,96806,96807,96808,96809,96810,96811,96812,96813,96814,96815,96816,96817,96818,96819,96820,96821,96822,96823,96824,96825,96826,96827,96828,96830,96835,96836,96837,96838,96839,96840,96841,96842,96843,96844,96845,96846,96847,96848,96849,96850,96853,96854,96857,96858,96859,96860,96861,96862,96863,96898
"For Hawaii, the following Postal Codes are Zone 126 for Next Day Air and Zone 226 for 2nd Day Air:",,,,,,,,,,,,,,,,,,,,,,,,,,,,,,,,,,,,,,,,,,,,,,,,,,,,,,,,,,,,,,,,,,,,,,,,,
96703,96704,96705,96708,96710,96713,96714,96715,96716,96718,96719,96720,96721,96722,96725,96726,96727,96728,96729,96732,96733,96737,96738,96739,96740,96741,96742,96743,96745,96746,96747,96748,96749,96750,96751,96752,96753,96754,96755,96756,96757,96760,96761,96763,96764,96765,96766,96767,96768,96769,96770,96771,96772,96773,96774,96775,96776,96777,96778,96779,96780,96781,96783,96784,96785,96788,96790,96793,96796,,,,,

"[3] For Alaska, the following Postal Codes are Zone 124 for Next Day Air and Zone 224 for 2nd Day Air:",,,,,,,,,,,,,,,,,,,,,,,,,,,,,,,,,,,,,,,,,,,,,,,,,,,,,,,,,,,,,,,,,,,,,,,,,
99501,99502,99503,99504,99505,99506,99507,99508,99509,99510,99511,99512,99513,99514,99515,99516,99517,99518,99519,99520,99521,99522,99523,99524,99540,99556,99567,99568,99572,99577,99587,99603,99605,99610,99611,99631,99635,99639,99645,99654,99664,99669,99672,99687,99701,99702,99703,99705,99706,99707,99708,99709,99710,99711,99712,99775,,,,,,,,,,,,,,,,,,
"For Alaska, the following Postal Codes are Zone 126 for Next Day Air and Zone 226 for 2nd Day Air:",,,,,,,,,,,,,,,,,,,,,,,,,,,,,,,,,,,,,,,,,,,,,,,,,,,,,,,,,,,,,,,,,,,,,,,,,
99547,99548,99549,99550,99551,99552,99553,99554,99555,99557,99558,99559,99561,99563,99564,99565,99566,99569,99571,99573,99574,99575,99576,99578,99579,99580,99581,99583,99584,99585,99586,99588,99589,99590,99591,99602,99604,99606,99607,99608,99609,99612,99613,99614,99615,99619,99620,99621,99622,99624,99625,99626,99627,99628,99630,99632,99633,99634,99636,99637,99638,99640,99641,99643,99644,99647,99648,99649,99650,99651,99652,99653,99655,99656,99657,99658,99659,99660,99661,99662,99663,99665,99666,99667,99668,99670,99671,99674,99675,99676,99677,99678,99679,99680,99681,99682,99683,99684,99685,99686,99688,99689,99690,99691,99692,99693,99694,99695,99697,99704,99714,99716,99720,99721,99722,99723,99724,99725,99726,99727,99729,99730,99732,99733,99734,99736,99737,99738,99739,99740,99741,99742,99743,99744,99745,99746,99747,99748,99749,99750,99751,99752,99753,99754,99755,99756,99757,99758,99759,99760,99761,99762,99763,99764,99765,99766,99767,99768,99769,99770,99771,99772,99773,99774,99776,99777,99778,99779,99780,99781,99782,99783,99784,99785,99786,99788,99789,99790,99791,99801,99802,99803,99811,99820,99821,99824,99825,99826,99827,99829,99830,99832,99833,99835,99836,99840,99841,99850,99901,99903,99918,99919,99921,99922,99923,99925,99926,99927,99928,99929,99950
