ZONE CHART,,,,,,
UPS Ground/UPS 3 Day Select/UPS 2nd Day Air/UPS 2nd Day Air A.M./UPS Next Day Air Saver/UPS Next Day Air,,,,,,

For shipments originating in ZIP Codes 693-01 to 693-99.  To determine zone,,,,,,
take the first three digits of the receiver's ZIP Code and refer to the chart below:,,,,,,

ZONES,,,,,,
Dest. ZIP,Ground,3 Day Select,2nd Day Air,2nd Day Air A.M.,Next Day Air Saver,Next Day Air

004-005,7,307,207,247,137,107
006-007,-,-,225,-,-,125
008,-,-,[1],-,-,[1]
009,-,-,225,-,-,125
010-089,7,307,207,247,137,107
090-099,-,-,-,-,-,-
100-129,7,307,207,247,137,107
130-179,6,306,206,246,136,106
180-181,7,307,207,247,137,107
182,6,306,206,246,136,106
183,7,307,207,247,137,107
184-188,6,306,206,246,136,106
189-194,7,307,207,247,137,107
195-198,6,306,206,246,136,106
199,7,307,207,247,137,107
200-217,6,306,206,246,136,106
218,7,307,207,247,137,107
219-232,6,306,206,246,136,106
233-237,7,307,207,247,137,107
238-278,6,306,206,246,136,106
279,7,307,207,247,137,107
280-283,6,306,206,246,136,106
284-285,7,307,207,247,137,107
286-299,6,306,206,246,136,106
300-319,6,306,206,246,136,106
320-322,7,307,207,247,137,107
323-325,6,306,206,246,136,106
326-339,7,307,207,247,137,107
340,-,-,-,-,-,-
341-349,7,307,207,247,137,107
350-355,6,306,206,246,136,106
356-358,5,305,205,245,135,105
359-369,6,306,206,246,136,106
370-372,5,305,205,245,135,105
373-374,6,306,206,246,136,106
375,5,305,205,-,-,105
376-379,6,306,206,246,136,106
380-392,5,305,205,245,135,105
393-395,6,306,206,246,136,106
396-397,5,305,205,245,135,105
398-399,6,306,206,246,136,106
400-406,5,305,205,245,135,105
407-409,6,306,206,-,136,106
410,5,305,205,245,135,105
411-418,6,306,206,246,136,106
420-427,5,305,205,245,135,105
430-432,6,306,206,246,136,106
433-436,5,305,205,245,135,105
437-449,6,306,206,246,136,106
450-455,5,305,205,245,135,105
456-457,6,306,206,246,136,106
458-499,5,305,205,245,135,105
500-526,4,304,204,244,134,104
527-537,5,305,205,245,135,105
538,4,304,204,244,134,104
539,5,305,205,245,135,105
540,4,304,204,244,134,104
541-545,5,305,205,245,135,105
546-548,4,304,204,244,134,104
549,5,305,205,245,135,105
550-572,4,304,204,244,134,104
573-576,3,303,203,243,133,103
577,2,302,202,242,132,102
580-585,4,304,204,244,134,104
586,3,303,203,243,133,103
587-592,4,304,204,244,134,104
593,3,303,203,-,-,103
594-597,4,304,204,244,134,104
598-599,5,305,205,245,135,105
600-634,5,305,205,245,135,105
635,4,304,204,244,134,104
636-639,5,305,205,245,135,105
640-653,4,304,204,244,134,104
654-655,5,305,205,245,135,105
656-668,4,304,204,244,134,104
669,3,303,203,-,133,103
670-675,4,304,204,244,134,104
676-677,3,303,203,243,133,103
678-685,4,304,204,244,134,104
686-690,3,303,203,243,133,103
691-693,2,302,202,242,132,102
700-704,6,306,206,246,136,106
705-706,5,305,205,245,135,105
707-709,6,306,206,246,136,106
710-726,5,305,205,245,135,105
727,4,304,204,244,134,104
728-729,5,305,205,245,135,105
730-732,4,304,204,244,134,104
733-734,5,305,205,245,135,105
735-744,4,304,204,244,134,104
745,5,305,205,-,135,105
746,4,304,204,244,134,104
747,5,305,205,-,135,105
748,4,304,204,244,134,104
749-782,5,305,205,245,135,105
783-785,6,306,206,246,136,106
786-789,5,305,205,245,135,105
790-794,4,304,204,244,134,104
795-799,5,305,205,245,135,105
800-806,3,303,203,243,133,103
807,2,302,202,242,132,102
808-810,3,303,203,243,133,103
811,4,304,204,-,-,104
812,3,303,203,243,133,103
813-815,4,304,204,244,134,104
816,3,303,203,243,133,103
820,2,302,202,242,132,102
821,4,304,204,-,-,104
822,2,302,202,-,132,102
823-828,3,303,203,243,133,103
829-834,4,304,204,244,134,104
835-838,5,305,205,245,135,105
840-847,4,304,204,244,134,104
850-864,5,305,205,245,135,105
865-878,4,304,204,244,134,104
879-880,5,305,205,245,135,105
881,4,304,204,-,134,104
882,5,305,205,-,135,105
883-884,4,304,204,-,-,104
885-898,5,305,205,245,135,105
900-901,5,305,205,245,135,105
902-909,6,306,206,246,136,106
910-918,5,305,205,245,135,105
919-921,6,306,206,246,136,106
922-929,5,305,205,245,135,105
930-931,6,306,206,246,136,106
932-933,5,305,205,245,135,105
934,6,306,206,246,136,106
935-938,5,305,205,245,135,105
939-941,6,306,206,246,136,106
942,5,305,205,245,135,105
943-955,6,306,206,246,136,106
956-961,5,305,205,245,135,105
962-966,-,-,-,-,-,-
967-968,-,-,[2],-,-,[2]
969,-,-,[1],-,-,[1],,,,,,,,,,,,,,,,,,,,,,,,,,,,,,,,,,,,,,,,,,,,,,,,,,,,,,,,,,,,,,,,,,,
970-975,6,306,206,246,136,106,,,,,,,,,,,,,,,,,,,,,,,,,,,,,,,,,,,,,,,,,,,,,,,,,,,,,,,,,,,,,,,,,,,
976-979,5,305,205,-,135,105,,,,,,,,,,,,,,,,,,,,,,,,,,,,,,,,,,,,,,,,,,,,,,,,,,,,,,,,,,,,,,,,,,,
980-982,6,306,206,246,136,106,,,,,,,,,,,,,,,,,,,,,,,,,,,,,,,,,,,,,,,,,,,,,,,,,,,,,,,,,,,,,,,,,,,
983-984,5,305,205,245,135,105,,,,,,,,,,,,,,,,,,,,,,,,,,,,,,,,,,,,,,,,,,,,,,,,,,,,,,,,,,,,,,,,,,,
985-986,6,306,206,246,136,106,,,,,,,,,,,,,,,,,,,,,,,,,,,,,,,,,,,,,,,,,,,,,,,,,,,,,,,,,,,,,,,,,,,
988-994,5,305,205,245,135,105,,,,,,,,,,,,,,,,,,,,,,,,,,,,,,,,,,,,,,,,,,,,,,,,,,,,,,,,,,,,,,,,,,,
995-999,-,-,[3],-,-,[3],,,,,,,,,,,,,,,,,,,,,,,,,,,,,,,,,,,,,,,,,,,,,,,,,,,,,,,,,,,,,,,,,,,



"[1] For Virgin Islands, Guam, Marshall Islands, etc., please refer to the Worldwide Rate and Zone information.",,,,,,,,,,,,,,,,,,,,,,,,,,,,,,,,,,,,,,,,,,,,,,,,,,,,,,,,,,,,,,,,,,,,,,,,,

"[2] For Hawaii, the following Postal Codes are Zone 124 for Next Day Air and Zone 224 for 2nd Day Air:",,,,,,,,,,,,,,,,,,,,,,,,,,,,,,,,,,,,,,,,,,,,,,,,,,,,,,,,,,,,,,,,,,,,,,,,,
96701,96706,96707,96709,96712,96717,96730,96731,96734,96744,96759,96762,96782,96786,96789,96791,96792,96795,96797,96801,96802,96803,96804,96805,96806,96807,96808,96809,96810,96811,96812,96813,96814,96815,96816,96817,96818,96819,96820,96821,96822,96823,96824,96825,96826,96827,96828,96830,96835,96836,96837,96838,96839,96840,96841,96842,96843,96844,96845,96846,96847,96848,96849,96850,96853,96854,96857,96858,96859,96860,96861,96862,96863,96898
"For Hawaii, the following Postal Codes are Zone 126 for Next Day Air and Zone 226 for 2nd Day Air:",,,,,,,,,,,,,,,,,,,,,,,,,,,,,,,,,,,,,,,,,,,,,,,,,,,,,,,,,,,,,,,,,,,,,,,,,
96703,96704,96705,96708,96710,96713,96714,96715,96716,96718,96719,96720,96721,96722,96725,96726,96727,96728,96729,96732,96733,96737,96738,96739,96740,96741,96742,96743,96745,96746,96747,96748,96749,96750,96751,96752,96753,96754,96755,96756,96757,96760,96761,96763,96764,96765,96766,96767,96768,96769,96770,96771,96772,96773,96774,96775,96776,96777,96778,96779,96780,96781,96783,96784,96785,96788,96790,96793,96796,,,,,,,,,,,,,,,,,,,,,,,,,,,,,,,,,,,,,,,,,,,,,,,,,,,,,,,,,,,,,,,,,,,,,,,,,,,,,,,,,,,,,,,,,,,,,,,,,,,,,,,,,,,,,,,,,,,,,,,,,,,,,,,,,,,,,,,,,,,,,,

"[3] For Alaska, the following Postal Codes are Zone 124 for Next Day Air and Zone 224 for 2nd Day Air:",,,,,,,,,,,,,,,,,,,,,,,,,,,,,,,,,,,,,,,,,,,,,,,,,,,,,,,,,,,,,,,,,,,,,,,,,,,,,,,,,,,,,,,,,,,,,,,,,,,,,,,,,,,,,,,,,,,,,,,,,,,,,,,,,,,,,,,,,,,,,,,,,,,,,,,,,,,,,,,,,,,,,,,,,,,,,,,,,,,,,,,,,,,,,,,,,,,,,,,,,,,,,,,,,,
99501,99502,99503,99504,99505,99506,99507,99508,99509,99510,99511,99512,99513,99514,99515,99516,99517,99518,99519,99520,99521,99522,99523,99524,99540,99556,99567,99568,99572,99577,99587,99603,99605,99610,99611,99631,99635,99639,99645,99654,99664,99669,99672,99687,99701,99702,99703,99705,99706,99707,99708,99709,99710,99711,99712,99775,,,,,,,,,,,,,,,,,,,,,,,,,,,,,,,,,,,,,,,,,,,,,,,,,,,,,,,,,,,,,,,,,,,,,,,,,,,,,,,,,,,,,,,,,,,,,,,,,,,,,,,,,,,,,,,,,,,,,,,,,,,,,,,,,,,,,,,,,,,,,,,,,,,,,,,,,,,
"For Alaska, the following Postal Codes are Zone 126 for Next Day Air and Zone 226 for 2nd Day Air:",,,,,,,,,,,,,,,,,,,,,,,,,,,,,,,,,,,,,,,,,,,,,,,,,,,,,,,,,,,,,,,,,,,,,,,,,,,,,,,,,,,,,,,,,,,,,,,,,,,,,,,,,,,,,,,,,,,,,,,,,,,,,,,,,,,,,,,,,,,,,,,,,,,,,,,,,,,,,,,,,,,,,,,,,,,,,,,,,,,,,,,,,,,,,,,,,,,,,,,,,,,,,,,,,,
99547,99548,99549,99550,99551,99552,99553,99554,99555,99557,99558,99559,99561,99563,99564,99565,99566,99569,99571,99573,99574,99575,99576,99578,99579,99580,99581,99583,99584,99585,99586,99588,99589,99590,99591,99602,99604,99606,99607,99608,99609,99612,99613,99614,99615,99619,99620,99621,99622,99624,99625,99626,99627,99628,99630,99632,99633,99634,99636,99637,99638,99640,99641,99643,99644,99647,99648,99649,99650,99651,99652,99653,99655,99656,99657,99658,99659,99660,99661,99662,99663,99665,99666,99667,99668,99670,99671,99674,99675,99676,99677,99678,99679,99680,99681,99682,99683,99684,99685,99686,99688,99689,99690,99691,99692,99693,99694,99695,99697,99704,99714,99716,99720,99721,99722,99723,99724,99725,99726,99727,99729,99730,99732,99733,99734,99736,99737,99738,99739,99740,99741,99742,99743,99744,99745,99746,99747,99748,99749,99750,99751,99752,99753,99754,99755,99756,99757,99758,99759,99760,99761,99762,99763,99764,99765,99766,99767,99768,99769,99770,99771,99772,99773,99774,99776,99777,99778,99779,99780,99781,99782,99783,99784,99785,99786,99788,99789,99790,99791,99801,99802,99803,99811,99820,99821,99824,99825,99826,99827,99829,99830,99832,99833,99835,99836,99840,99841,99850,99901,99903,99918,99919,99921,99922,99923,99925,99926,99927,99928,99929,99950
