{
   "abstract" : "We are Japanese CPAN authors",
   "author" : [
      "Kenichi Ishigaki <ishigaki@cpan.org>"
   ],
   "dynamic_config" : 0,
   "generated_by" : "ExtUtils::MakeMaker version 7.24, CPAN::Meta::Converter version 2.143240",
   "license" : [
      "perl_5"
   ],
   "meta-spec" : {
      "url" : "http://search.cpan.org/perldoc?CPAN::Meta::Spec",
      "version" : 2
   },
   "name" : "Acme-CPANAuthors-Japanese",
   "no_index" : {
      "directory" : [
         "t",
         "inc"
      ]
   },
   "prereqs" : {
      "build" : {
         "requires" : {
            "ExtUtils::MakeMaker" : "0"
         }
      },
      "configure" : {
         "requires" : {
            "ExtUtils::MakeMaker::CPANfile" : "0.07"
         }
      },
      "runtime" : {
         "requires" : {
            "Acme::CPANAuthors" : "0.02"
         }
      },
      "test" : {
         "requires" : {
            "Test::More" : "0.47",
            "Test::UseAllModules" : "0.09"
         }
      }
   },
   "release_status" : "stable",
   "resources" : {
      "repository" : {
         "url" : "https://github.com/charsbar/acme-cpanauthors-japanese"
      }
   },
   "version" : "0.161210"
}
