{
   "abstract" : "Fastly api from config, and purge methods",
   "author" : [
      "Leo Lapworth"
   ],
   "dynamic_config" : 0,
   "generated_by" : "Dist::Zilla version 5.043, CPAN::Meta::Converter version 2.150005",
   "license" : [
      "perl_5"
   ],
   "meta-spec" : {
      "url" : "http://search.cpan.org/perldoc?CPAN::Meta::Spec",
      "version" : 2
   },
   "name" : "MooseX-Fastly-Role",
   "prereqs" : {
      "configure" : {
         "requires" : {
            "ExtUtils::MakeMaker" : "0"
         }
      },
      "develop" : {
         "requires" : {
            "Test::More" : "0.88",
            "Test::NoTabs" : "0",
            "Test::Pod" : "1.41"
         }
      },
      "runtime" : {
         "requires" : {
            "Carp" : "0",
            "HTTP::Tiny" : "0",
            "Moose::Role" : "0",
            "Net::Fastly" : "1.08"
         }
      },
      "test" : {
         "requires" : {
            "Moose" : "0",
            "Test::More" : "0",
            "lib" : "0",
            "strict" : "0",
            "warnings" : "0"
         }
      }
   },
   "release_status" : "stable",
   "resources" : {
      "bugtracker" : {
         "web" : "https://github.com/ranguard/p5-moosex-fastly-role/issues"
      },
      "repository" : {
         "type" : "git",
         "url" : "https://github.com/ranguard/p5-moosex-fastly-role",
         "web" : "https://github.com/ranguard/p5-moosex-fastly-role"
      }
   },
   "version" : "0.03"
}

