{
   "abstract" : "A minimalistic PSGI based web framework.",
   "author" : [
      "Zbigniew Lukasiak <zby@cpan.org>"
   ],
   "dynamic_config" : 0,
   "generated_by" : "Dist::Zilla version 4.102341, CPAN::Meta::Converter version 2.102400",
   "license" : [
      "perl_5"
   ],
   "meta-spec" : {
      "url" : "http://search.cpan.org/perldoc?CPAN::Meta::Spec",
      "version" : "2"
   },
   "name" : "WebNano",
   "prereqs" : {
      "configure" : {
         "requires" : {
            "ExtUtils::MakeMaker" : "6.31"
         }
      },
      "runtime" : {
         "requires" : {
            "Encode" : 0,
            "Exporter" : 0,
            "File::Spec" : 0,
            "Object::Tiny::RW" : 0,
            "Plack::Request" : 0,
            "Plack::Response" : 0,
            "Scalar::Util" : 0,
            "Template::Tiny" : 0,
            "Try::Tiny" : 0,
            "URI::Escape" : 0
         }
      },
      "test" : {
         "requires" : {
            "Cwd" : 0,
            "File::Copy" : 0,
            "File::Spec::Functions" : 0,
            "HTTP::Request::Common" : 0,
            "Plack::Test" : 0,
            "Test::More" : 0
         }
      }
   },
   "release_status" : "stable",
   "resources" : {
      "repository" : {
         "type" : "git",
         "web" : "http://github.com/zby/WebNano"
      }
   },
   "version" : "0.001"
}

