{
   "abstract" : "Read MaxMind DB files and look up IP addresses",
   "author" : [
      "Dave Rolsky <drolsky@maxmind.com>",
      "Olaf Alders <oalders@maxmind.com>"
   ],
   "dynamic_config" : 1,
   "generated_by" : "Dist::Zilla version 5.036, CPAN::Meta::Converter version 2.150001",
   "license" : [
      "artistic_2"
   ],
   "meta-spec" : {
      "url" : "http://search.cpan.org/perldoc?CPAN::Meta::Spec",
      "version" : 2
   },
   "name" : "MaxMind-DB-Reader",
   "prereqs" : {
      "configure" : {
         "requires" : {
            "ExtUtils::MakeMaker" : "0",
            "perl" : "5.010000"
         }
      },
      "develop" : {
         "requires" : {
            "Code::TidyAll" : "0.24",
            "File::Spec" : "0",
            "IO::Handle" : "0",
            "IPC::Open3" : "0",
            "Perl::Critic" : "1.123",
            "Perl::Tidy" : "20140711",
            "Pod::Coverage::Moose" : "0",
            "Pod::Coverage::TrustPod" : "0",
            "Test::CPAN::Changes" : "0.19",
            "Test::Code::TidyAll" : "0.24",
            "Test::EOL" : "0",
            "Test::More" : "0.88",
            "Test::NoTabs" : "0",
            "Test::Pod" : "1.41",
            "Test::Pod::Coverage" : "1.08",
            "Test::Spelling" : "0.12",
            "Test::Synopsis" : "0",
            "Test::Version" : "1"
         }
      },
      "runtime" : {
         "requires" : {
            "Carp" : "0",
            "Data::IEEE754" : "0",
            "Data::Printer" : "0",
            "Data::Validate::IP" : "0.16",
            "DateTime" : "0",
            "Encode" : "0",
            "Getopt::Long" : "0",
            "IO::File" : "0",
            "List::AllUtils" : "0",
            "Math::BigInt" : "0",
            "MaxMind::DB::Common" : "0.040000",
            "MaxMind::DB::Metadata" : "0",
            "MaxMind::DB::Role::Debugs" : "0",
            "MaxMind::DB::Types" : "0",
            "Module::Implementation" : "0",
            "Moo" : "1.003000",
            "Moo::Role" : "0",
            "MooX::StrictConstructor" : "0",
            "Role::Tiny" : "1.003002",
            "Socket" : "1.87",
            "Try::Tiny" : "0",
            "autodie" : "0",
            "bytes" : "0",
            "constant" : "0",
            "namespace::autoclean" : "0",
            "perl" : "5.010000",
            "strict" : "0",
            "warnings" : "0"
         }
      },
      "test" : {
         "recommends" : {
            "CPAN::Meta" : "2.120900"
         },
         "requires" : {
            "Exporter" : "0",
            "ExtUtils::MakeMaker" : "0",
            "File::Spec" : "0",
            "Math::Int128" : "0",
            "Net::Works::Network" : "0.21",
            "Path::Class" : "0",
            "Scalar::Util" : "1.42",
            "Test::Bits" : "0",
            "Test::Fatal" : "0",
            "Test::MaxMind::DB::Common::Data" : "0",
            "Test::MaxMind::DB::Common::Util" : "0",
            "Test::More" : "0.96",
            "Test::Number::Delta" : "0",
            "lib" : "0",
            "perl" : "5.010000",
            "utf8" : "0"
         }
      }
   },
   "provides" : {
      "MaxMind::DB::Reader" : {
         "file" : "lib/MaxMind/DB/Reader.pm",
         "version" : "1.000007"
      },
      "MaxMind::DB::Reader::Data::Container" : {
         "file" : "lib/MaxMind/DB/Reader/Data/Container.pm",
         "version" : "1.000007"
      },
      "MaxMind::DB::Reader::Data::EndMarker" : {
         "file" : "lib/MaxMind/DB/Reader/Data/EndMarker.pm",
         "version" : "1.000007"
      },
      "MaxMind::DB::Reader::Decoder" : {
         "file" : "lib/MaxMind/DB/Reader/Decoder.pm",
         "version" : "1.000007"
      },
      "MaxMind::DB::Reader::PP" : {
         "file" : "lib/MaxMind/DB/Reader/PP.pm",
         "version" : "1.000007"
      },
      "MaxMind::DB::Reader::Role::HasDecoder" : {
         "file" : "lib/MaxMind/DB/Reader/Role/HasDecoder.pm",
         "version" : "1.000007"
      },
      "MaxMind::DB::Reader::Role::HasMetadata" : {
         "file" : "lib/MaxMind/DB/Reader/Role/HasMetadata.pm",
         "version" : "1.000007"
      },
      "MaxMind::DB::Reader::Role::NodeReader" : {
         "file" : "lib/MaxMind/DB/Reader/Role/NodeReader.pm",
         "version" : "1.000007"
      },
      "MaxMind::DB::Reader::Role::Reader" : {
         "file" : "lib/MaxMind/DB/Reader/Role/Reader.pm",
         "version" : "1.000007"
      },
      "MaxMind::DB::Reader::Role::Sysreader" : {
         "file" : "lib/MaxMind/DB/Reader/Role/Sysreader.pm",
         "version" : "1.000007"
      },
      "MaxMind::DB::Verifier" : {
         "file" : "lib/MaxMind/DB/Verifier.pm",
         "version" : "1.000007"
      }
   },
   "release_status" : "stable",
   "resources" : {
      "bugtracker" : {
         "web" : "https://github.com/maxmind/MaxMind-DB-Reader-perl/issues"
      },
      "homepage" : "http://metacpan.org/release/MaxMind-DB-Reader/",
      "repository" : {
         "type" : "git",
         "url" : "git://github.com/maxmind/MaxMind-DB-Reader-perl.git",
         "web" : "https://github.com/maxmind/MaxMind-DB-Reader-perl"
      }
   },
   "version" : "1.000007",
   "x_Dist_Zilla" : {
      "perl" : {
         "version" : "5.020002"
      },
      "plugins" : [
         {
            "class" : "Dist::Zilla::Plugin::GatherDir",
            "config" : {
               "Dist::Zilla::Plugin::GatherDir" : {
                  "exclude_filename" : [],
                  "exclude_match" : [],
                  "follow_symlinks" : "0",
                  "include_dotfiles" : "0",
                  "prefix" : "maxmind-db",
                  "prune_directory" : [],
                  "root" : "maxmind-db"
               }
            },
            "name" : "maxmind-db",
            "version" : "5.036"
         },
         {
            "class" : "Dist::Zilla::Plugin::Encoding",
            "name" : "Encoding",
            "version" : "5.036"
         },
         {
            "class" : "Dist::Zilla::Plugin::MakeMaker",
            "config" : {
               "Dist::Zilla::Role::TestRunner" : {
                  "default_jobs" : 1
               }
            },
            "name" : "@MAXMIND/MakeMaker",
            "version" : "5.036"
         },
         {
            "class" : "Dist::Zilla::Plugin::Authority",
            "name" : "@MAXMIND/Authority",
            "version" : "1.009"
         },
         {
            "class" : "Dist::Zilla::Plugin::AutoPrereqs",
            "name" : "@MAXMIND/AutoPrereqs",
            "version" : "5.036"
         },
         {
            "class" : "Dist::Zilla::Plugin::CopyFilesFromBuild",
            "name" : "@MAXMIND/CopyFilesFromBuild",
            "version" : "0.150250"
         },
         {
            "class" : "Dist::Zilla::Plugin::Git::GatherDir",
            "config" : {
               "Dist::Zilla::Plugin::GatherDir" : {
                  "exclude_filename" : [
                     "Makefile.PL",
                     "cpanfile",
                     "LICENSE",
                     "README.md"
                  ],
                  "exclude_match" : [],
                  "follow_symlinks" : "0",
                  "include_dotfiles" : "0",
                  "prefix" : "",
                  "prune_directory" : [],
                  "root" : "."
               },
               "Dist::Zilla::Plugin::Git::GatherDir" : {
                  "include_untracked" : "0"
               }
            },
            "name" : "@MAXMIND/Git::GatherDir",
            "version" : "2.034"
         },
         {
            "class" : "Dist::Zilla::Plugin::GitHub::Meta",
            "name" : "@MAXMIND/GitHub::Meta",
            "version" : "0.40"
         },
         {
            "class" : "Dist::Zilla::Plugin::GitHub::Update",
            "name" : "@MAXMIND/GitHub::Update",
            "version" : "0.40"
         },
         {
            "class" : "Dist::Zilla::Plugin::MetaProvides::Package",
            "config" : {
               "Dist::Zilla::Plugin::MetaProvides::Package" : {
                  "finder_objects" : [
                     {
                        "class" : "Dist::Zilla::Plugin::FinderCode",
                        "name" : "@MAXMIND/MetaProvides::Package/AUTOVIV/:InstallModulesPM",
                        "version" : "5.036"
                     }
                  ]
               },
               "Dist::Zilla::Role::MetaProvider::Provider" : {
                  "inherit_missing" : "1",
                  "inherit_version" : "1",
                  "meta_noindex" : "1"
               }
            },
            "name" : "@MAXMIND/MetaProvides::Package",
            "version" : "2.003001"
         },
         {
            "class" : "Dist::Zilla::Plugin::NextRelease",
            "name" : "@MAXMIND/NextRelease",
            "version" : "5.036"
         },
         {
            "class" : "Dist::Zilla::Plugin::Test::Pod::Coverage::Configurable",
            "name" : "@MAXMIND/Test::Pod::Coverage::Configurable",
            "version" : "0.05"
         },
         {
            "class" : "Dist::Zilla::Plugin::Test::PodSpelling",
            "name" : "@MAXMIND/Test::PodSpelling",
            "version" : "2.006009"
         },
         {
            "class" : "Dist::Zilla::Plugin::Test::ReportPrereqs",
            "name" : "@MAXMIND/Test::ReportPrereqs",
            "version" : "0.021"
         },
         {
            "class" : "Dist::Zilla::Plugin::Prereqs",
            "config" : {
               "Dist::Zilla::Plugin::Prereqs" : {
                  "phase" : "test",
                  "type" : "requires"
               }
            },
            "name" : "@MAXMIND/Test::More with subtest()",
            "version" : "5.036"
         },
         {
            "class" : "Dist::Zilla::Plugin::Prereqs",
            "config" : {
               "Dist::Zilla::Plugin::Prereqs" : {
                  "phase" : "develop",
                  "type" : "requires"
               }
            },
            "name" : "@MAXMIND/Modules for use with tidyall",
            "version" : "5.036"
         },
         {
            "class" : "Dist::Zilla::Plugin::PromptIfStale",
            "config" : {
               "Dist::Zilla::Plugin::PromptIfStale" : {
                  "check_all_plugins" : "1",
                  "check_all_prereqs" : "1",
                  "modules" : [],
                  "phase" : "release",
                  "skip" : [
                     "Dist::Zilla::Plugin::MAXMIND::Contributors",
                     "Dist::Zilla::Plugin::MAXMIND::License",
                     "Dist::Zilla::Plugin::MAXMIND::Tidyall"
                  ]
               }
            },
            "name" : "@MAXMIND/stale modules, release",
            "version" : "0.044"
         },
         {
            "class" : "Dist::Zilla::Plugin::ReadmeAnyFromPod",
            "name" : "@MAXMIND/ReadmeMarkdownInBuild",
            "version" : "0.150250"
         },
         {
            "class" : "Dist::Zilla::Plugin::ReadmeAnyFromPod",
            "name" : "@MAXMIND/ReadmeMarkdownInRoot",
            "version" : "0.150250"
         },
         {
            "class" : "Dist::Zilla::Plugin::UploadToCPAN",
            "name" : "@MAXMIND/UploadToCPAN",
            "version" : "5.036"
         },
         {
            "class" : "Dist::Zilla::Plugin::PruneCruft",
            "name" : "@MAXMIND/PruneCruft",
            "version" : "5.036"
         },
         {
            "class" : "Dist::Zilla::Plugin::ManifestSkip",
            "name" : "@MAXMIND/ManifestSkip",
            "version" : "5.036"
         },
         {
            "class" : "Dist::Zilla::Plugin::MetaYAML",
            "name" : "@MAXMIND/MetaYAML",
            "version" : "5.036"
         },
         {
            "class" : "Dist::Zilla::Plugin::License",
            "name" : "@MAXMIND/License",
            "version" : "5.036"
         },
         {
            "class" : "Dist::Zilla::Plugin::ExtraTests",
            "name" : "@MAXMIND/ExtraTests",
            "version" : "5.036"
         },
         {
            "class" : "Dist::Zilla::Plugin::ExecDir",
            "name" : "@MAXMIND/ExecDir",
            "version" : "5.036"
         },
         {
            "class" : "Dist::Zilla::Plugin::ShareDir",
            "name" : "@MAXMIND/ShareDir",
            "version" : "5.036"
         },
         {
            "class" : "Dist::Zilla::Plugin::Manifest",
            "name" : "@MAXMIND/Manifest",
            "version" : "5.036"
         },
         {
            "class" : "Dist::Zilla::Plugin::CheckVersionIncrement",
            "name" : "@MAXMIND/CheckVersionIncrement",
            "version" : "0.121750"
         },
         {
            "class" : "Dist::Zilla::Plugin::TestRelease",
            "name" : "@MAXMIND/TestRelease",
            "version" : "5.036"
         },
         {
            "class" : "Dist::Zilla::Plugin::ConfirmRelease",
            "name" : "@MAXMIND/ConfirmRelease",
            "version" : "5.036"
         },
         {
            "class" : "Dist::Zilla::Plugin::CheckPrereqsIndexed",
            "name" : "@MAXMIND/CheckPrereqsIndexed",
            "version" : "0.015"
         },
         {
            "class" : "Dist::Zilla::Plugin::CPANFile",
            "name" : "@MAXMIND/CPANFile",
            "version" : "5.036"
         },
         {
            "class" : "Dist::Zilla::Plugin::Git::CheckFor::CorrectBranch",
            "config" : {
               "Dist::Zilla::Role::Git::Repo" : {
                  "repo_root" : "."
               }
            },
            "name" : "@MAXMIND/Git::CheckFor::CorrectBranch",
            "version" : "0.013"
         },
         {
            "class" : "Dist::Zilla::Plugin::Git::CheckFor::MergeConflicts",
            "config" : {
               "Dist::Zilla::Role::Git::Repo" : {
                  "repo_root" : "."
               }
            },
            "name" : "@MAXMIND/Git::CheckFor::MergeConflicts",
            "version" : "0.013"
         },
         {
            "class" : "Dist::Zilla::Plugin::Git::Contributors",
            "config" : {
               "Dist::Zilla::Plugin::Git::Contributors" : {
                  "include_authors" : "0",
                  "include_releaser" : "1",
                  "order_by" : "name",
                  "paths" : []
               }
            },
            "name" : "@MAXMIND/Git::Contributors",
            "version" : "0.011"
         },
         {
            "class" : "Dist::Zilla::Plugin::InstallGuide",
            "name" : "@MAXMIND/InstallGuide",
            "version" : "1.200006"
         },
         {
            "class" : "Dist::Zilla::Plugin::MAXMIND::Contributors",
            "name" : "@MAXMIND/MAXMIND::Contributors",
            "version" : "0.11"
         },
         {
            "class" : "Dist::Zilla::Plugin::MAXMIND::License",
            "name" : "@MAXMIND/MAXMIND::License",
            "version" : "0.11"
         },
         {
            "class" : "Dist::Zilla::Plugin::MAXMIND::TidyAll",
            "name" : "@MAXMIND/MAXMIND::TidyAll",
            "version" : "0.11"
         },
         {
            "class" : "Dist::Zilla::Plugin::Meta::Contributors",
            "name" : "@MAXMIND/Meta::Contributors",
            "version" : "0.002"
         },
         {
            "class" : "Dist::Zilla::Plugin::MetaConfig",
            "name" : "@MAXMIND/MetaConfig",
            "version" : "5.036"
         },
         {
            "class" : "Dist::Zilla::Plugin::MetaJSON",
            "name" : "@MAXMIND/MetaJSON",
            "version" : "5.036"
         },
         {
            "class" : "Dist::Zilla::Plugin::MinimumPerl",
            "name" : "@MAXMIND/MinimumPerl",
            "version" : "1.006"
         },
         {
            "class" : "Dist::Zilla::Plugin::RewriteVersion",
            "name" : "@MAXMIND/RewriteVersion",
            "version" : "0.009"
         },
         {
            "class" : "Dist::Zilla::Plugin::SurgicalPodWeaver",
            "config" : {
               "Dist::Zilla::Plugin::PodWeaver" : {
                  "finder" : [
                     ":InstallModules",
                     ":ExecFiles"
                  ],
                  "plugins" : [
                     {
                        "class" : "Pod::Weaver::Plugin::EnsurePod5",
                        "name" : "@CorePrep/EnsurePod5",
                        "version" : "4.012"
                     },
                     {
                        "class" : "Pod::Weaver::Plugin::H1Nester",
                        "name" : "@CorePrep/H1Nester",
                        "version" : "4.012"
                     },
                     {
                        "class" : "Pod::Weaver::Section::Name",
                        "name" : "Name",
                        "version" : "4.012"
                     },
                     {
                        "class" : "Pod::Weaver::Section::Version",
                        "name" : "Version",
                        "version" : "4.012"
                     },
                     {
                        "class" : "Pod::Weaver::Section::Region",
                        "name" : "prelude",
                        "version" : "4.012"
                     },
                     {
                        "class" : "Pod::Weaver::Section::Generic",
                        "name" : "SYNOPSIS",
                        "version" : "4.012"
                     },
                     {
                        "class" : "Pod::Weaver::Section::Generic",
                        "name" : "DESCRIPTION",
                        "version" : "4.012"
                     },
                     {
                        "class" : "Pod::Weaver::Section::Leftovers",
                        "name" : "Leftovers",
                        "version" : "4.012"
                     },
                     {
                        "class" : "Pod::Weaver::Section::Region",
                        "name" : "postlude",
                        "version" : "4.012"
                     },
                     {
                        "class" : "Pod::Weaver::Section::Authors",
                        "name" : "Authors",
                        "version" : "4.012"
                     },
                     {
                        "class" : "Pod::Weaver::Section::Contributors",
                        "name" : "Contributors",
                        "version" : "0.009"
                     },
                     {
                        "class" : "Pod::Weaver::Section::Legal",
                        "name" : "Legal",
                        "version" : "4.012"
                     }
                  ]
               }
            },
            "name" : "@MAXMIND/SurgicalPodWeaver",
            "version" : "0.0023"
         },
         {
            "class" : "Dist::Zilla::Plugin::PodSyntaxTests",
            "name" : "@MAXMIND/PodSyntaxTests",
            "version" : "5.036"
         },
         {
            "class" : "Dist::Zilla::Plugin::Test::CPAN::Changes",
            "name" : "@MAXMIND/Test::CPAN::Changes",
            "version" : "0.009"
         },
         {
            "class" : "Dist::Zilla::Plugin::Test::EOL",
            "config" : {
               "Dist::Zilla::Plugin::Test::EOL" : {
                  "filename" : "xt/author/eol.t",
                  "finder" : [
                     ":InstallModules",
                     ":ExecFiles",
                     ":TestFiles"
                  ],
                  "trailing_whitespace" : "1"
               }
            },
            "name" : "@MAXMIND/Test::EOL",
            "version" : "0.18"
         },
         {
            "class" : "Dist::Zilla::Plugin::Test::NoTabs",
            "config" : {
               "Dist::Zilla::Plugin::Test::NoTabs" : {
                  "filename" : "xt/author/no-tabs.t",
                  "finder" : [
                     ":InstallModules",
                     ":ExecFiles",
                     ":TestFiles"
                  ]
               }
            },
            "name" : "@MAXMIND/Test::NoTabs",
            "version" : "0.15"
         },
         {
            "class" : "Dist::Zilla::Plugin::Test::Portability",
            "name" : "@MAXMIND/Test::Portability",
            "version" : "2.000006"
         },
         {
            "class" : "Dist::Zilla::Plugin::Test::Synopsis",
            "name" : "@MAXMIND/Test::Synopsis",
            "version" : "2.000006"
         },
         {
            "class" : "Dist::Zilla::Plugin::Test::TidyAll",
            "name" : "@MAXMIND/Test::TidyAll",
            "version" : "0.01"
         },
         {
            "class" : "Dist::Zilla::Plugin::Test::Version",
            "name" : "@MAXMIND/Test::Version",
            "version" : "1.02"
         },
         {
            "class" : "Dist::Zilla::Plugin::Test::Compile",
            "config" : {
               "Dist::Zilla::Plugin::Test::Compile" : {
                  "bail_out_on_fail" : "0",
                  "fail_on_warning" : "author",
                  "fake_home" : "0",
                  "filename" : "xt/author/00-compile.t",
                  "module_finder" : [
                     ":InstallModules"
                  ],
                  "needs_display" : "0",
                  "phase" : "develop",
                  "script_finder" : [
                     ":ExecFiles"
                  ],
                  "skips" : []
               }
            },
            "name" : "@MAXMIND/Test::Compile",
            "version" : "2.052"
         },
         {
            "class" : "Dist::Zilla::Plugin::Git::Check",
            "config" : {
               "Dist::Zilla::Plugin::Git::Check" : {
                  "untracked_files" : "die"
               },
               "Dist::Zilla::Role::Git::DirtyFiles" : {
                  "allow_dirty" : [
                     ".mailmap",
                     "Changes",
                     "cpanfile",
                     "CONTRIBUTING.md",
                     "LICENSE",
                     "Makefile.PL",
                     "README.md"
                  ],
                  "allow_dirty_match" : [],
                  "changelog" : "Changes"
               },
               "Dist::Zilla::Role::Git::Repo" : {
                  "repo_root" : "."
               }
            },
            "name" : "@MAXMIND/Git::Check",
            "version" : "2.034"
         },
         {
            "class" : "Dist::Zilla::Plugin::Git::Commit",
            "config" : {
               "Dist::Zilla::Plugin::Git::Commit" : {
                  "add_files_in" : [],
                  "commit_msg" : "v%v%n%n%c",
                  "time_zone" : "local"
               },
               "Dist::Zilla::Role::Git::DirtyFiles" : {
                  "allow_dirty" : [
                     ".mailmap",
                     "Changes",
                     "cpanfile",
                     "CONTRIBUTING.md",
                     "LICENSE",
                     "Makefile.PL",
                     "README.md"
                  ],
                  "allow_dirty_match" : [],
                  "changelog" : "Changes"
               },
               "Dist::Zilla::Role::Git::Repo" : {
                  "repo_root" : "."
               }
            },
            "name" : "@MAXMIND/commit generated files",
            "version" : "2.034"
         },
         {
            "class" : "Dist::Zilla::Plugin::Git::Tag",
            "config" : {
               "Dist::Zilla::Plugin::Git::Tag" : {
                  "branch" : null,
                  "signed" : 0,
                  "tag" : "v1.000007",
                  "tag_format" : "v%v",
                  "tag_message" : "v%v",
                  "time_zone" : "local"
               },
               "Dist::Zilla::Role::Git::Repo" : {
                  "repo_root" : "."
               }
            },
            "name" : "@MAXMIND/Git::Tag",
            "version" : "2.034"
         },
         {
            "class" : "Dist::Zilla::Plugin::Git::Push",
            "config" : {
               "Dist::Zilla::Plugin::Git::Push" : {
                  "push_to" : [
                     "origin"
                  ],
                  "remotes_must_exist" : 1
               },
               "Dist::Zilla::Role::Git::Repo" : {
                  "repo_root" : "."
               }
            },
            "name" : "@MAXMIND/Git::Push",
            "version" : "2.034"
         },
         {
            "class" : "Dist::Zilla::Plugin::BumpVersionAfterRelease",
            "name" : "@MAXMIND/BumpVersionAfterRelease",
            "version" : "0.009"
         },
         {
            "class" : "Dist::Zilla::Plugin::Git::Commit",
            "config" : {
               "Dist::Zilla::Plugin::Git::Commit" : {
                  "add_files_in" : [],
                  "commit_msg" : "Bump version after release",
                  "time_zone" : "local"
               },
               "Dist::Zilla::Role::Git::DirtyFiles" : {
                  "allow_dirty" : [
                     "dist.ini",
                     "Changes"
                  ],
                  "allow_dirty_match" : [
                     "(?^:.+)"
                  ],
                  "changelog" : "Changes"
               },
               "Dist::Zilla::Role::Git::Repo" : {
                  "repo_root" : "."
               }
            },
            "name" : "@MAXMIND/commit version bump",
            "version" : "2.034"
         },
         {
            "class" : "Dist::Zilla::Plugin::Git::Push",
            "config" : {
               "Dist::Zilla::Plugin::Git::Push" : {
                  "push_to" : [
                     "origin"
                  ],
                  "remotes_must_exist" : 1
               },
               "Dist::Zilla::Role::Git::Repo" : {
                  "repo_root" : "."
               }
            },
            "name" : "@MAXMIND/push version bump",
            "version" : "2.034"
         },
         {
            "class" : "Dist::Zilla::Plugin::OSPrereqs",
            "config" : {
               "Dist::Zilla::Plugin::OSPrereqs" : {
                  "os" : "MSWin32"
               }
            },
            "name" : "MSWin32",
            "version" : "0.005"
         },
         {
            "class" : "Dist::Zilla::Plugin::FinderCode",
            "name" : ":InstallModules",
            "version" : "5.036"
         },
         {
            "class" : "Dist::Zilla::Plugin::FinderCode",
            "name" : ":IncModules",
            "version" : "5.036"
         },
         {
            "class" : "Dist::Zilla::Plugin::FinderCode",
            "name" : ":TestFiles",
            "version" : "5.036"
         },
         {
            "class" : "Dist::Zilla::Plugin::FinderCode",
            "name" : ":ExecFiles",
            "version" : "5.036"
         },
         {
            "class" : "Dist::Zilla::Plugin::FinderCode",
            "name" : ":ShareFiles",
            "version" : "5.036"
         },
         {
            "class" : "Dist::Zilla::Plugin::FinderCode",
            "name" : ":MainModule",
            "version" : "5.036"
         },
         {
            "class" : "Dist::Zilla::Plugin::FinderCode",
            "name" : ":AllFiles",
            "version" : "5.036"
         },
         {
            "class" : "Dist::Zilla::Plugin::FinderCode",
            "name" : ":NoFiles",
            "version" : "5.036"
         },
         {
            "class" : "Dist::Zilla::Plugin::FinderCode",
            "name" : "@MAXMIND/MetaProvides::Package/AUTOVIV/:InstallModulesPM",
            "version" : "5.036"
         }
      ],
      "zilla" : {
         "class" : "Dist::Zilla::Dist::Builder",
         "config" : {
            "is_trial" : "0"
         },
         "version" : "5.036"
      }
   },
   "x_authority" : "cpan:MAXMIND",
   "x_contributors" : [
      "Greg Oschwald <goschwald@maxmind.com>",
      "Mateu X Hunter <hunter@missoula.org>",
      "Ran Eilam <reilam@maxmind.com>",
      "William Stevenson <skyblue@skybluecircles.com>"
   ]
}

