{
   "abstract" : "writes files atomically via rename()",
   "author" : [
      "Jeremy Mates <jmates@cpan.org>"
   ],
   "dynamic_config" : 1,
   "generated_by" : "ExtUtils::MakeMaker version 7.24, CPAN::Meta::Converter version 2.150010",
   "license" : [
      "artistic_2"
   ],
   "meta-spec" : {
      "url" : "http://search.cpan.org/perldoc?CPAN::Meta::Spec",
      "version" : "2"
   },
   "name" : "File-AtomicWrite",
   "no_index" : {
      "directory" : [
         "t",
         "inc"
      ]
   },
   "prereqs" : {
      "build" : {
         "requires" : {
            "ExtUtils::MakeMaker" : "0"
         }
      },
      "configure" : {
         "requires" : {
            "ExtUtils::MakeMaker" : "0"
         }
      },
      "runtime" : {
         "requires" : {
            "Carp" : "0",
            "Digest::SHA1" : "0",
            "File::Path" : "0",
            "File::Spec" : "0",
            "File::Temp" : "0.18",
            "IO::Handle" : "0",
            "Test::More" : "0",
            "perl" : "5"
         }
      }
   },
   "release_status" : "stable",
   "resources" : {
      "homepage" : "https://github.com/thrig/File-AtomicWrite",
      "license" : [
         "http://dev.perl.org/licenses/"
      ],
      "repository" : {
         "url" : "https://github.com/thrig/File-AtomicWrite"
      }
   },
   "version" : "1.18",
   "x_serialization_backend" : "JSON::PP version 2.27300"
}
