{
   "abstract" : "Fast XS drop-in replacement for Config.pm with perfect hashing",
   "author" : [
      "Daniel Dragan <bulkdd@cpan.org>",
      "Reini Urban <rurban@cpanel.net>"
   ],
   "dynamic_config" : 1,
   "generated_by" : "ExtUtils::MakeMaker version 7.1001, CPAN::Meta::Converter version 2.150005",
   "license" : [
      "perl_5"
   ],
   "meta-spec" : {
      "url" : "http://search.cpan.org/perldoc?CPAN::Meta::Spec",
      "version" : "2"
   },
   "name" : "XSConfig",
   "no_index" : {
      "directory" : [
         "t",
         "inc"
      ]
   },
   "prereqs" : {
      "build" : {
         "requires" : {
            "ExtUtils::MakeMaker" : "0"
         }
      },
      "configure" : {
         "requires" : {
            "ExtUtils::MakeMaker" : "0"
         }
      },
      "runtime" : {
         "requires" : {
            "perl" : "5.008007"
         }
      }
   },
   "provides" : {
      "XSConfig" : {
         "file" : "Config.pm",
         "version" : "6.21"
      }
   },
   "release_status" : "stable",
   "resources" : {
      "repository" : {
         "url" : "https://github.com/perl11/p5-Config"
      }
   },
   "version" : "6.21",
   "x_serialization_backend" : "JSON::PP version 2.27300"
}
