{
   "abstract" : "unknown",
   "author" : [
      "Anton Petrusevich"
   ],
   "dynamic_config" : 1,
   "generated_by" : "ExtUtils::MakeMaker version 7.24, CPAN::Meta::Converter version 2.150010",
   "license" : [
      "artistic_2"
   ],
   "meta-spec" : {
      "url" : "http://search.cpan.org/perldoc?CPAN::Meta::Spec",
      "version" : "2"
   },
   "name" : "PEF-Front",
   "no_index" : {
      "directory" : [
         "t",
         "inc"
      ]
   },
   "prereqs" : {
      "build" : {
         "requires" : {
            "ExtUtils::MakeMaker" : "0"
         }
      },
      "configure" : {
         "requires" : {
            "ExtUtils::MakeMaker" : "0"
         }
      },
      "runtime" : {
         "requires" : {
            "Cache::FastMmap" : "0",
            "Carp" : "0",
            "DBIx::Connector" : "0.52",
            "Data::Dumper" : "0",
            "Digest::SHA" : "0",
            "Encode" : "0",
            "Exporter" : "0",
            "Fcntl" : "0",
            "File::Basename" : "0",
            "File::Find" : "0",
            "FindBin" : "0",
            "GD::SecurityImage" : "0",
            "GDBM_File" : "0",
            "Geo::IPfree" : "0",
            "JSON" : "0",
            "LWP::UserAgent" : "0",
            "Locale::PO" : "0",
            "MLDBM" : "0",
            "MLDBM::Sync" : "0.30",
            "POSIX" : "0",
            "Regexp::Common" : "0",
            "Scalar::Util" : "0",
            "Socket" : "0",
            "Storable" : "0",
            "Sub::Name" : "0",
            "Template::Alloy" : "0",
            "Time::Duration::Parse" : "0.06",
            "Time::HiRes" : "0",
            "URI" : "0",
            "URI::Escape" : "0",
            "XML::Simple" : "2",
            "YAML::XS" : "0.38",
            "perl" : "5.014000",
            "strict" : "0",
            "utf8" : "0",
            "warnings" : "0"
         }
      },
      "test" : {
         "requires" : {
            "Test::More" : "0"
         }
      }
   },
   "release_status" : "stable",
   "resources" : {
      "bugtracker" : {
         "web" : "https://github.com/jef-sure/pef-front-psgi-dist/issues"
      },
      "repository" : {
         "type" : "git",
         "url" : "https://github.com/jef-sure/pef-front-psgi-dist.git",
         "web" : "https://github.com/jef-sure/pef-front-psgi-dist"
      }
   },
   "version" : "0.14",
   "x_serialization_backend" : "JSON::PP version 2.27300_01"
}
