{
   "abstract" : "A distributed task runner for Beam::Wire containers",
   "author" : [
      "Doug Bell <preaction@cpan.org>"
   ],
   "dynamic_config" : 0,
   "generated_by" : "Dist::Zilla version 6.008, CPAN::Meta::Converter version 2.150010",
   "license" : [
      "perl_5"
   ],
   "meta-spec" : {
      "url" : "http://search.cpan.org/perldoc?CPAN::Meta::Spec",
      "version" : 2
   },
   "name" : "Beam-Minion",
   "no_index" : {
      "directory" : [
         "eg",
         "examples",
         "inc",
         "share",
         "t",
         "xt"
      ]
   },
   "prereqs" : {
      "configure" : {
         "requires" : {
            "ExtUtils::MakeMaker" : "0"
         }
      },
      "runtime" : {
         "requires" : {
            "Beam::Runner" : "0.006",
            "Beam::Wire" : "1.019",
            "Minion" : "0",
            "Mojolicious" : "7",
            "perl" : "5.010"
         }
      },
      "test" : {
         "recommends" : {
            "CPAN::Meta" : "2.120900"
         },
         "requires" : {
            "ExtUtils::MakeMaker" : "0",
            "File::Spec" : "0",
            "IO::Handle" : "0",
            "IPC::Open3" : "0",
            "Minion::Backend::SQLite" : "0",
            "Mock::MonkeyPatch" : "0",
            "Test::Lib" : "0",
            "Test::More" : "1.001005"
         }
      }
   },
   "provides" : {
      "Beam::Minion" : {
         "file" : "lib/Beam/Minion.pm",
         "version" : "0.002"
      },
      "Beam::Minion::Command::run" : {
         "file" : "lib/Beam/Minion/Command/run.pm",
         "version" : "0.002"
      },
      "Beam::Minion::Command::worker" : {
         "file" : "lib/Beam/Minion/Command/worker.pm",
         "version" : "0.002"
      },
      "Beam::Minion::Util" : {
         "file" : "lib/Beam/Minion/Util.pm",
         "version" : "0.002"
      },
      "Beam::Runner::Command::minion" : {
         "file" : "lib/Beam/Runner/Command/minion.pm",
         "version" : "0.002"
      }
   },
   "release_status" : "stable",
   "resources" : {
      "bugtracker" : {
         "web" : "https://github.com/preaction/Beam-Minion/issues"
      },
      "homepage" : "https://github.com/preaction/Beam-Minion",
      "repository" : {
         "type" : "git",
         "url" : "https://github.com/preaction/Beam-Minion.git",
         "web" : "https://github.com/preaction/Beam-Minion"
      }
   },
   "version" : "0.002",
   "x_authority" : "cpan:PREACTION",
   "x_serialization_backend" : "Cpanel::JSON::XS version 3.0216"
}

