{
   "abstract" : "Perl wrapper to librados.",
   "author" : [
      "Alex <alex@openimp.net>"
   ],
   "dynamic_config" : 1,
   "generated_by" : "ExtUtils::MakeMaker version 6.66, CPAN::Meta::Converter version 2.142690",
   "license" : [
      "unknown"
   ],
   "meta-spec" : {
      "url" : "http://search.cpan.org/perldoc?CPAN::Meta::Spec",
      "version" : "2"
   },
   "name" : "Ceph-Rados",
   "no_index" : {
      "directory" : [
         "t",
         "inc"
      ]
   },
   "prereqs" : {
      "build" : {
         "requires" : {
            "Data::Dump" : "0",
            "ExtUtils::MakeMaker" : "0",
            "Test::Exception" : "0",
            "Test::More" : "0"
         }
      },
      "configure" : {
         "requires" : {
            "Devel::CheckLib" : "0",
            "ExtUtils::MakeMaker" : "0"
         }
      },
      "runtime" : {
         "requires" : {}
      }
   },
   "release_status" : "stable",
   "version" : "0.06"
}
