{
   "abstract" : "A way to compose complicated probability functions",
   "author" : [
      "Paul Bennett <paul.w.bennett@gmail.com>"
   ],
   "dynamic_config" : 1,
   "generated_by" : "ExtUtils::MakeMaker version 6.98, CPAN::Meta::Converter version 2.141520",
   "license" : [
      "perl_5"
   ],
   "meta-spec" : {
      "url" : "http://search.cpan.org/perldoc?CPAN::Meta::Spec",
      "version" : "2"
   },
   "name" : "Statistics-Distribution-Generator",
   "no_index" : {
      "directory" : [
         "t",
         "inc"
      ]
   },
   "prereqs" : {
      "build" : {
         "requires" : {
            "ExtUtils::MakeMaker" : "0",
            "Statistics::Descriptive" : "0",
            "Test::More" : "0"
         }
      },
      "configure" : {
         "requires" : {
            "ExtUtils::MakeMaker" : "0"
         }
      },
      "runtime" : {
         "requires" : {
            "Exporter" : "0",
            "List::AllUtils" : "0",
            "overload" : "0",
            "perl" : "5.018000",
            "utf8" : "0"
         }
      }
   },
   "release_status" : "stable",
   "version" : "0.013"
}
