{
   "abstract" : "use C<Tangence> with C<IO::Async>",
   "author" : [
      "Paul Evans <leonerd@leonerd.org.uk>"
   ],
   "dynamic_config" : 1,
   "generated_by" : "Module::Build version 0.4218",
   "license" : [
      "perl_5"
   ],
   "meta-spec" : {
      "url" : "http://search.cpan.org/perldoc?CPAN::Meta::Spec",
      "version" : "2"
   },
   "name" : "Net-Async-Tangence",
   "prereqs" : {
      "build" : {
         "requires" : {
            "Test::Fatal" : "0.006",
            "Test::HexString" : "0",
            "Test::Identity" : "0",
            "Test::Memory::Cycle" : "0",
            "Test::More" : "0.88",
            "Test::Refcount" : "0"
         }
      },
      "runtime" : {
         "requires" : {
            "Encode" : "0",
            "Exporter" : "5.57",
            "Future" : "0",
            "IO::Async::Listener" : "0.36",
            "IO::Async::Loop" : "0.16",
            "IO::Async::Stream" : "0",
            "IO::Async::Test" : "0",
            "Tangence::Client" : "0.21",
            "Tangence::Server" : "0.19",
            "URI::Split" : "0"
         }
      }
   },
   "provides" : {
      "Net::Async::Tangence" : {
         "file" : "lib/Net/Async/Tangence.pm",
         "version" : "0.14"
      },
      "Net::Async::Tangence::Client" : {
         "file" : "lib/Net/Async/Tangence/Client.pm",
         "version" : "0.14"
      },
      "Net::Async::Tangence::Protocol" : {
         "file" : "lib/Net/Async/Tangence/Protocol.pm",
         "version" : "0.14"
      },
      "Net::Async::Tangence::Server" : {
         "file" : "lib/Net/Async/Tangence/Server.pm",
         "version" : "0.14"
      },
      "Net::Async::Tangence::ServerProtocol" : {
         "file" : "lib/Net/Async/Tangence/ServerProtocol.pm",
         "version" : "0.14"
      }
   },
   "release_status" : "stable",
   "resources" : {
      "license" : [
         "http://dev.perl.org/licenses/"
      ]
   },
   "version" : "0.14",
   "x_serialization_backend" : "JSON::PP version 2.27400"
}
