{
   "abstract" : "Class library in Perl",
   "author" : [
      "Frank Seitz <fs@fseitz.de>"
   ],
   "dynamic_config" : 1,
   "generated_by" : "ExtUtils::MakeMaker version 7.0401, CPAN::Meta::Converter version 2.150005",
   "license" : [
      "perl_5"
   ],
   "meta-spec" : {
      "url" : "http://search.cpan.org/perldoc?CPAN::Meta::Spec",
      "version" : "2"
   },
   "name" : "Prty",
   "no_index" : {
      "directory" : [
         "t",
         "inc"
      ]
   },
   "prereqs" : {
      "build" : {
         "requires" : {
            "ExtUtils::MakeMaker" : "0"
         }
      },
      "configure" : {
         "requires" : {
            "ExtUtils::MakeMaker" : "0"
         }
      },
      "runtime" : {
         "requires" : {}
      }
   },
   "release_status" : "stable",
   "resources" : {
      "repository" : {
         "type" : "git",
         "url" : "https://github.com/s31tz/Prty.git",
         "web" : "https://github.com/s31tz/Prty"
      }
   },
   "version" : 1.098,
   "x_serialization_backend" : "JSON::PP version 2.27300"
}
