{
   "abstract" : "Locale::CLDR - Data Package ( Perl localization data for Malayalam )",
   "author" : [
      "John Imrie <john.imrie1@gmail.com>"
   ],
   "dynamic_config" : 1,
   "generated_by" : "Module::Build version 0.4205",
   "keywords" : [
      "locale",
      "CLDR",
      "locale-data-pack"
   ],
   "license" : [
      "perl_5"
   ],
   "meta-spec" : {
      "url" : "http://search.cpan.org/perldoc?CPAN::Meta::Spec",
      "version" : "2"
   },
   "name" : "Locale-CLDR-Locales-Ml",
   "prereqs" : {
      "build" : {
         "requires" : {
            "Test::Exception" : "0",
            "Test::More" : "0.98",
            "ok" : "0"
         }
      },
      "configure" : {
         "requires" : {
            "Module::Build" : "0.40"
         }
      },
      "runtime" : {
         "requires" : {
            "DateTime" : "0.72",
            "Locale::CLDR" : "v0.29.0",
            "Moo" : "2",
            "MooX::ClassAttribute" : "0.011",
            "Type::Tiny" : "0",
            "perl" : "v5.10.1",
            "version" : "0.95"
         }
      }
   },
   "provides" : {
      "Locale::CLDR::Locales::Ml" : {
         "file" : "lib/Locale/CLDR/Locales/Ml.pm",
         "version" : "v0.29.0"
      },
      "Locale::CLDR::Locales::Ml::Any" : {
         "file" : "lib/Locale/CLDR/Locales/Ml/Any.pm",
         "version" : "v0.29.0"
      },
      "Locale::CLDR::Locales::Ml::Any::In" : {
         "file" : "lib/Locale/CLDR/Locales/Ml/Any/In.pm",
         "version" : "v0.29.0"
      }
   },
   "release_status" : "stable",
   "resources" : {
      "bugtracker" : {
         "web" : "https://github.com/ThePilgrim/perlcldr/issues"
      },
      "homepage" : "https://github.com/ThePilgrim/perlcldr",
      "repository" : {
         "url" : "https://github.com/ThePilgrim/perlcldr.git"
      }
   },
   "version" : "v0.29.0"
}
