{
   "abstract" : "Perl 5 API wrapper for Basecamp",
   "author" : [
      "Al Newkirk <anewkirk@ana.io>"
   ],
   "dynamic_config" : 0,
   "generated_by" : "Dist::Zilla version 5.036, CPAN::Meta::Converter version 2.150001",
   "license" : [
      "perl_5"
   ],
   "meta-spec" : {
      "url" : "http://search.cpan.org/perldoc?CPAN::Meta::Spec",
      "version" : 2
   },
   "name" : "API-Trello",
   "prereqs" : {
      "configure" : {
         "requires" : {
            "ExtUtils::MakeMaker" : "0"
         }
      },
      "runtime" : {
         "requires" : {
            "Data::Object" : "0.17",
            "Extorter" : "0.10",
            "Function::Parameters" : "1.0603",
            "Mojolicious" : "6.08",
            "Type::Tiny" : "1.000005",
            "perl" : "v5.14.2"
         }
      },
      "test" : {
         "requires" : {
            "perl" : "v5.14.2"
         }
      }
   },
   "release_status" : "stable",
   "resources" : {
      "bugtracker" : {
         "web" : "https://github.com/alnewkirk/API-Trello/issues"
      },
      "repository" : {
         "type" : "git",
         "url" : "git://github.com/alnewkirk/API-Trello.git",
         "web" : "https://github.com/alnewkirk/API-Trello"
      }
   },
   "version" : "0.02",
   "x_authority" : "cpan:AWNCORP"
}

