{
   "abstract" : "Compiler for Text::Amuse",
   "author" : [
      "Marco Pessotto <melmothx@gmail.com>"
   ],
   "dynamic_config" : 1,
   "generated_by" : "ExtUtils::MakeMaker version 6.98, CPAN::Meta::Converter version 2.142690",
   "license" : [
      "perl_5"
   ],
   "meta-spec" : {
      "url" : "http://search.cpan.org/perldoc?CPAN::Meta::Spec",
      "version" : "2"
   },
   "name" : "Text-Amuse-Compile",
   "no_index" : {
      "directory" : [
         "t",
         "inc"
      ]
   },
   "prereqs" : {
      "build" : {
         "requires" : {
            "File::Temp" : "0",
            "PDF::API2" : "0",
            "Test::More" : "0"
         }
      },
      "configure" : {
         "requires" : {
            "ExtUtils::MakeMaker" : "0"
         }
      },
      "runtime" : {
         "requires" : {
            "Archive::Zip" : "0",
            "EBook::EPUB::Lite" : "0.71",
            "IO::Pipe" : "0",
            "JSON::MaybeXS" : "0",
            "Moo" : "1",
            "PDF::Imposition" : "0.23",
            "Template::Tiny" : "1.12",
            "Text::Amuse" : "0.76",
            "Type::Tiny" : "1"
         }
      }
   },
   "release_status" : "stable",
   "resources" : {
      "homepage" : "http://amusewiki.org",
      "repository" : {
         "url" : "https://github.com/melmothx/text-amuse-compile"
      },
      "x_IRC" : "irc://chat.freenode.net/#amusewiki",
      "x_WebIRC" : "https://webchat.freenode.net/?channels=#amusewiki"
   },
   "version" : "0.87"
}
