{
   "abstract" : "Creates a catalyst app, a TT view, a model and a HTML5 wrapper template from initalizr.com.",
   "author" : [
      "TorbjÃ¸rn Lindahl <torbjorn.lindahl@gmail.com>"
   ],
   "dynamic_config" : 1,
   "generated_by" : "Module::Build version 0.4204",
   "license" : [
      "artistic_1"
   ],
   "meta-spec" : {
      "url" : "http://search.cpan.org/perldoc?CPAN::Meta::Spec",
      "version" : "2"
   },
   "name" : "App-CatalystStarter-Bloated",
   "prereqs" : {
      "configure" : {
         "requires" : {
            "Module::Build" : "0.42"
         }
      },
      "runtime" : {
         "requires" : {
            "Archive::Zip" : "1.30",
            "Capture::Tiny" : "0.23",
            "Catalyst::Runtime" : "5.90053",
            "Catalyst::View::JSON" : "0.30",
            "Catalyst::View::TT" : "0.41",
            "DBI" : "1.63",
            "File::ShareDir" : "1.03",
            "File::Slurp" : "9999.19",
            "File::Which" : "1.09",
            "HTML::TreeBuilder" : "5.03",
            "IO::Prompter" : "0.004010",
            "List::MoreUtils" : "0.33",
            "Log::Log4perl" : "1.42",
            "Moose" : "2.1005",
            "Path::Tiny" : "0.051",
            "Sys::SigAction" : "0.21",
            "Test::FailWarnings" : "0.008",
            "Test::File::ShareDir" : "v0.3.1",
            "Test::Most" : "0.31",
            "Test::Output" : "1.02",
            "Test::Perl::Critic" : "1.02",
            "Test::Pod" : "1.48",
            "Test::Pod::Coverage" : "1.08",
            "namespace::autoclean" : "0.13",
            "utf8::all" : "0.011"
         }
      }
   },
   "provides" : {
      "App::CatalystStarter::Bloated" : {
         "file" : "lib/App/CatalystStarter/Bloated.pm",
         "version" : "v0.9.1"
      },
      "App::CatalystStarter::Bloated::Initializr" : {
         "file" : "lib/App/CatalystStarter/Bloated/Initializr.pm",
         "version" : "v0.9.1"
      }
   },
   "release_status" : "stable",
   "resources" : {
      "license" : [
         "http://www.perlfoundation.org/artistic_license_1_0"
      ]
   },
   "version" : "v0.9.1"
}
