{
   "abstract" : "LCFG build system tools",
   "author" : [
      "Stephen Quinney <squinney@inf.ed.ac.uk>"
   ],
   "dynamic_config" : 1,
   "generated_by" : "Module::Build version 0.4005, CPAN::Meta::Converter version 2.120921",
   "license" : [
      "open_source"
   ],
   "meta-spec" : {
      "url" : "http://search.cpan.org/perldoc?CPAN::Meta::Spec",
      "version" : "2"
   },
   "name" : "LCFG-Build-Tools",
   "prereqs" : {
      "build" : {
         "requires" : {
            "Test::Differences" : "0",
            "Test::Exception" : "0",
            "Test::More" : "0"
         }
      },
      "configure" : {
         "requires" : {
            "Module::Build" : "0.38"
         }
      },
      "runtime" : {
         "requires" : {
            "Archive::Tar" : "0",
            "DateTime" : "0",
            "File::Find::Rule" : "0",
            "File::HomeDir" : "0.58",
            "IO::Zlib" : "0",
            "LCFG::Build::PkgSpec" : "0.001000",
            "LCFG::Build::VCS" : "0.000019",
            "Module::Pluggable" : "3.10",
            "Moose" : "0.57",
            "MooseX::App::Cmd" : "0.06",
            "Readonly" : "0",
            "Template" : "2.14",
            "UNIVERSAL::require" : "0",
            "YAML::Syck" : "0.98",
            "perl" : "v5.6.1"
         }
      }
   },
   "provides" : {
      "LCFG::Build::Tool" : {
         "file" : "lib/LCFG/Build/Tool.pm",
         "version" : "v0.6.6"
      },
      "LCFG::Build::Tool::CheckMacros" : {
         "file" : "lib/LCFG/Build/Tool/CheckMacros.pm",
         "version" : "v0.6.6"
      },
      "LCFG::Build::Tool::DevOSXPkg" : {
         "file" : "lib/LCFG/Build/Tool/DevOSXPkg.pm",
         "version" : "v0.6.6"
      },
      "LCFG::Build::Tool::DevPack" : {
         "file" : "lib/LCFG/Build/Tool/DevPack.pm",
         "version" : "v0.6.6"
      },
      "LCFG::Build::Tool::DevRPM" : {
         "file" : "lib/LCFG/Build/Tool/DevRPM.pm",
         "version" : "v0.6.6"
      },
      "LCFG::Build::Tool::MajorVersion" : {
         "file" : "lib/LCFG/Build/Tool/MajorVersion.pm",
         "version" : "v0.6.6"
      },
      "LCFG::Build::Tool::MicroVersion" : {
         "file" : "lib/LCFG/Build/Tool/MicroVersion.pm",
         "version" : "v0.6.6"
      },
      "LCFG::Build::Tool::MinorVersion" : {
         "file" : "lib/LCFG/Build/Tool/MinorVersion.pm",
         "version" : "v0.6.6"
      },
      "LCFG::Build::Tool::OSXPkg" : {
         "file" : "lib/LCFG/Build/Tool/OSXPkg.pm",
         "version" : "v0.6.6"
      },
      "LCFG::Build::Tool::Pack" : {
         "file" : "lib/LCFG/Build/Tool/Pack.pm",
         "version" : "v0.6.6"
      },
      "LCFG::Build::Tool::RPM" : {
         "file" : "lib/LCFG/Build/Tool/RPM.pm",
         "version" : "v0.6.6"
      },
      "LCFG::Build::Tool::SRPM" : {
         "file" : "lib/LCFG/Build/Tool/SRPM.pm",
         "version" : "v0.6.6"
      },
      "LCFG::Build::Tools" : {
         "file" : "lib/LCFG/Build/Tools.pm",
         "version" : "v0.6.6"
      },
      "LCFG::Build::Utils" : {
         "file" : "lib/LCFG/Build/Utils.pm",
         "version" : "v0.6.6"
      },
      "LCFG::Build::Utils::OSXPkg" : {
         "file" : "lib/LCFG/Build/Utils/OSXPkg.pm",
         "version" : "v0.6.6"
      },
      "LCFG::Build::Utils::RPM" : {
         "file" : "lib/LCFG/Build/Utils/RPM.pm",
         "version" : "v0.6.6"
      }
   },
   "release_status" : "stable",
   "resources" : {
      "license" : [
         "http://opensource.org/licenses/gpl-license.php"
      ]
   },
   "version" : "v0.6.6"
}
