{
   "abstract" : "search torrents on CLI",
   "author" : [
      "Zdenek Bohunek <zed448@icloud.com>"
   ],
   "dynamic_config" : 1,
   "generated_by" : "ExtUtils::MakeMaker version 7.0401, CPAN::Meta::Converter version 2.150001",
   "license" : [
      "unknown"
   ],
   "meta-spec" : {
      "url" : "http://search.cpan.org/perldoc?CPAN::Meta::Spec",
      "version" : "2"
   },
   "name" : "App-Trrr",
   "no_index" : {
      "directory" : [
         "t",
         "inc"
      ]
   },
   "prereqs" : {
      "build" : {
         "requires" : {
            "ExtUtils::MakeMaker" : "0"
         }
      },
      "configure" : {
         "requires" : {
            "ExtUtils::MakeMaker" : "0"
         }
      },
      "runtime" : {
         "requires" : {
            "Encode" : "0",
            "HTTP::Tiny" : "0",
            "POSIX" : "0",
            "Term::ANSIColor" : "0",
            "URI::Encode" : "0"
         }
      }
   },
   "release_status" : "stable",
   "version" : "0.08"
}
