{
   "bookmark" : "devel",
   "branch" : "default",
   "date" : "2016-07-04T16:45:21Z",
   "desc" : "Added tag latest, v0.6.0 for changeset 9c959170ddfa",
   "node" : "b7ab1837690a",
   "release" : "v0.6.0",
   "release_distance" : 0,
   "release_id" : "v0.6.0",
   "tags" : [
      "tip"
   ]
}
