{
   "abstract" : "Interface to the GNU Scientific Library using SWIG",
   "author" : [
      "Jonathan Leto <jonathan@leto.net>"
   ],
   "dynamic_config" : 1,
   "generated_by" : "Module::Build version 0.4003, CPAN::Meta::Converter version 2.133380",
   "license" : [
      "open_source"
   ],
   "meta-spec" : {
      "url" : "http://search.cpan.org/perldoc?CPAN::Meta::Spec",
      "version" : "2"
   },
   "name" : "Math-GSL",
   "prereqs" : {
      "build" : {
         "requires" : {
            "Test::Class" : "0.12",
            "Test::Exception" : "0.21",
            "Test::Most" : "0.31",
            "Test::Taint" : "1.06"
         }
      },
      "configure" : {
         "requires" : {
            "Module::Build" : "0.38",
            "PkgConfig" : "0.07720"
         }
      },
      "runtime" : {
         "requires" : {
            "Scalar::Util" : "0",
            "parent" : "0",
            "perl" : "v5.8.0",
            "version" : "0.77"
         }
      }
   },
   "provides" : {
      "Math::GSL" : {
         "file" : "lib/Math/GSL.pm",
         "version" : "0.36"
      },
      "Math::GSL::BLAS" : {
         "file" : "lib/Math/GSL/BLAS.pm",
         "version" : "0"
      },
      "Math::GSL::BLASc" : {
         "file" : "lib/Math/GSL/BLAS.pm",
         "version" : "0"
      },
      "Math::GSL::BSpline" : {
         "file" : "lib/Math/GSL/BSpline.pm",
         "version" : "0"
      },
      "Math::GSL::BSpline::gsl_bspline_deriv_workspace" : {
         "file" : "lib/Math/GSL/BSpline.pm",
         "version" : "0"
      },
      "Math::GSL::BSpline::gsl_bspline_workspace" : {
         "file" : "lib/Math/GSL/BSpline.pm",
         "version" : "0"
      },
      "Math::GSL::BSplinec" : {
         "file" : "lib/Math/GSL/BSpline.pm",
         "version" : "0"
      },
      "Math::GSL::CBLAS" : {
         "file" : "lib/Math/GSL/CBLAS.pm",
         "version" : "0"
      },
      "Math::GSL::CBLASc" : {
         "file" : "lib/Math/GSL/CBLAS.pm",
         "version" : "0"
      },
      "Math::GSL::CDF" : {
         "file" : "lib/Math/GSL/CDF.pm",
         "version" : "0"
      },
      "Math::GSL::CDFc" : {
         "file" : "lib/Math/GSL/CDF.pm",
         "version" : "0"
      },
      "Math::GSL::Chebyshev" : {
         "file" : "lib/Math/GSL/Chebyshev.pm",
         "version" : "0"
      },
      "Math::GSL::Chebyshev::gsl_cheb_series_struct" : {
         "file" : "lib/Math/GSL/Chebyshev.pm",
         "version" : "0"
      },
      "Math::GSL::Chebyshev::gsl_function_fdf_struct" : {
         "file" : "lib/Math/GSL/Chebyshev.pm",
         "version" : "0"
      },
      "Math::GSL::Chebyshev::gsl_function_struct" : {
         "file" : "lib/Math/GSL/Chebyshev.pm",
         "version" : "0"
      },
      "Math::GSL::Chebyshev::gsl_function_vec_struct" : {
         "file" : "lib/Math/GSL/Chebyshev.pm",
         "version" : "0"
      },
      "Math::GSL::Chebyshevc" : {
         "file" : "lib/Math/GSL/Chebyshev.pm",
         "version" : "0"
      },
      "Math::GSL::Combination" : {
         "file" : "lib/Math/GSL/Combination.pm",
         "version" : "0"
      },
      "Math::GSL::Combination::gsl_combination_struct" : {
         "file" : "lib/Math/GSL/Combination.pm",
         "version" : "0"
      },
      "Math::GSL::Combinationc" : {
         "file" : "lib/Math/GSL/Combination.pm",
         "version" : "0"
      },
      "Math::GSL::Complex" : {
         "file" : "lib/Math/GSL/Complex.pm",
         "version" : "0"
      },
      "Math::GSL::Complex::gsl_complex" : {
         "file" : "lib/Math/GSL/Complex.pm",
         "version" : "0"
      },
      "Math::GSL::Complex::gsl_complex_float" : {
         "file" : "lib/Math/GSL/Complex.pm",
         "version" : "0"
      },
      "Math::GSL::Complex::gsl_complex_long_double" : {
         "file" : "lib/Math/GSL/Complex.pm",
         "version" : "0"
      },
      "Math::GSL::Complexc" : {
         "file" : "lib/Math/GSL/Complex.pm",
         "version" : "0"
      },
      "Math::GSL::Const" : {
         "file" : "lib/Math/GSL/Const.pm",
         "version" : "0"
      },
      "Math::GSL::Const::gsl_function_fdf_struct" : {
         "file" : "lib/Math/GSL/Const.pm",
         "version" : "0"
      },
      "Math::GSL::Const::gsl_function_struct" : {
         "file" : "lib/Math/GSL/Const.pm",
         "version" : "0"
      },
      "Math::GSL::Const::gsl_function_vec_struct" : {
         "file" : "lib/Math/GSL/Const.pm",
         "version" : "0"
      },
      "Math::GSL::Constc" : {
         "file" : "lib/Math/GSL/Const.pm",
         "version" : "0"
      },
      "Math::GSL::DHT" : {
         "file" : "lib/Math/GSL/DHT.pm",
         "version" : "0"
      },
      "Math::GSL::DHT::gsl_dht_struct" : {
         "file" : "lib/Math/GSL/DHT.pm",
         "version" : "0"
      },
      "Math::GSL::DHTc" : {
         "file" : "lib/Math/GSL/DHT.pm",
         "version" : "0"
      },
      "Math::GSL::Deriv" : {
         "file" : "lib/Math/GSL/Deriv.pm",
         "version" : "0"
      },
      "Math::GSL::Deriv::gsl_function_fdf_struct" : {
         "file" : "lib/Math/GSL/Deriv.pm",
         "version" : "0"
      },
      "Math::GSL::Deriv::gsl_function_struct" : {
         "file" : "lib/Math/GSL/Deriv.pm",
         "version" : "0"
      },
      "Math::GSL::Deriv::gsl_function_vec_struct" : {
         "file" : "lib/Math/GSL/Deriv.pm",
         "version" : "0"
      },
      "Math::GSL::Derivc" : {
         "file" : "lib/Math/GSL/Deriv.pm",
         "version" : "0"
      },
      "Math::GSL::Diff" : {
         "file" : "lib/Math/GSL/Diff.pm",
         "version" : "0"
      },
      "Math::GSL::Diffc" : {
         "file" : "lib/Math/GSL/Diff.pm",
         "version" : "0"
      },
      "Math::GSL::Eigen" : {
         "file" : "lib/Math/GSL/Eigen.pm",
         "version" : "0"
      },
      "Math::GSL::Eigen::gsl_complex" : {
         "file" : "lib/Math/GSL/Eigen.pm",
         "version" : "0"
      },
      "Math::GSL::Eigen::gsl_complex_float" : {
         "file" : "lib/Math/GSL/Eigen.pm",
         "version" : "0"
      },
      "Math::GSL::Eigen::gsl_complex_long_double" : {
         "file" : "lib/Math/GSL/Eigen.pm",
         "version" : "0"
      },
      "Math::GSL::Eigen::gsl_eigen_francis_workspace" : {
         "file" : "lib/Math/GSL/Eigen.pm",
         "version" : "0"
      },
      "Math::GSL::Eigen::gsl_eigen_gen_workspace" : {
         "file" : "lib/Math/GSL/Eigen.pm",
         "version" : "0"
      },
      "Math::GSL::Eigen::gsl_eigen_genherm_workspace" : {
         "file" : "lib/Math/GSL/Eigen.pm",
         "version" : "0"
      },
      "Math::GSL::Eigen::gsl_eigen_genhermv_workspace" : {
         "file" : "lib/Math/GSL/Eigen.pm",
         "version" : "0"
      },
      "Math::GSL::Eigen::gsl_eigen_gensymm_workspace" : {
         "file" : "lib/Math/GSL/Eigen.pm",
         "version" : "0"
      },
      "Math::GSL::Eigen::gsl_eigen_gensymmv_workspace" : {
         "file" : "lib/Math/GSL/Eigen.pm",
         "version" : "0"
      },
      "Math::GSL::Eigen::gsl_eigen_genv_workspace" : {
         "file" : "lib/Math/GSL/Eigen.pm",
         "version" : "0"
      },
      "Math::GSL::Eigen::gsl_eigen_herm_workspace" : {
         "file" : "lib/Math/GSL/Eigen.pm",
         "version" : "0"
      },
      "Math::GSL::Eigen::gsl_eigen_hermv_workspace" : {
         "file" : "lib/Math/GSL/Eigen.pm",
         "version" : "0"
      },
      "Math::GSL::Eigen::gsl_eigen_nonsymm_workspace" : {
         "file" : "lib/Math/GSL/Eigen.pm",
         "version" : "0"
      },
      "Math::GSL::Eigen::gsl_eigen_nonsymmv_workspace" : {
         "file" : "lib/Math/GSL/Eigen.pm",
         "version" : "0"
      },
      "Math::GSL::Eigen::gsl_eigen_symm_workspace" : {
         "file" : "lib/Math/GSL/Eigen.pm",
         "version" : "0"
      },
      "Math::GSL::Eigen::gsl_eigen_symmv_workspace" : {
         "file" : "lib/Math/GSL/Eigen.pm",
         "version" : "0"
      },
      "Math::GSL::Eigenc" : {
         "file" : "lib/Math/GSL/Eigen.pm",
         "version" : "0"
      },
      "Math::GSL::Errno" : {
         "file" : "lib/Math/GSL/Errno.pm",
         "version" : "0"
      },
      "Math::GSL::Errnoc" : {
         "file" : "lib/Math/GSL/Errno.pm",
         "version" : "0"
      },
      "Math::GSL::FFT" : {
         "file" : "lib/Math/GSL/FFT.pm",
         "version" : "0"
      },
      "Math::GSL::FFT::gsl_complex" : {
         "file" : "lib/Math/GSL/FFT.pm",
         "version" : "0"
      },
      "Math::GSL::FFT::gsl_complex_float" : {
         "file" : "lib/Math/GSL/FFT.pm",
         "version" : "0"
      },
      "Math::GSL::FFT::gsl_complex_long_double" : {
         "file" : "lib/Math/GSL/FFT.pm",
         "version" : "0"
      },
      "Math::GSL::FFT::gsl_fft_complex_wavetable" : {
         "file" : "lib/Math/GSL/FFT.pm",
         "version" : "0"
      },
      "Math::GSL::FFT::gsl_fft_complex_workspace" : {
         "file" : "lib/Math/GSL/FFT.pm",
         "version" : "0"
      },
      "Math::GSL::FFT::gsl_fft_halfcomplex_wavetable" : {
         "file" : "lib/Math/GSL/FFT.pm",
         "version" : "0"
      },
      "Math::GSL::FFT::gsl_fft_real_wavetable" : {
         "file" : "lib/Math/GSL/FFT.pm",
         "version" : "0"
      },
      "Math::GSL::FFT::gsl_fft_real_workspace" : {
         "file" : "lib/Math/GSL/FFT.pm",
         "version" : "0"
      },
      "Math::GSL::FFT::gsl_function_fdf_struct" : {
         "file" : "lib/Math/GSL/FFT.pm",
         "version" : "0"
      },
      "Math::GSL::FFT::gsl_function_struct" : {
         "file" : "lib/Math/GSL/FFT.pm",
         "version" : "0"
      },
      "Math::GSL::FFT::gsl_function_vec_struct" : {
         "file" : "lib/Math/GSL/FFT.pm",
         "version" : "0"
      },
      "Math::GSL::FFTc" : {
         "file" : "lib/Math/GSL/FFT.pm",
         "version" : "0"
      },
      "Math::GSL::Fit" : {
         "file" : "lib/Math/GSL/Fit.pm",
         "version" : "0"
      },
      "Math::GSL::Fitc" : {
         "file" : "lib/Math/GSL/Fit.pm",
         "version" : "0"
      },
      "Math::GSL::Heapsort" : {
         "file" : "lib/Math/GSL/Heapsort.pm",
         "version" : "0"
      },
      "Math::GSL::Heapsort::gsl_permutation_struct" : {
         "file" : "lib/Math/GSL/Heapsort.pm",
         "version" : "0"
      },
      "Math::GSL::Heapsortc" : {
         "file" : "lib/Math/GSL/Heapsort.pm",
         "version" : "0"
      },
      "Math::GSL::Histogram" : {
         "file" : "lib/Math/GSL/Histogram.pm",
         "version" : "0"
      },
      "Math::GSL::Histogram2D" : {
         "file" : "lib/Math/GSL/Histogram2D.pm",
         "version" : "0"
      },
      "Math::GSL::Histogram2D::gsl_histogram2d" : {
         "file" : "lib/Math/GSL/Histogram2D.pm",
         "version" : "0"
      },
      "Math::GSL::Histogram2D::gsl_histogram2d_pdf" : {
         "file" : "lib/Math/GSL/Histogram2D.pm",
         "version" : "0"
      },
      "Math::GSL::Histogram2Dc" : {
         "file" : "lib/Math/GSL/Histogram2D.pm",
         "version" : "0"
      },
      "Math::GSL::Histogram::gsl_histogram" : {
         "file" : "lib/Math/GSL/Histogram.pm",
         "version" : "0"
      },
      "Math::GSL::Histogram::gsl_histogram_pdf" : {
         "file" : "lib/Math/GSL/Histogram.pm",
         "version" : "0"
      },
      "Math::GSL::Histogramc" : {
         "file" : "lib/Math/GSL/Histogram.pm",
         "version" : "0"
      },
      "Math::GSL::IEEEUtils" : {
         "file" : "lib/Math/GSL/IEEEUtils.pm",
         "version" : "0"
      },
      "Math::GSL::IEEEUtils::gsl_ieee_double_rep" : {
         "file" : "lib/Math/GSL/IEEEUtils.pm",
         "version" : "0"
      },
      "Math::GSL::IEEEUtils::gsl_ieee_float_rep" : {
         "file" : "lib/Math/GSL/IEEEUtils.pm",
         "version" : "0"
      },
      "Math::GSL::IEEEUtilsc" : {
         "file" : "lib/Math/GSL/IEEEUtils.pm",
         "version" : "0"
      },
      "Math::GSL::Integration" : {
         "file" : "lib/Math/GSL/Integration.pm",
         "version" : "0"
      },
      "Math::GSL::Integration::gsl_function_fdf_struct" : {
         "file" : "lib/Math/GSL/Integration.pm",
         "version" : "0"
      },
      "Math::GSL::Integration::gsl_function_struct" : {
         "file" : "lib/Math/GSL/Integration.pm",
         "version" : "0"
      },
      "Math::GSL::Integration::gsl_function_vec_struct" : {
         "file" : "lib/Math/GSL/Integration.pm",
         "version" : "0"
      },
      "Math::GSL::Integration::gsl_integration_cquad_ival" : {
         "file" : "lib/Math/GSL/Integration.pm",
         "version" : "0"
      },
      "Math::GSL::Integration::gsl_integration_cquad_workspace" : {
         "file" : "lib/Math/GSL/Integration.pm",
         "version" : "0"
      },
      "Math::GSL::Integration::gsl_integration_glfixed_table" : {
         "file" : "lib/Math/GSL/Integration.pm",
         "version" : "0"
      },
      "Math::GSL::Integration::gsl_integration_qawo_table" : {
         "file" : "lib/Math/GSL/Integration.pm",
         "version" : "0"
      },
      "Math::GSL::Integration::gsl_integration_qaws_table" : {
         "file" : "lib/Math/GSL/Integration.pm",
         "version" : "0"
      },
      "Math::GSL::Integration::gsl_integration_workspace" : {
         "file" : "lib/Math/GSL/Integration.pm",
         "version" : "0"
      },
      "Math::GSL::Integrationc" : {
         "file" : "lib/Math/GSL/Integration.pm",
         "version" : "0"
      },
      "Math::GSL::Interp" : {
         "file" : "lib/Math/GSL/Interp.pm",
         "version" : "0"
      },
      "Math::GSL::Interp::gsl_interp" : {
         "file" : "lib/Math/GSL/Interp.pm",
         "version" : "0"
      },
      "Math::GSL::Interp::gsl_interp_accel" : {
         "file" : "lib/Math/GSL/Interp.pm",
         "version" : "0"
      },
      "Math::GSL::Interpc" : {
         "file" : "lib/Math/GSL/Interp.pm",
         "version" : "0"
      },
      "Math::GSL::Linalg" : {
         "file" : "lib/Math/GSL/Linalg.pm",
         "version" : "0"
      },
      "Math::GSL::Linalg::gsl_complex" : {
         "file" : "lib/Math/GSL/Linalg.pm",
         "version" : "0"
      },
      "Math::GSL::Linalg::gsl_complex_float" : {
         "file" : "lib/Math/GSL/Linalg.pm",
         "version" : "0"
      },
      "Math::GSL::Linalg::gsl_complex_long_double" : {
         "file" : "lib/Math/GSL/Linalg.pm",
         "version" : "0"
      },
      "Math::GSL::Linalg::gsl_permutation_struct" : {
         "file" : "lib/Math/GSL/Linalg.pm",
         "version" : "0"
      },
      "Math::GSL::Linalgc" : {
         "file" : "lib/Math/GSL/Linalg.pm",
         "version" : "0"
      },
      "Math::GSL::Machine" : {
         "file" : "lib/Math/GSL/Machine.pm",
         "version" : "0"
      },
      "Math::GSL::Machinec" : {
         "file" : "lib/Math/GSL/Machine.pm",
         "version" : "0"
      },
      "Math::GSL::Matrix" : {
         "file" : "lib/Math/GSL/Matrix.pm",
         "version" : "0"
      },
      "Math::GSL::Matrix::gsl_complex" : {
         "file" : "lib/Math/GSL/Matrix.pm",
         "version" : "0"
      },
      "Math::GSL::Matrix::gsl_complex_float" : {
         "file" : "lib/Math/GSL/Matrix.pm",
         "version" : "0"
      },
      "Math::GSL::Matrix::gsl_complex_long_double" : {
         "file" : "lib/Math/GSL/Matrix.pm",
         "version" : "0"
      },
      "Math::GSL::Matrix::gsl_matrix" : {
         "file" : "lib/Math/GSL/Matrix.pm",
         "version" : "0"
      },
      "Math::GSL::Matrix::gsl_matrix_char" : {
         "file" : "lib/Math/GSL/Matrix.pm",
         "version" : "0"
      },
      "Math::GSL::Matrix::gsl_matrix_complex" : {
         "file" : "lib/Math/GSL/Matrix.pm",
         "version" : "0"
      },
      "Math::GSL::Matrix::gsl_matrix_int" : {
         "file" : "lib/Math/GSL/Matrix.pm",
         "version" : "0"
      },
      "Math::GSL::Matrix::gsl_vector" : {
         "file" : "lib/Math/GSL/Matrix.pm",
         "version" : "0"
      },
      "Math::GSL::MatrixComplex" : {
         "file" : "lib/Math/GSL/MatrixComplex.pm",
         "version" : "0"
      },
      "Math::GSL::MatrixComplex::gsl_complex" : {
         "file" : "lib/Math/GSL/MatrixComplex.pm",
         "version" : "0"
      },
      "Math::GSL::MatrixComplex::gsl_complex_float" : {
         "file" : "lib/Math/GSL/MatrixComplex.pm",
         "version" : "0"
      },
      "Math::GSL::MatrixComplex::gsl_complex_long_double" : {
         "file" : "lib/Math/GSL/MatrixComplex.pm",
         "version" : "0"
      },
      "Math::GSL::MatrixComplex::gsl_matrix_complex" : {
         "file" : "lib/Math/GSL/MatrixComplex.pm",
         "version" : "0"
      },
      "Math::GSL::MatrixComplex::gsl_vector" : {
         "file" : "lib/Math/GSL/MatrixComplex.pm",
         "version" : "0"
      },
      "Math::GSL::MatrixComplexc" : {
         "file" : "lib/Math/GSL/MatrixComplex.pm",
         "version" : "0"
      },
      "Math::GSL::Matrixc" : {
         "file" : "lib/Math/GSL/Matrix.pm",
         "version" : "0"
      },
      "Math::GSL::Min" : {
         "file" : "lib/Math/GSL/Min.pm",
         "version" : "0"
      },
      "Math::GSL::Min::gsl_function_fdf_struct" : {
         "file" : "lib/Math/GSL/Min.pm",
         "version" : "0"
      },
      "Math::GSL::Min::gsl_function_struct" : {
         "file" : "lib/Math/GSL/Min.pm",
         "version" : "0"
      },
      "Math::GSL::Min::gsl_function_vec_struct" : {
         "file" : "lib/Math/GSL/Min.pm",
         "version" : "0"
      },
      "Math::GSL::Min::gsl_min_fminimizer" : {
         "file" : "lib/Math/GSL/Min.pm",
         "version" : "0"
      },
      "Math::GSL::Min::gsl_min_fminimizer_type" : {
         "file" : "lib/Math/GSL/Min.pm",
         "version" : "0"
      },
      "Math::GSL::Minc" : {
         "file" : "lib/Math/GSL/Min.pm",
         "version" : "0"
      },
      "Math::GSL::Monte" : {
         "file" : "lib/Math/GSL/Monte.pm",
         "version" : "0"
      },
      "Math::GSL::Monte::gsl_monte_function_struct" : {
         "file" : "lib/Math/GSL/Monte.pm",
         "version" : "0"
      },
      "Math::GSL::Monte::gsl_monte_miser_params" : {
         "file" : "lib/Math/GSL/Monte.pm",
         "version" : "0"
      },
      "Math::GSL::Monte::gsl_monte_miser_state" : {
         "file" : "lib/Math/GSL/Monte.pm",
         "version" : "0"
      },
      "Math::GSL::Monte::gsl_monte_plain_state" : {
         "file" : "lib/Math/GSL/Monte.pm",
         "version" : "0"
      },
      "Math::GSL::Monte::gsl_monte_vegas_params" : {
         "file" : "lib/Math/GSL/Monte.pm",
         "version" : "0"
      },
      "Math::GSL::Monte::gsl_monte_vegas_state" : {
         "file" : "lib/Math/GSL/Monte.pm",
         "version" : "0"
      },
      "Math::GSL::Montec" : {
         "file" : "lib/Math/GSL/Monte.pm",
         "version" : "0"
      },
      "Math::GSL::Multifit" : {
         "file" : "lib/Math/GSL/Multifit.pm",
         "version" : "0"
      },
      "Math::GSL::Multifit::gsl_multifit_fdfsolver" : {
         "file" : "lib/Math/GSL/Multifit.pm",
         "version" : "0"
      },
      "Math::GSL::Multifit::gsl_multifit_fdfsolver_type" : {
         "file" : "lib/Math/GSL/Multifit.pm",
         "version" : "0"
      },
      "Math::GSL::Multifit::gsl_multifit_fsolver" : {
         "file" : "lib/Math/GSL/Multifit.pm",
         "version" : "0"
      },
      "Math::GSL::Multifit::gsl_multifit_fsolver_type" : {
         "file" : "lib/Math/GSL/Multifit.pm",
         "version" : "0"
      },
      "Math::GSL::Multifit::gsl_multifit_function_fdf_struct" : {
         "file" : "lib/Math/GSL/Multifit.pm",
         "version" : "0"
      },
      "Math::GSL::Multifit::gsl_multifit_function_struct" : {
         "file" : "lib/Math/GSL/Multifit.pm",
         "version" : "0"
      },
      "Math::GSL::Multifit::gsl_multifit_linear_workspace" : {
         "file" : "lib/Math/GSL/Multifit.pm",
         "version" : "0"
      },
      "Math::GSL::Multifit::gsl_multifit_robust_stats" : {
         "file" : "lib/Math/GSL/Multifit.pm",
         "version" : "0"
      },
      "Math::GSL::Multifit::gsl_multifit_robust_type" : {
         "file" : "lib/Math/GSL/Multifit.pm",
         "version" : "0"
      },
      "Math::GSL::Multifit::gsl_multifit_robust_workspace" : {
         "file" : "lib/Math/GSL/Multifit.pm",
         "version" : "0"
      },
      "Math::GSL::Multifitc" : {
         "file" : "lib/Math/GSL/Multifit.pm",
         "version" : "0"
      },
      "Math::GSL::Multimin" : {
         "file" : "lib/Math/GSL/Multimin.pm",
         "version" : "0"
      },
      "Math::GSL::Multimin::gsl_multimin_fdfminimizer" : {
         "file" : "lib/Math/GSL/Multimin.pm",
         "version" : "0"
      },
      "Math::GSL::Multimin::gsl_multimin_fdfminimizer_type" : {
         "file" : "lib/Math/GSL/Multimin.pm",
         "version" : "0"
      },
      "Math::GSL::Multimin::gsl_multimin_fminimizer" : {
         "file" : "lib/Math/GSL/Multimin.pm",
         "version" : "0"
      },
      "Math::GSL::Multimin::gsl_multimin_fminimizer_type" : {
         "file" : "lib/Math/GSL/Multimin.pm",
         "version" : "0"
      },
      "Math::GSL::Multimin::gsl_multimin_function_fdf_struct" : {
         "file" : "lib/Math/GSL/Multimin.pm",
         "version" : "0"
      },
      "Math::GSL::Multimin::gsl_multimin_function_struct" : {
         "file" : "lib/Math/GSL/Multimin.pm",
         "version" : "0"
      },
      "Math::GSL::Multiminc" : {
         "file" : "lib/Math/GSL/Multimin.pm",
         "version" : "0"
      },
      "Math::GSL::Multiroots" : {
         "file" : "lib/Math/GSL/Multiroots.pm",
         "version" : "0"
      },
      "Math::GSL::Multiroots::gsl_multiroot_fdfsolver" : {
         "file" : "lib/Math/GSL/Multiroots.pm",
         "version" : "0"
      },
      "Math::GSL::Multiroots::gsl_multiroot_fdfsolver_type" : {
         "file" : "lib/Math/GSL/Multiroots.pm",
         "version" : "0"
      },
      "Math::GSL::Multiroots::gsl_multiroot_fsolver" : {
         "file" : "lib/Math/GSL/Multiroots.pm",
         "version" : "0"
      },
      "Math::GSL::Multiroots::gsl_multiroot_fsolver_type" : {
         "file" : "lib/Math/GSL/Multiroots.pm",
         "version" : "0"
      },
      "Math::GSL::Multiroots::gsl_multiroot_function_fdf_struct" : {
         "file" : "lib/Math/GSL/Multiroots.pm",
         "version" : "0"
      },
      "Math::GSL::Multiroots::gsl_multiroot_function_struct" : {
         "file" : "lib/Math/GSL/Multiroots.pm",
         "version" : "0"
      },
      "Math::GSL::Multirootsc" : {
         "file" : "lib/Math/GSL/Multiroots.pm",
         "version" : "0"
      },
      "Math::GSL::NTuple" : {
         "file" : "lib/Math/GSL/NTuple.pm",
         "version" : "0"
      },
      "Math::GSL::NTuple::gsl_histogram" : {
         "file" : "lib/Math/GSL/NTuple.pm",
         "version" : "0"
      },
      "Math::GSL::NTuple::gsl_histogram_pdf" : {
         "file" : "lib/Math/GSL/NTuple.pm",
         "version" : "0"
      },
      "Math::GSL::NTuple::gsl_ntuple" : {
         "file" : "lib/Math/GSL/NTuple.pm",
         "version" : "0"
      },
      "Math::GSL::NTuple::gsl_ntuple_select_fn" : {
         "file" : "lib/Math/GSL/NTuple.pm",
         "version" : "0"
      },
      "Math::GSL::NTuple::gsl_ntuple_value_fn" : {
         "file" : "lib/Math/GSL/NTuple.pm",
         "version" : "0"
      },
      "Math::GSL::NTuplec" : {
         "file" : "lib/Math/GSL/NTuple.pm",
         "version" : "0"
      },
      "Math::GSL::ODEIV" : {
         "file" : "lib/Math/GSL/ODEIV.pm",
         "version" : "0"
      },
      "Math::GSL::ODEIV::gsl_odeiv_control" : {
         "file" : "lib/Math/GSL/ODEIV.pm",
         "version" : "0"
      },
      "Math::GSL::ODEIV::gsl_odeiv_control_type" : {
         "file" : "lib/Math/GSL/ODEIV.pm",
         "version" : "0"
      },
      "Math::GSL::ODEIV::gsl_odeiv_evolve" : {
         "file" : "lib/Math/GSL/ODEIV.pm",
         "version" : "0"
      },
      "Math::GSL::ODEIV::gsl_odeiv_step" : {
         "file" : "lib/Math/GSL/ODEIV.pm",
         "version" : "0"
      },
      "Math::GSL::ODEIV::gsl_odeiv_step_type" : {
         "file" : "lib/Math/GSL/ODEIV.pm",
         "version" : "0"
      },
      "Math::GSL::ODEIV::gsl_odeiv_system" : {
         "file" : "lib/Math/GSL/ODEIV.pm",
         "version" : "0"
      },
      "Math::GSL::ODEIVc" : {
         "file" : "lib/Math/GSL/ODEIV.pm",
         "version" : "0"
      },
      "Math::GSL::Permutation" : {
         "file" : "lib/Math/GSL/Permutation.pm",
         "version" : "0"
      },
      "Math::GSL::Permutation::gsl_permutation_struct" : {
         "file" : "lib/Math/GSL/Permutation.pm",
         "version" : "0"
      },
      "Math::GSL::Permutationc" : {
         "file" : "lib/Math/GSL/Permutation.pm",
         "version" : "0"
      },
      "Math::GSL::Poly" : {
         "file" : "lib/Math/GSL/Poly.pm",
         "version" : "0"
      },
      "Math::GSL::Poly::gsl_complex" : {
         "file" : "lib/Math/GSL/Poly.pm",
         "version" : "0"
      },
      "Math::GSL::Poly::gsl_complex_float" : {
         "file" : "lib/Math/GSL/Poly.pm",
         "version" : "0"
      },
      "Math::GSL::Poly::gsl_complex_long_double" : {
         "file" : "lib/Math/GSL/Poly.pm",
         "version" : "0"
      },
      "Math::GSL::Poly::gsl_poly_complex_workspace" : {
         "file" : "lib/Math/GSL/Poly.pm",
         "version" : "0"
      },
      "Math::GSL::Polyc" : {
         "file" : "lib/Math/GSL/Poly.pm",
         "version" : "0"
      },
      "Math::GSL::PowInt" : {
         "file" : "lib/Math/GSL/PowInt.pm",
         "version" : "0"
      },
      "Math::GSL::PowIntc" : {
         "file" : "lib/Math/GSL/PowInt.pm",
         "version" : "0"
      },
      "Math::GSL::QRNG" : {
         "file" : "lib/Math/GSL/QRNG.pm",
         "version" : "0"
      },
      "Math::GSL::QRNG::Halton" : {
         "file" : "lib/Math/GSL/QRNG.pm",
         "version" : "0"
      },
      "Math::GSL::QRNG::Niederreiter2" : {
         "file" : "lib/Math/GSL/QRNG.pm",
         "version" : "0"
      },
      "Math::GSL::QRNG::ReverseHalton" : {
         "file" : "lib/Math/GSL/QRNG.pm",
         "version" : "0"
      },
      "Math::GSL::QRNG::Sobol" : {
         "file" : "lib/Math/GSL/QRNG.pm",
         "version" : "0"
      },
      "Math::GSL::QRNG::gsl_qrng" : {
         "file" : "lib/Math/GSL/QRNG.pm",
         "version" : "0"
      },
      "Math::GSL::QRNG::gsl_qrng_type" : {
         "file" : "lib/Math/GSL/QRNG.pm",
         "version" : "0"
      },
      "Math::GSL::QRNGc" : {
         "file" : "lib/Math/GSL/QRNG.pm",
         "version" : "0"
      },
      "Math::GSL::RNG" : {
         "file" : "lib/Math/GSL/RNG.pm",
         "version" : "0"
      },
      "Math::GSL::RNG::gsl_rng" : {
         "file" : "lib/Math/GSL/RNG.pm",
         "version" : "0"
      },
      "Math::GSL::RNG::gsl_rng_type" : {
         "file" : "lib/Math/GSL/RNG.pm",
         "version" : "0"
      },
      "Math::GSL::RNGc" : {
         "file" : "lib/Math/GSL/RNG.pm",
         "version" : "0"
      },
      "Math::GSL::Randist" : {
         "file" : "lib/Math/GSL/Randist.pm",
         "version" : "0"
      },
      "Math::GSL::Randist::gsl_ran_discrete_t" : {
         "file" : "lib/Math/GSL/Randist.pm",
         "version" : "0"
      },
      "Math::GSL::Randistc" : {
         "file" : "lib/Math/GSL/Randist.pm",
         "version" : "0"
      },
      "Math::GSL::Roots" : {
         "file" : "lib/Math/GSL/Roots.pm",
         "version" : "0"
      },
      "Math::GSL::Roots::gsl_root_fdfsolver" : {
         "file" : "lib/Math/GSL/Roots.pm",
         "version" : "0"
      },
      "Math::GSL::Roots::gsl_root_fdfsolver_type" : {
         "file" : "lib/Math/GSL/Roots.pm",
         "version" : "0"
      },
      "Math::GSL::Roots::gsl_root_fsolver" : {
         "file" : "lib/Math/GSL/Roots.pm",
         "version" : "0"
      },
      "Math::GSL::Roots::gsl_root_fsolver_type" : {
         "file" : "lib/Math/GSL/Roots.pm",
         "version" : "0"
      },
      "Math::GSL::Rootsc" : {
         "file" : "lib/Math/GSL/Roots.pm",
         "version" : "0"
      },
      "Math::GSL::SF" : {
         "file" : "lib/Math/GSL/SF.pm",
         "version" : "0"
      },
      "Math::GSL::SF::gsl_sf_mathieu_workspace" : {
         "file" : "lib/Math/GSL/SF.pm",
         "version" : "0"
      },
      "Math::GSL::SF::gsl_sf_result_e10_struct" : {
         "file" : "lib/Math/GSL/SF.pm",
         "version" : "0"
      },
      "Math::GSL::SF::gsl_sf_result_struct" : {
         "file" : "lib/Math/GSL/SF.pm",
         "version" : "0"
      },
      "Math::GSL::SFc" : {
         "file" : "lib/Math/GSL/SF.pm",
         "version" : "0"
      },
      "Math::GSL::Siman" : {
         "file" : "lib/Math/GSL/Siman.pm",
         "version" : "0"
      },
      "Math::GSL::Siman::gsl_siman_params_t" : {
         "file" : "lib/Math/GSL/Siman.pm",
         "version" : "0"
      },
      "Math::GSL::Simanc" : {
         "file" : "lib/Math/GSL/Siman.pm",
         "version" : "0"
      },
      "Math::GSL::Sort" : {
         "file" : "lib/Math/GSL/Sort.pm",
         "version" : "0"
      },
      "Math::GSL::Sort::gsl_permutation_struct" : {
         "file" : "lib/Math/GSL/Sort.pm",
         "version" : "0"
      },
      "Math::GSL::Sortc" : {
         "file" : "lib/Math/GSL/Sort.pm",
         "version" : "0"
      },
      "Math::GSL::Spline" : {
         "file" : "lib/Math/GSL/Spline.pm",
         "version" : "0"
      },
      "Math::GSL::Spline::gsl_spline" : {
         "file" : "lib/Math/GSL/Spline.pm",
         "version" : "0"
      },
      "Math::GSL::Splinec" : {
         "file" : "lib/Math/GSL/Spline.pm",
         "version" : "0"
      },
      "Math::GSL::Statistics" : {
         "file" : "lib/Math/GSL/Statistics.pm",
         "version" : "0"
      },
      "Math::GSL::Statisticsc" : {
         "file" : "lib/Math/GSL/Statistics.pm",
         "version" : "0"
      },
      "Math::GSL::Sum" : {
         "file" : "lib/Math/GSL/Sum.pm",
         "version" : "0"
      },
      "Math::GSL::Sum::gsl_sum_levin_u_workspace" : {
         "file" : "lib/Math/GSL/Sum.pm",
         "version" : "0"
      },
      "Math::GSL::Sum::gsl_sum_levin_utrunc_workspace" : {
         "file" : "lib/Math/GSL/Sum.pm",
         "version" : "0"
      },
      "Math::GSL::Sumc" : {
         "file" : "lib/Math/GSL/Sum.pm",
         "version" : "0"
      },
      "Math::GSL::Sys" : {
         "file" : "lib/Math/GSL/Sys.pm",
         "version" : "0"
      },
      "Math::GSL::Sysc" : {
         "file" : "lib/Math/GSL/Sys.pm",
         "version" : "0"
      },
      "Math::GSL::Test" : {
         "file" : "lib/Math/GSL/Test.pm",
         "version" : "0"
      },
      "Math::GSL::Vector" : {
         "file" : "lib/Math/GSL/Vector.pm",
         "version" : "0"
      },
      "Math::GSL::Vector::gsl_vector" : {
         "file" : "lib/Math/GSL/Vector.pm",
         "version" : "0"
      },
      "Math::GSL::Vector::gsl_vector_char" : {
         "file" : "lib/Math/GSL/Vector.pm",
         "version" : "0"
      },
      "Math::GSL::Vector::gsl_vector_complex" : {
         "file" : "lib/Math/GSL/Vector.pm",
         "version" : "0"
      },
      "Math::GSL::Vector::gsl_vector_int" : {
         "file" : "lib/Math/GSL/Vector.pm",
         "version" : "0"
      },
      "Math::GSL::VectorComplex" : {
         "file" : "lib/Math/GSL/VectorComplex.pm",
         "version" : "0"
      },
      "Math::GSL::VectorComplex::gsl_complex" : {
         "file" : "lib/Math/GSL/VectorComplex.pm",
         "version" : "0"
      },
      "Math::GSL::VectorComplex::gsl_complex_float" : {
         "file" : "lib/Math/GSL/VectorComplex.pm",
         "version" : "0"
      },
      "Math::GSL::VectorComplex::gsl_complex_long_double" : {
         "file" : "lib/Math/GSL/VectorComplex.pm",
         "version" : "0"
      },
      "Math::GSL::VectorComplex::gsl_vector" : {
         "file" : "lib/Math/GSL/VectorComplex.pm",
         "version" : "0"
      },
      "Math::GSL::VectorComplex::gsl_vector_complex" : {
         "file" : "lib/Math/GSL/VectorComplex.pm",
         "version" : "0"
      },
      "Math::GSL::VectorComplexc" : {
         "file" : "lib/Math/GSL/VectorComplex.pm",
         "version" : "0"
      },
      "Math::GSL::Vectorc" : {
         "file" : "lib/Math/GSL/Vector.pm",
         "version" : "0"
      },
      "Math::GSL::Version" : {
         "file" : "lib/Math/GSL/Version.pm",
         "version" : "0"
      },
      "Math::GSL::Versionc" : {
         "file" : "lib/Math/GSL/Version.pm",
         "version" : "0"
      },
      "Math::GSL::Wavelet" : {
         "file" : "lib/Math/GSL/Wavelet.pm",
         "version" : "0"
      },
      "Math::GSL::Wavelet2D" : {
         "file" : "lib/Math/GSL/Wavelet2D.pm",
         "version" : "0"
      },
      "Math::GSL::Wavelet2Dc" : {
         "file" : "lib/Math/GSL/Wavelet2D.pm",
         "version" : "0"
      },
      "Math::GSL::Wavelet::gsl_wavelet" : {
         "file" : "lib/Math/GSL/Wavelet.pm",
         "version" : "0"
      },
      "Math::GSL::Wavelet::gsl_wavelet_type" : {
         "file" : "lib/Math/GSL/Wavelet.pm",
         "version" : "0"
      },
      "Math::GSL::Wavelet::gsl_wavelet_workspace" : {
         "file" : "lib/Math/GSL/Wavelet.pm",
         "version" : "0"
      },
      "Math::GSL::Waveletc" : {
         "file" : "lib/Math/GSL/Wavelet.pm",
         "version" : "0"
      }
   },
   "release_status" : "stable",
   "resources" : {
      "license" : [
         "http://opensource.org/licenses/gpl-license.php"
      ],
      "repository" : {
         "url" : "http://github.com/leto/math--gsl/tree/master"
      }
   },
   "version" : "0.36"
}
