{
   "abstract" : "American, British, and Canadian English",
   "author" : [
      "Ben Bullock <bkb@cpan.org>"
   ],
   "dynamic_config" : 1,
   "generated_by" : "ExtUtils::MakeMaker version 7.04, CPAN::Meta::Converter version 2.150005",
   "license" : [
      "perl_5"
   ],
   "meta-spec" : {
      "url" : "http://search.cpan.org/perldoc?CPAN::Meta::Spec",
      "version" : "2"
   },
   "name" : "Lingua-EN-ABC",
   "no_index" : {
      "directory" : [
         "t",
         "inc"
      ]
   },
   "prereqs" : {
      "build" : {
         "requires" : {
            "ExtUtils::MakeMaker" : "0"
         }
      },
      "configure" : {
         "requires" : {
            "ExtUtils::MakeMaker" : "0"
         }
      },
      "runtime" : {
         "requires" : {
            "JSON::Parse" : "0.38",
            "perl" : "5.006001"
         }
      }
   },
   "release_status" : "stable",
   "resources" : {
      "bugtracker" : {
         "web" : "https://github.com/benkasminbullock/Lingua-EN-ABC/issues"
      },
      "repository" : {
         "url" : "https://github.com/benkasminbullock/Lingua-EN-ABC"
      }
   },
   "version" : "0.06",
   "x_serialization_backend" : "JSON::PP version 2.27300"
}
