{
   "abstract" : "accept only server-minted cookies",
   "author" : [
      "Aristotle Pagaltzis <pagaltzis@gmx.de>"
   ],
   "dynamic_config" : 0,
   "generated_by" : "Dist::Zilla version 5.030, CPAN::Meta::Converter version 2.143240",
   "license" : [
      "perl_5"
   ],
   "meta-spec" : {
      "url" : "http://search.cpan.org/perldoc?CPAN::Meta::Spec",
      "version" : "2"
   },
   "name" : "Plack-Middleware-SignedCookies",
   "prereqs" : {
      "configure" : {
         "requires" : {
            "ExtUtils::MakeMaker" : "0"
         }
      },
      "runtime" : {
         "requires" : {
            "Digest::SHA" : "0",
            "Plack::Middleware" : "0",
            "Plack::Util" : "0",
            "Plack::Util::Accessor" : "0",
            "parent" : "0",
            "perl" : "5.010",
            "strict" : "0",
            "warnings" : "0"
         }
      },
      "test" : {
         "requires" : {
            "File::Find" : "0",
            "File::Temp" : "0",
            "HTTP::Request::Common" : "0",
            "Plack::Builder" : "0",
            "Plack::Request" : "0",
            "Plack::Test" : "0",
            "Test::More" : "0"
         }
      }
   },
   "release_status" : "stable",
   "resources" : {
      "bugtracker" : {
         "web" : "http://github.com/ap/Plack-Middleware-SignedCookies/issues"
      },
      "homepage" : "http://github.com/ap/Plack-Middleware-SignedCookies",
      "repository" : {
         "type" : "git",
         "url" : "git://github.com/ap/Plack-Middleware-SignedCookies"
      }
   },
   "version" : "1.103"
}

