{
   "abstract" : "Perl::Critic policies inspired by #perl on freenode IRC",
   "author" : [
      "Dan Book <dbook@cpan.org>"
   ],
   "dynamic_config" : 0,
   "generated_by" : "Dist::Zilla version 6.008, CPAN::Meta::Converter version 2.150005",
   "license" : [
      "artistic_2"
   ],
   "meta-spec" : {
      "url" : "http://search.cpan.org/perldoc?CPAN::Meta::Spec",
      "version" : 2
   },
   "name" : "Perl-Critic-Freenode",
   "no_index" : {
      "directory" : [
         "eg",
         "examples",
         "inc",
         "share",
         "t",
         "xt"
      ]
   },
   "prereqs" : {
      "configure" : {
         "requires" : {
            "Module::Build::Tiny" : "0.034"
         }
      },
      "develop" : {
         "requires" : {
            "Test::Pod" : "1.41"
         },
         "suggests" : {
            "App::PPI::Dumper" : "0"
         }
      },
      "runtime" : {
         "requires" : {
            "Carp" : "0",
            "Exporter" : "0",
            "List::Util" : "1.33",
            "Perl::Critic" : "1.126",
            "Perl::Critic::Policy::Objects::ProhibitIndirectSyntax" : "1.126",
            "Perl::Critic::Policy::Subroutines::ProhibitAmpersandSigils" : "1.126",
            "Perl::Critic::Policy::ValuesAndExpressions::ProhibitArrayAssignAref" : "90",
            "Perl::Critic::Policy::Variables::ProhibitConditionalDeclarations" : "1.126",
            "Scalar::Util" : "0",
            "parent" : "0",
            "perl" : "5.010001",
            "version" : "0"
         }
      },
      "test" : {
         "recommends" : {
            "CPAN::Meta" : "2.120900"
         },
         "requires" : {
            "File::Spec" : "0",
            "Module::Metadata" : "0",
            "Test::More" : "0"
         }
      }
   },
   "provides" : {
      "Perl::Critic::Freenode" : {
         "file" : "lib/Perl/Critic/Freenode.pm",
         "version" : "0.019"
      },
      "Perl::Critic::Freenode::Utils" : {
         "file" : "lib/Perl/Critic/Freenode/Utils.pm",
         "version" : "0.019"
      },
      "Perl::Critic::Policy::Freenode::AmpersandSubCalls" : {
         "file" : "lib/Perl/Critic/Policy/Freenode/AmpersandSubCalls.pm",
         "version" : "0.019"
      },
      "Perl::Critic::Policy::Freenode::ArrayAssignAref" : {
         "file" : "lib/Perl/Critic/Policy/Freenode/ArrayAssignAref.pm",
         "version" : "0.019"
      },
      "Perl::Critic::Policy::Freenode::BarewordFilehandles" : {
         "file" : "lib/Perl/Critic/Policy/Freenode/BarewordFilehandles.pm",
         "version" : "0.019"
      },
      "Perl::Critic::Policy::Freenode::ConditionalDeclarations" : {
         "file" : "lib/Perl/Critic/Policy/Freenode/ConditionalDeclarations.pm",
         "version" : "0.019"
      },
      "Perl::Critic::Policy::Freenode::ConditionalImplicitReturn" : {
         "file" : "lib/Perl/Critic/Policy/Freenode/ConditionalImplicitReturn.pm",
         "version" : "0.019"
      },
      "Perl::Critic::Policy::Freenode::DeprecatedFeatures" : {
         "file" : "lib/Perl/Critic/Policy/Freenode/DeprecatedFeatures.pm",
         "version" : "0.019"
      },
      "Perl::Critic::Policy::Freenode::DiscouragedModules" : {
         "file" : "lib/Perl/Critic/Policy/Freenode/DiscouragedModules.pm",
         "version" : "0.019"
      },
      "Perl::Critic::Policy::Freenode::DollarAB" : {
         "file" : "lib/Perl/Critic/Policy/Freenode/DollarAB.pm",
         "version" : "0.019"
      },
      "Perl::Critic::Policy::Freenode::Each" : {
         "file" : "lib/Perl/Critic/Policy/Freenode/Each.pm",
         "version" : "0.019"
      },
      "Perl::Critic::Policy::Freenode::EmptyReturn" : {
         "file" : "lib/Perl/Critic/Policy/Freenode/EmptyReturn.pm",
         "version" : "0.019"
      },
      "Perl::Critic::Policy::Freenode::IndirectObjectNotation" : {
         "file" : "lib/Perl/Critic/Policy/Freenode/IndirectObjectNotation.pm",
         "version" : "0.019"
      },
      "Perl::Critic::Policy::Freenode::ModPerl" : {
         "file" : "lib/Perl/Critic/Policy/Freenode/ModPerl.pm",
         "version" : "0.019"
      },
      "Perl::Critic::Policy::Freenode::OpenArgs" : {
         "file" : "lib/Perl/Critic/Policy/Freenode/OpenArgs.pm",
         "version" : "0.019"
      },
      "Perl::Critic::Policy::Freenode::OverloadOptions" : {
         "file" : "lib/Perl/Critic/Policy/Freenode/OverloadOptions.pm",
         "version" : "0.019"
      },
      "Perl::Critic::Policy::Freenode::POSIXImports" : {
         "file" : "lib/Perl/Critic/Policy/Freenode/POSIXImports.pm",
         "version" : "0.019"
      },
      "Perl::Critic::Policy::Freenode::Prototypes" : {
         "file" : "lib/Perl/Critic/Policy/Freenode/Prototypes.pm",
         "version" : "0.019"
      },
      "Perl::Critic::Policy::Freenode::StrictWarnings" : {
         "file" : "lib/Perl/Critic/Policy/Freenode/StrictWarnings.pm",
         "version" : "0.019"
      },
      "Perl::Critic::Policy::Freenode::Threads" : {
         "file" : "lib/Perl/Critic/Policy/Freenode/Threads.pm",
         "version" : "0.019"
      },
      "Perl::Critic::Policy::Freenode::Wantarray" : {
         "file" : "lib/Perl/Critic/Policy/Freenode/Wantarray.pm",
         "version" : "0.019"
      },
      "Perl::Critic::Policy::Freenode::WarningsSwitch" : {
         "file" : "lib/Perl/Critic/Policy/Freenode/WarningsSwitch.pm",
         "version" : "0.019"
      },
      "Perl::Critic::Policy::Freenode::WhileDiamondDefaultAssignment" : {
         "file" : "lib/Perl/Critic/Policy/Freenode/WhileDiamondDefaultAssignment.pm",
         "version" : "0.019"
      }
   },
   "release_status" : "stable",
   "resources" : {
      "bugtracker" : {
         "web" : "https://github.com/Grinnz/Perl-Critic-Freenode/issues"
      },
      "homepage" : "https://github.com/Grinnz/Perl-Critic-Freenode",
      "repository" : {
         "type" : "git",
         "url" : "https://github.com/Grinnz/Perl-Critic-Freenode.git",
         "web" : "https://github.com/Grinnz/Perl-Critic-Freenode"
      },
      "x_IRC" : "irc://chat.freenode.net/#perl"
   },
   "version" : "0.019",
   "x_Dist_Zilla" : {
      "perl" : {
         "version" : "5.024000"
      },
      "plugins" : [
         {
            "class" : "Dist::Zilla::Plugin::GithubMeta",
            "name" : "@Author::DBOOK/GithubMeta",
            "version" : "0.54"
         },
         {
            "class" : "Dist::Zilla::Plugin::ReadmeAnyFromPod",
            "config" : {
               "Dist::Zilla::Role::FileWatcher" : {
                  "version" : "0.006"
               }
            },
            "name" : "@Author::DBOOK/Readme_Github",
            "version" : "0.163250"
         },
         {
            "class" : "Dist::Zilla::Plugin::GenerateFile",
            "name" : "@Author::DBOOK/Generate_Contrib",
            "version" : "6.008"
         },
         {
            "class" : "Dist::Zilla::Plugin::MetaConfig",
            "name" : "@Author::DBOOK/MetaConfig",
            "version" : "6.008"
         },
         {
            "class" : "Dist::Zilla::Plugin::MetaProvides::Package",
            "config" : {
               "Dist::Zilla::Plugin::MetaProvides::Package" : {
                  "finder_objects" : [
                     {
                        "class" : "Dist::Zilla::Plugin::FinderCode",
                        "name" : "@Author::DBOOK/MetaProvides::Package/AUTOVIV/:InstallModulesPM",
                        "version" : "6.008"
                     }
                  ],
                  "include_underscores" : 0
               },
               "Dist::Zilla::Role::MetaProvider::Provider" : {
                  "$Dist::Zilla::Role::MetaProvider::Provider::VERSION" : "2.002003",
                  "inherit_missing" : "1",
                  "inherit_version" : "1",
                  "meta_noindex" : "1"
               },
               "Dist::Zilla::Role::ModuleMetadata" : {
                  "Module::Metadata" : "1.000031",
                  "version" : "0.004"
               }
            },
            "name" : "@Author::DBOOK/MetaProvides::Package",
            "version" : "2.004002"
         },
         {
            "class" : "Dist::Zilla::Plugin::Prereqs::FromCPANfile",
            "name" : "@Author::DBOOK/Prereqs::FromCPANfile",
            "version" : "0.08"
         },
         {
            "class" : "Dist::Zilla::Plugin::Git::Contributors",
            "config" : {
               "Dist::Zilla::Plugin::Git::Contributors" : {
                  "git --version" : "1.7.1",
                  "include_authors" : 0,
                  "include_releaser" : 1,
                  "order_by" : "name",
                  "paths" : []
               }
            },
            "name" : "@Author::DBOOK/Git::Contributors",
            "version" : "0.029"
         },
         {
            "class" : "Dist::Zilla::Plugin::MetaNoIndex",
            "name" : "@Author::DBOOK/MetaNoIndex",
            "version" : "6.008"
         },
         {
            "class" : "Dist::Zilla::Plugin::MetaResources",
            "name" : "@Author::DBOOK/MetaResources",
            "version" : "6.008"
         },
         {
            "class" : "Dist::Zilla::Plugin::CheckChangesHasContent",
            "name" : "@Author::DBOOK/CheckChangesHasContent",
            "version" : "0.010"
         },
         {
            "class" : "Dist::Zilla::Plugin::Git::Check",
            "config" : {
               "Dist::Zilla::Plugin::Git::Check" : {
                  "untracked_files" : "die"
               },
               "Dist::Zilla::Role::Git::DirtyFiles" : {
                  "allow_dirty" : [
                     "Changes",
                     "README.pod",
                     "dist.ini"
                  ],
                  "allow_dirty_match" : [],
                  "changelog" : "Changes"
               },
               "Dist::Zilla::Role::Git::Repo" : {
                  "git --version" : "1.7.1",
                  "repo_root" : "."
               }
            },
            "name" : "@Author::DBOOK/Git::Check",
            "version" : "2.041"
         },
         {
            "class" : "Dist::Zilla::Plugin::RewriteVersion",
            "config" : {
               "Dist::Zilla::Plugin::RewriteVersion" : {
                  "add_tarball_name" : 0,
                  "finders" : [
                     ":ExecFiles",
                     ":InstallModules"
                  ],
                  "global" : 0,
                  "skip_version_provider" : 0
               }
            },
            "name" : "@Author::DBOOK/RewriteVersion",
            "version" : "0.015"
         },
         {
            "class" : "Dist::Zilla::Plugin::NextRelease",
            "name" : "@Author::DBOOK/NextRelease",
            "version" : "6.008"
         },
         {
            "class" : "Dist::Zilla::Plugin::CopyFilesFromRelease",
            "config" : {
               "Dist::Zilla::Plugin::CopyFilesFromRelease" : {
                  "filename" : [
                     "Build.PL",
                     "CONTRIBUTING.md",
                     "INSTALL",
                     "LICENSE",
                     "META.json"
                  ],
                  "match" : []
               }
            },
            "name" : "@Author::DBOOK/CopyFilesFromRelease",
            "version" : "0.006"
         },
         {
            "class" : "Dist::Zilla::Plugin::Git::Commit",
            "config" : {
               "Dist::Zilla::Plugin::Git::Commit" : {
                  "add_files_in" : [
                     "/"
                  ],
                  "commit_msg" : "v%v%n%n%c"
               },
               "Dist::Zilla::Role::Git::DirtyFiles" : {
                  "allow_dirty" : [
                     "Build.PL",
                     "CONTRIBUTING.md",
                     "Changes",
                     "INSTALL",
                     "LICENSE",
                     "META.json",
                     "README.pod",
                     "dist.ini"
                  ],
                  "allow_dirty_match" : [],
                  "changelog" : "Changes"
               },
               "Dist::Zilla::Role::Git::Repo" : {
                  "git --version" : "1.7.1",
                  "repo_root" : "."
               },
               "Dist::Zilla::Role::Git::StringFormatter" : {
                  "time_zone" : "local"
               }
            },
            "name" : "@Author::DBOOK/Git::Commit",
            "version" : "2.041"
         },
         {
            "class" : "Dist::Zilla::Plugin::Git::Tag",
            "config" : {
               "Dist::Zilla::Plugin::Git::Tag" : {
                  "branch" : null,
                  "changelog" : "Changes",
                  "signed" : 0,
                  "tag" : "v0.019",
                  "tag_format" : "v%v",
                  "tag_message" : "v%v"
               },
               "Dist::Zilla::Role::Git::Repo" : {
                  "git --version" : "1.7.1",
                  "repo_root" : "."
               },
               "Dist::Zilla::Role::Git::StringFormatter" : {
                  "time_zone" : "local"
               }
            },
            "name" : "@Author::DBOOK/Git::Tag",
            "version" : "2.041"
         },
         {
            "class" : "Dist::Zilla::Plugin::BumpVersionAfterRelease",
            "config" : {
               "Dist::Zilla::Plugin::BumpVersionAfterRelease" : {
                  "finders" : [
                     ":ExecFiles",
                     ":InstallModules"
                  ],
                  "global" : 0,
                  "munge_makefile_pl" : 0
               }
            },
            "name" : "@Author::DBOOK/BumpVersionAfterRelease",
            "version" : "0.015"
         },
         {
            "class" : "Dist::Zilla::Plugin::Git::Commit",
            "config" : {
               "Dist::Zilla::Plugin::Git::Commit" : {
                  "add_files_in" : [],
                  "commit_msg" : "Bump version"
               },
               "Dist::Zilla::Role::Git::DirtyFiles" : {
                  "allow_dirty" : [
                     "Changes",
                     "dist.ini"
                  ],
                  "allow_dirty_match" : [
                     "(?^:^(?:lib|script|bin)/)"
                  ],
                  "changelog" : "Changes"
               },
               "Dist::Zilla::Role::Git::Repo" : {
                  "git --version" : "1.7.1",
                  "repo_root" : "."
               },
               "Dist::Zilla::Role::Git::StringFormatter" : {
                  "time_zone" : "local"
               }
            },
            "name" : "@Author::DBOOK/Commit_Version_Bump",
            "version" : "2.041"
         },
         {
            "class" : "Dist::Zilla::Plugin::Git::Push",
            "config" : {
               "Dist::Zilla::Plugin::Git::Push" : {
                  "push_to" : [
                     "origin"
                  ],
                  "remotes_must_exist" : 1
               },
               "Dist::Zilla::Role::Git::Repo" : {
                  "git --version" : "1.7.1",
                  "repo_root" : "."
               }
            },
            "name" : "@Author::DBOOK/Git::Push",
            "version" : "2.041"
         },
         {
            "class" : "Dist::Zilla::Plugin::PodSyntaxTests",
            "name" : "@Author::DBOOK/PodSyntaxTests",
            "version" : "6.008"
         },
         {
            "class" : "Dist::Zilla::Plugin::Test::ReportPrereqs",
            "name" : "@Author::DBOOK/Test::ReportPrereqs",
            "version" : "0.025"
         },
         {
            "class" : "Dist::Zilla::Plugin::Git::GatherDir",
            "config" : {
               "Dist::Zilla::Plugin::GatherDir" : {
                  "exclude_filename" : [
                     "Build.PL",
                     "Build.PL",
                     "CONTRIBUTING.md",
                     "INSTALL",
                     "LICENSE",
                     "META.json",
                     "Makefile.PL"
                  ],
                  "exclude_match" : [],
                  "follow_symlinks" : 0,
                  "include_dotfiles" : 0,
                  "prefix" : "",
                  "prune_directory" : [],
                  "root" : "."
               },
               "Dist::Zilla::Plugin::Git::GatherDir" : {
                  "include_untracked" : 0
               }
            },
            "name" : "@Author::DBOOK/Git::GatherDir",
            "version" : "2.041"
         },
         {
            "class" : "Dist::Zilla::Plugin::Regenerate::AfterReleasers",
            "config" : {
               "Dist::Zilla::Plugin::Regenerate::AfterReleasers" : {
                  "plugins" : [
                     "@Author::DBOOK/Readme_Github",
                     "@Author::DBOOK/CopyFilesFromRelease"
                  ]
               },
               "Dist::Zilla::Role::Regenerator" : {
                  "$Dist::Zilla::Role::Regenerator::VERSION" : "0.001000"
               }
            },
            "name" : "@Author::DBOOK/Regenerate::AfterReleasers",
            "version" : "0.001000"
         },
         {
            "class" : "Dist::Zilla::Plugin::PruneCruft",
            "name" : "@Author::DBOOK/PruneCruft",
            "version" : "6.008"
         },
         {
            "class" : "Dist::Zilla::Plugin::ManifestSkip",
            "name" : "@Author::DBOOK/ManifestSkip",
            "version" : "6.008"
         },
         {
            "class" : "Dist::Zilla::Plugin::MetaYAML",
            "name" : "@Author::DBOOK/MetaYAML",
            "version" : "6.008"
         },
         {
            "class" : "Dist::Zilla::Plugin::MetaJSON",
            "name" : "@Author::DBOOK/MetaJSON",
            "version" : "6.008"
         },
         {
            "class" : "Dist::Zilla::Plugin::License",
            "name" : "@Author::DBOOK/License",
            "version" : "6.008"
         },
         {
            "class" : "Dist::Zilla::Plugin::ReadmeAnyFromPod",
            "config" : {
               "Dist::Zilla::Role::FileWatcher" : {
                  "version" : "0.006"
               }
            },
            "name" : "@Author::DBOOK/ReadmeAnyFromPod",
            "version" : "0.163250"
         },
         {
            "class" : "Dist::Zilla::Plugin::ExecDir",
            "name" : "@Author::DBOOK/ExecDir",
            "version" : "6.008"
         },
         {
            "class" : "Dist::Zilla::Plugin::ShareDir",
            "name" : "@Author::DBOOK/ShareDir",
            "version" : "6.008"
         },
         {
            "class" : "Dist::Zilla::Plugin::ExecDir",
            "name" : "@Author::DBOOK/ScriptDir",
            "version" : "6.008"
         },
         {
            "class" : "Dist::Zilla::Plugin::ModuleBuildTiny::Fallback",
            "config" : {
               "Dist::Zilla::Plugin::ModuleBuildTiny::Fallback" : {
                  "mb_version" : "0.28",
                  "plugins" : [
                     {
                        "class" : "Dist::Zilla::Plugin::ModuleBuild",
                        "config" : {
                           "Dist::Zilla::Role::TestRunner" : {
                              "default_jobs" : 1
                           }
                        },
                        "name" : "ModuleBuild, via ModuleBuildTiny::Fallback",
                        "version" : "6.008"
                     },
                     {
                        "class" : "Dist::Zilla::Plugin::ModuleBuildTiny",
                        "config" : {
                           "Dist::Zilla::Role::TestRunner" : {
                              "default_jobs" : 1
                           }
                        },
                        "name" : "ModuleBuildTiny, via ModuleBuildTiny::Fallback",
                        "version" : "0.015"
                     }
                  ]
               },
               "Dist::Zilla::Role::TestRunner" : {
                  "default_jobs" : 1
               }
            },
            "name" : "@Author::DBOOK/ModuleBuildTiny::Fallback",
            "version" : "0.023"
         },
         {
            "class" : "Dist::Zilla::Plugin::RunExtraTests",
            "config" : {
               "Dist::Zilla::Role::TestRunner" : {
                  "default_jobs" : 1
               }
            },
            "name" : "@Author::DBOOK/RunExtraTests",
            "version" : "0.029"
         },
         {
            "class" : "Dist::Zilla::Plugin::InstallGuide",
            "name" : "@Author::DBOOK/InstallGuide",
            "version" : "1.200007"
         },
         {
            "class" : "Dist::Zilla::Plugin::Manifest",
            "name" : "@Author::DBOOK/Manifest",
            "version" : "6.008"
         },
         {
            "class" : "Dist::Zilla::Plugin::TestRelease",
            "name" : "@Author::DBOOK/TestRelease",
            "version" : "6.008"
         },
         {
            "class" : "Dist::Zilla::Plugin::ConfirmRelease",
            "name" : "@Author::DBOOK/ConfirmRelease",
            "version" : "6.008"
         },
         {
            "class" : "Dist::Zilla::Plugin::UploadToCPAN",
            "name" : "@Author::DBOOK/UploadToCPAN",
            "version" : "6.008"
         },
         {
            "class" : "Dist::Zilla::Plugin::FinderCode",
            "name" : ":InstallModules",
            "version" : "6.008"
         },
         {
            "class" : "Dist::Zilla::Plugin::FinderCode",
            "name" : ":IncModules",
            "version" : "6.008"
         },
         {
            "class" : "Dist::Zilla::Plugin::FinderCode",
            "name" : ":TestFiles",
            "version" : "6.008"
         },
         {
            "class" : "Dist::Zilla::Plugin::FinderCode",
            "name" : ":ExtraTestFiles",
            "version" : "6.008"
         },
         {
            "class" : "Dist::Zilla::Plugin::FinderCode",
            "name" : ":ExecFiles",
            "version" : "6.008"
         },
         {
            "class" : "Dist::Zilla::Plugin::FinderCode",
            "name" : ":PerlExecFiles",
            "version" : "6.008"
         },
         {
            "class" : "Dist::Zilla::Plugin::FinderCode",
            "name" : ":ShareFiles",
            "version" : "6.008"
         },
         {
            "class" : "Dist::Zilla::Plugin::FinderCode",
            "name" : ":MainModule",
            "version" : "6.008"
         },
         {
            "class" : "Dist::Zilla::Plugin::FinderCode",
            "name" : ":AllFiles",
            "version" : "6.008"
         },
         {
            "class" : "Dist::Zilla::Plugin::FinderCode",
            "name" : ":NoFiles",
            "version" : "6.008"
         },
         {
            "class" : "Dist::Zilla::Plugin::FinderCode",
            "name" : "@Author::DBOOK/MetaProvides::Package/AUTOVIV/:InstallModulesPM",
            "version" : "6.008"
         }
      ],
      "zilla" : {
         "class" : "Dist::Zilla::Dist::Builder",
         "config" : {
            "is_trial" : "0"
         },
         "version" : "6.008"
      }
   },
   "x_contributors" : [
      "Dan Book <grinnz@gmail.com>",
      "Dan Book <grinnz@grinnz.com>",
      "Graham Knop <haarg@haarg.org>"
   ],
   "x_serialization_backend" : "Cpanel::JSON::XS version 3.0225"
}

